%!PS-Adobe-3.0 EPSF-3.0
%%Title: glps_renderer figure
%%Creator: GL2PS 1.3.8, (C) 1999-2012 C. Geuzaine
%%For: Octave
%%CreationDate: Wed Oct 18 12:57:20 2017
%%LanguageLevel: 3
%%DocumentData: Clean7Bit
%%Pages: 1
%%BoundingBox: 0 0 576 433
%%EndComments
%%BeginProlog
/gl2psdict 64 dict def gl2psdict begin
0 setlinecap 0 setlinejoin
/tryPS3shading false def % set to false to force subdivision
/rThreshold 0.064 def % red component subdivision threshold
/gThreshold 0.034 def % green component subdivision threshold
/bThreshold 0.1 def % blue component subdivision threshold
/BD { bind def } bind def
/C  { setrgbcolor } BD
/G  { 0.082 mul exch 0.6094 mul add exch 0.3086 mul add neg 1.0 add setgray } BD
/W  { setlinewidth } BD
/FC { findfont exch /SH exch def SH scalefont setfont } BD
/SW { dup stringwidth pop } BD
/S  { FC moveto show } BD
/SBC{ FC moveto SW -2 div 0 rmoveto show } BD
/SBR{ FC moveto SW neg 0 rmoveto show } BD
/SCL{ FC moveto 0 SH -2 div rmoveto show } BD
/SCC{ FC moveto SW -2 div SH -2 div rmoveto show } BD
/SCR{ FC moveto SW neg SH -2 div rmoveto show } BD
/STL{ FC moveto 0 SH neg rmoveto show } BD
/STC{ FC moveto SW -2 div SH neg rmoveto show } BD
/STR{ FC moveto SW neg SH neg rmoveto show } BD
/FCT { FC translate 0 0 } BD
/SR  { gsave FCT moveto rotate show grestore } BD
/SBCR{ gsave FCT moveto rotate SW -2 div 0 rmoveto show grestore } BD
/SBRR{ gsave FCT moveto rotate SW neg 0 rmoveto show grestore } BD
/SCLR{ gsave FCT moveto rotate 0 SH -2 div rmoveto show grestore} BD
/SCCR{ gsave FCT moveto rotate SW -2 div SH -2 div rmoveto show grestore} BD
/SCRR{ gsave FCT moveto rotate SW neg SH -2 div rmoveto show grestore} BD
/STLR{ gsave FCT moveto rotate 0 SH neg rmoveto show grestore } BD
/STCR{ gsave FCT moveto rotate SW -2 div SH neg rmoveto show grestore } BD
/STRR{ gsave FCT moveto rotate SW neg SH neg rmoveto show grestore } BD
/P  { newpath 0.0 360.0 arc closepath fill } BD
/LS { newpath moveto } BD
/L  { lineto } BD
/LE { lineto stroke } BD
/T  { newpath moveto lineto lineto closepath fill } BD
/STshfill {
      /b1 exch def /g1 exch def /r1 exch def /y1 exch def /x1 exch def
      /b2 exch def /g2 exch def /r2 exch def /y2 exch def /x2 exch def
      /b3 exch def /g3 exch def /r3 exch def /y3 exch def /x3 exch def
      gsave << /ShadingType 4 /ColorSpace [/DeviceRGB]
      /DataSource [ 0 x1 y1 r1 g1 b1 0 x2 y2 r2 g2 b2 0 x3 y3 r3 g3 b3 ] >>
      shfill grestore } BD
/Tm { 3 -1 roll 8 -1 roll 13 -1 roll add add 3 div
      3 -1 roll 7 -1 roll 11 -1 roll add add 3 div
      3 -1 roll 6 -1 roll 9 -1 roll add add 3 div C T } BD
/STsplit {
      4 index 15 index add 0.5 mul
      4 index 15 index add 0.5 mul
      4 index 15 index add 0.5 mul
      4 index 15 index add 0.5 mul
      4 index 15 index add 0.5 mul
      5 copy 5 copy 25 15 roll
      9 index 30 index add 0.5 mul
      9 index 30 index add 0.5 mul
      9 index 30 index add 0.5 mul
      9 index 30 index add 0.5 mul
      9 index 30 index add 0.5 mul
      5 copy 5 copy 35 5 roll 25 5 roll 15 5 roll
      4 index 10 index add 0.5 mul
      4 index 10 index add 0.5 mul
      4 index 10 index add 0.5 mul
      4 index 10 index add 0.5 mul
      4 index 10 index add 0.5 mul
      5 copy 5 copy 40 5 roll 25 5 roll 15 5 roll 25 5 roll
      STnoshfill STnoshfill STnoshfill STnoshfill } BD
/STnoshfill {
      2 index 8 index sub abs rThreshold gt
      { STsplit }
      { 1 index 7 index sub abs gThreshold gt
        { STsplit }
        { dup 6 index sub abs bThreshold gt
          { STsplit }
          { 2 index 13 index sub abs rThreshold gt
            { STsplit }
            { 1 index 12 index sub abs gThreshold gt
              { STsplit }
              { dup 11 index sub abs bThreshold gt
                { STsplit }
                { 7 index 13 index sub abs rThreshold gt
                  { STsplit }
                  { 6 index 12 index sub abs gThreshold gt
                    { STsplit }
                    { 5 index 11 index sub abs bThreshold gt
                      { STsplit }
                      { Tm }
                      ifelse }
                    ifelse }
                  ifelse }
                ifelse }
              ifelse }
            ifelse }
          ifelse }
        ifelse }
      ifelse } BD
tryPS3shading
{ /shfill where
  { /ST { STshfill } BD }
  { /ST { STnoshfill } BD }
  ifelse }
{ /ST { STnoshfill } BD }
ifelse
end
%%EndProlog
%%BeginSetup
/DeviceRGB setcolorspace
gl2psdict begin
%%EndSetup
%%Page: 1 1
%%BeginPageSetup
%%EndPageSetup
mark
gsave
1.0 1.0 scale
1 1 1 C
521.28 400.6 521.28 48.52 74.8799 48.52 T
74.8799 400.6 521.28 400.6 74.8799 48.52 T
518.539 397.858 518.539 321.063 330.322 321.063 T
330.322 397.858 518.539 397.858 330.322 321.063 T
0.5 W
[16 0] 0 setdash
0 0 0 C
74.8799 48.52 LS
521.28 48.52 LE
74.8799 400.6 LS
521.28 400.6 LE
74.8799 48.52 LS
74.8799 400.6 LE
521.28 48.52 LS
521.28 400.6 LE
74.8799 48.52 LS
74.8799 52.9849 LE
74.8799 400.6 LS
74.8799 396.135 LE
164.16 48.52 LS
164.16 52.9849 LE
164.16 400.6 LS
164.16 396.135 LE
253.44 48.52 LS
253.44 52.9849 LE
253.44 400.6 LS
253.44 396.135 LE
342.72 48.52 LS
342.72 52.9849 LE
342.72 400.6 LS
342.72 396.135 LE
432 48.52 LS
432 52.9849 LE
432 400.6 LS
432 396.135 LE
521.28 48.52 LS
521.28 52.9849 LE
521.28 400.6 LS
521.28 396.135 LE
(0) 74.8799 43.519 12 /Helvetica STC
(0.05) 164.16 43.519 12 /Helvetica STC
(0.1) 253.44 43.519 12 /Helvetica STC
(0.15) 342.72 43.519 12 /Helvetica STC
(0.2) 432 43.519 12 /Helvetica STC
(0.25) 521.28 43.519 12 /Helvetica STC
74.8799 48.52 LS
79.3481 48.52 LE
521.28 48.52 LS
516.812 48.52 LE
74.8799 107.2 LS
79.3481 107.2 LE
521.28 107.2 LS
516.812 107.2 LE
74.8799 165.88 LS
79.3481 165.88 LE
521.28 165.88 LS
516.812 165.88 LE
74.8799 224.56 LS
79.3481 224.56 LE
521.28 224.56 LS
516.812 224.56 LE
74.8799 283.24 LS
79.3481 283.24 LE
521.28 283.24 LS
516.812 283.24 LE
74.8799 341.92 LS
79.3481 341.92 LE
521.28 341.92 LS
516.812 341.92 LE
74.8799 400.6 LS
79.3481 400.6 LE
521.28 400.6 LS
516.812 400.6 LE
(0) 69.8755 48.52 12 /Helvetica SCR
(1) 69.8755 107.2 12 /Helvetica SCR
(2) 69.8755 165.88 12 /Helvetica SCR
(3) 69.8755 224.56 12 /Helvetica SCR
(4) 69.8755 283.24 12 /Helvetica SCR
(5) 69.8755 341.92 12 /Helvetica SCR
(6) 69.8755 400.6 12 /Helvetica SCR
(time (s)) 298.08 29.519 14 /Helvetica STC
(position (cm)) 90 57.8755 224.56 14 /Helvetica SBCR
2 W
[] 0 setdash
0.11 0.11 0.11 C
76.2368 341.92 LS
84.2368 341.92 LE
80.2368 345.92 LS
80.2368 337.92 LE
77.4082 344.749 LS
83.0654 339.092 LE
77.4082 339.092 LS
83.0654 344.749 LE
81.5938 341.721 LS
89.5938 341.721 LE
85.5938 345.721 LS
85.5938 337.721 LE
82.7651 344.55 LS
88.4219 338.893 LE
82.7651 338.893 LS
88.4219 344.55 LE
86.9502 341.415 LS
94.9502 341.415 LE
90.9502 345.415 LS
90.9502 337.415 LE
88.1221 344.244 LS
93.7788 338.587 LE
88.1221 338.587 LS
93.7788 344.244 LE
92.3071 341.01 LS
100.307 341.01 LE
96.3071 345.01 LS
96.3071 337.01 LE
93.479 343.838 LS
99.1357 338.182 LE
93.479 338.182 LS
99.1357 343.838 LE
97.6641 340.51 LS
105.664 340.51 LE
101.664 344.51 LS
101.664 336.51 LE
98.8354 343.338 LS
104.493 337.681 LE
98.8354 337.681 LS
104.493 343.338 LE
103.021 339.919 LS
111.021 339.919 LE
107.021 343.919 LS
107.021 335.919 LE
104.192 342.748 LS
109.849 337.091 LE
104.192 337.091 LS
109.849 342.748 LE
108.377 339.245 LS
116.377 339.245 LE
112.377 343.245 LS
112.377 335.245 LE
109.549 342.074 LS
115.206 336.417 LE
109.549 336.417 LS
115.206 342.074 LE
113.734 338.496 LS
121.734 338.496 LE
117.734 342.496 LS
117.734 334.495 LE
114.906 341.324 LS
120.563 335.667 LE
114.906 335.667 LS
120.563 341.324 LE
119.091 337.673 LS
127.091 337.673 LE
123.091 341.673 LS
123.091 333.673 LE
120.263 340.501 LS
125.919 334.844 LE
120.263 334.844 LS
125.919 340.501 LE
124.448 336.781 LS
132.448 336.781 LE
128.448 340.781 LS
128.448 332.781 LE
125.62 339.61 LS
131.276 333.953 LE
125.62 333.953 LS
131.276 339.61 LE
129.805 335.829 LS
137.805 335.829 LE
133.805 339.829 LS
133.805 331.829 LE
130.977 338.657 LS
136.633 333 LE
130.977 333 LS
136.633 338.657 LE
135.162 334.826 LS
143.162 334.826 LE
139.162 338.826 LS
139.162 330.826 LE
136.333 337.654 LS
141.99 331.997 LE
136.333 331.997 LS
141.99 337.654 LE
140.519 333.765 LS
148.519 333.765 LE
144.519 337.765 LS
144.519 329.765 LE
141.69 336.594 LS
147.347 330.937 LE
141.69 330.937 LS
147.347 336.594 LE
145.875 332.659 LS
153.875 332.659 LE
149.875 336.659 LS
149.875 328.659 LE
147.047 335.487 LS
152.704 329.83 LE
147.047 329.83 LS
152.704 335.487 LE
151.232 331.513 LS
159.232 331.513 LE
155.232 335.513 LS
155.232 327.513 LE
152.403 334.341 LS
158.061 328.685 LE
152.403 328.685 LS
158.061 334.341 LE
156.589 330.324 LS
164.589 330.324 LE
160.589 334.324 LS
160.589 326.324 LE
157.76 333.152 LS
163.417 327.496 LE
157.76 327.496 LS
163.417 333.152 LE
161.946 329.105 LS
169.946 329.105 LE
165.946 333.105 LS
165.946 325.105 LE
163.117 331.933 LS
168.774 326.276 LE
163.117 326.276 LS
168.774 331.933 LE
167.302 327.849 LS
175.302 327.849 LE
171.302 331.849 LS
171.302 323.849 LE
168.474 330.678 LS
174.131 325.021 LE
168.474 325.021 LS
174.131 330.678 LE
172.659 326.561 LS
180.659 326.561 LE
176.659 330.561 LS
176.659 322.561 LE
173.831 329.389 LS
179.488 323.732 LE
173.831 323.732 LS
179.488 329.389 LE
178.016 325.246 LS
186.016 325.246 LE
182.016 329.246 LS
182.016 321.246 LE
179.188 328.074 LS
184.844 322.417 LE
179.188 322.417 LS
184.844 328.074 LE
183.373 323.898 LS
191.373 323.898 LE
187.373 327.898 LS
187.373 319.898 LE
184.544 326.726 LS
190.201 321.069 LE
184.544 321.069 LS
190.201 326.726 LE
188.729 322.526 LS
196.729 322.526 LE
192.729 326.526 LS
192.729 318.526 LE
189.901 325.354 LS
195.558 319.697 LE
189.901 319.697 LS
195.558 325.354 LE
194.086 321.118 LS
202.086 321.118 LE
198.086 325.118 LS
198.086 317.118 LE
195.258 323.946 LS
200.915 318.29 LE
195.258 318.29 LS
200.915 323.946 LE
199.443 319.688 LS
207.443 319.688 LE
203.443 323.688 LS
203.443 315.688 LE
200.615 322.516 LS
206.271 316.859 LE
200.615 316.859 LS
206.271 322.516 LE
204.8 318.226 LS
212.8 318.226 LE
208.8 322.226 LS
208.8 314.226 LE
205.972 321.054 LS
211.628 315.397 LE
205.972 315.397 LS
211.628 321.054 LE
210.157 316.739 LS
218.157 316.739 LE
214.157 320.739 LS
214.157 312.739 LE
211.328 319.568 LS
216.985 313.911 LE
211.328 313.911 LS
216.985 319.568 LE
215.514 315.217 LS
223.514 315.217 LE
219.514 319.217 LS
219.514 311.217 LE
216.685 318.045 LS
222.342 312.389 LE
216.685 312.389 LS
222.342 318.045 LE
220.871 313.671 LS
228.871 313.671 LE
224.871 317.671 LS
224.871 309.671 LE
222.042 316.5 LS
227.699 310.843 LE
222.042 310.843 LS
227.699 316.5 LE
226.227 312.094 LS
234.227 312.094 LE
230.227 316.094 LS
230.227 308.094 LE
227.399 314.923 LS
233.056 309.266 LE
227.399 309.266 LS
233.056 314.923 LE
231.584 310.491 LS
239.584 310.491 LE
235.584 314.491 LS
235.584 306.491 LE
232.755 313.32 LS
238.413 307.663 LE
232.755 307.663 LS
238.413 313.32 LE
236.941 308.854 LS
244.941 308.854 LE
240.941 312.854 LS
240.941 304.854 LE
238.112 311.683 LS
243.769 306.025 LE
238.112 306.025 LS
243.769 311.683 LE
242.298 307.191 LS
250.298 307.191 LE
246.298 311.191 LS
246.298 303.191 LE
243.469 310.02 LS
249.126 304.363 LE
243.469 304.363 LS
249.126 310.02 LE
247.654 305.499 LS
255.654 305.499 LE
251.654 309.499 LS
251.654 301.499 LE
248.826 308.327 LS
254.483 302.67 LE
248.826 302.67 LS
254.483 308.327 LE
0.295 0.295 0.295 C
76.2368 321.985 LS
84.2368 321.985 LE
80.2368 325.985 LS
80.2368 317.985 LE
81.5938 321.8 LS
89.5938 321.8 LE
85.5938 325.8 LS
85.5938 317.8 LE
86.9502 321.508 LS
94.9502 321.508 LE
90.9502 325.508 LS
90.9502 317.508 LE
92.3071 321.114 LS
100.307 321.114 LE
96.3071 325.114 LS
96.3071 317.114 LE
97.6641 320.625 LS
105.664 320.625 LE
101.664 324.625 LS
101.664 316.625 LE
103.021 320.044 LS
111.021 320.044 LE
107.021 324.044 LS
107.021 316.044 LE
108.377 319.376 LS
116.377 319.376 LE
112.377 323.376 LS
112.377 315.376 LE
113.734 318.628 LS
121.734 318.628 LE
117.734 322.628 LS
117.734 314.628 LE
119.091 317.808 LS
127.091 317.808 LE
123.091 321.808 LS
123.091 313.808 LE
124.448 316.919 LS
132.448 316.919 LE
128.448 320.919 LS
128.448 312.919 LE
129.805 315.963 LS
137.805 315.963 LE
133.805 319.963 LS
133.805 311.963 LE
135.162 314.95 LS
143.162 314.95 LE
139.162 318.95 LS
139.162 310.95 LE
140.519 313.884 LS
148.519 313.884 LE
144.519 317.884 LS
144.519 309.884 LE
145.875 312.764 LS
153.875 312.764 LE
149.875 316.764 LS
149.875 308.764 LE
151.232 311.604 LS
159.232 311.604 LE
155.232 315.604 LS
155.232 307.604 LE
156.589 310.404 LS
164.589 310.404 LE
160.589 314.404 LS
160.589 306.404 LE
161.946 309.166 LS
169.946 309.166 LE
165.946 313.166 LS
165.946 305.166 LE
167.302 307.896 LS
175.302 307.896 LE
171.302 311.896 LS
171.302 303.896 LE
172.659 306.59 LS
180.659 306.59 LE
176.659 310.59 LS
176.659 302.59 LE
178.016 305.264 LS
186.016 305.264 LE
182.016 309.264 LS
182.016 301.264 LE
183.373 303.91 LS
191.373 303.91 LE
187.373 307.91 LS
187.373 299.91 LE
188.729 302.538 LS
196.729 302.538 LE
192.729 306.538 LS
192.729 298.538 LE
194.086 301.14 LS
202.086 301.14 LE
198.086 305.14 LS
198.086 297.14 LE
199.443 299.729 LS
207.443 299.729 LE
203.443 303.729 LS
203.443 295.729 LE
204.8 298.299 LS
212.8 298.299 LE
208.8 302.299 LS
208.8 294.299 LE
210.157 296.856 LS
218.157 296.856 LE
214.157 300.856 LS
214.157 292.856 LE
215.514 295.395 LS
223.514 295.395 LE
219.514 299.395 LS
219.514 291.395 LE
220.871 293.923 LS
228.871 293.923 LE
224.871 297.923 LS
224.871 289.923 LE
226.227 292.44 LS
234.227 292.44 LE
230.227 296.44 LS
230.227 288.44 LE
231.584 290.947 LS
239.584 290.947 LE
235.584 294.947 LS
235.584 286.947 LE
236.941 289.438 LS
244.941 289.438 LE
240.941 293.438 LS
240.941 285.438 LE
242.298 287.924 LS
250.298 287.924 LE
246.298 291.924 LS
246.298 283.924 LE
247.654 286.398 LS
255.654 286.398 LE
251.654 290.398 LS
251.654 282.398 LE
0.3 0.3 0.3 C
80.2495 341.577 LS
79.4854 339.226 L
77.4854 337.772 L
75.0132 337.772 L
73.0132 339.226 L
72.2495 341.577 L
73.0132 343.928 L
75.0132 345.381 L
77.4854 345.381 L
79.4854 343.928 L
80.2495 341.577 LE
94.6274 340.891 LS
93.8633 338.54 L
91.8633 337.086 L
89.3911 337.086 L
87.3911 338.54 L
86.6274 340.891 L
87.3911 343.242 L
89.3911 344.695 L
91.8633 344.695 L
93.8633 343.242 L
94.6274 340.891 LE
112.429 339.518 LS
111.665 337.167 L
109.665 335.714 L
107.192 335.714 L
105.192 337.167 L
104.429 339.518 L
105.192 341.869 L
107.192 343.322 L
109.665 343.322 L
111.665 341.869 L
112.429 339.518 LE
128.86 337.459 LS
128.097 335.108 L
126.097 333.655 L
123.625 333.655 L
121.625 335.108 L
120.86 337.459 L
121.625 339.81 L
123.625 341.263 L
126.097 341.263 L
128.097 339.81 L
128.86 337.459 LE
141.184 334.714 LS
140.42 332.362 L
138.42 330.91 L
135.948 330.91 L
133.948 332.362 L
133.184 334.714 L
133.948 337.065 L
135.948 338.518 L
138.42 338.518 L
140.42 337.065 L
141.184 334.714 LE
151.454 331.968 LS
150.69 329.617 L
148.69 328.164 L
146.218 328.164 L
144.218 329.617 L
143.454 331.968 L
144.218 334.319 L
146.218 335.772 L
148.69 335.772 L
150.69 334.319 L
151.454 331.968 LE
163.093 329.91 LS
162.33 327.558 L
160.33 326.105 L
157.857 326.105 L
155.857 327.558 L
155.093 329.91 L
155.857 332.261 L
157.857 333.714 L
160.33 333.714 L
162.33 332.261 L
163.093 329.91 LE
176.787 326.478 LS
176.023 324.127 L
174.023 322.674 L
171.551 322.674 L
169.551 324.127 L
168.787 326.478 L
169.551 328.829 L
171.551 330.282 L
174.023 330.282 L
176.023 328.829 L
176.787 326.478 LE
187.741 323.046 LS
186.978 320.695 L
184.978 319.242 L
182.505 319.242 L
180.505 320.695 L
179.741 323.046 L
180.505 325.397 L
182.505 326.851 L
184.978 326.851 L
186.978 325.397 L
187.741 323.046 LE
202.804 318.928 LS
202.04 316.577 L
200.04 315.124 L
197.568 315.124 L
195.568 316.577 L
194.804 318.928 L
195.568 321.28 L
197.568 322.732 L
200.04 322.732 L
202.04 321.28 L
202.804 318.928 LE
219.92 312.751 LS
219.157 310.4 L
217.157 308.947 L
214.685 308.947 L
212.685 310.4 L
211.92 312.751 L
212.685 315.103 L
214.685 316.556 L
217.157 316.556 L
219.157 315.103 L
219.92 312.751 LE
237.037 306.575 LS
236.273 304.224 L
234.273 302.771 L
231.801 302.771 L
229.801 304.224 L
229.037 306.575 L
229.801 308.926 L
231.801 310.379 L
234.273 310.379 L
236.273 308.926 L
237.037 306.575 LE
247.992 302.457 LS
247.228 300.105 L
245.228 298.653 L
242.755 298.653 L
240.755 300.105 L
239.992 302.457 L
240.755 304.808 L
242.755 306.261 L
245.228 306.261 L
247.228 304.808 L
247.992 302.457 LE
261.685 296.966 LS
260.921 294.615 L
258.921 293.162 L
256.449 293.162 L
254.449 294.615 L
253.685 296.966 L
254.449 299.317 L
256.449 300.771 L
258.921 300.771 L
260.921 299.317 L
261.685 296.966 LE
276.748 290.79 LS
275.983 288.438 L
273.983 286.985 L
271.511 286.985 L
269.511 288.438 L
268.748 290.79 L
269.511 293.141 L
271.511 294.594 L
273.983 294.594 L
275.983 293.141 L
276.748 290.79 LE
287.018 285.985 LS
286.253 283.634 L
284.253 282.181 L
281.781 282.181 L
279.781 283.634 L
279.018 285.985 L
279.781 288.336 L
281.781 289.79 L
284.253 289.79 L
286.253 288.336 L
287.018 285.985 LE
296.603 281.181 LS
295.839 278.83 L
293.839 277.377 L
291.367 277.377 L
289.367 278.83 L
288.603 281.181 L
289.367 283.532 L
291.367 284.985 L
293.839 284.985 L
295.839 283.532 L
296.603 281.181 LE
306.188 276.377 LS
305.424 274.026 L
303.424 272.573 L
300.952 272.573 L
298.952 274.026 L
298.188 276.377 L
298.952 278.728 L
300.952 280.181 L
303.424 280.181 L
305.424 278.728 L
306.188 276.377 LE
319.197 269.514 LS
318.433 267.163 L
316.433 265.709 L
313.96 265.709 L
311.96 267.163 L
311.197 269.514 L
311.96 271.865 L
313.96 273.318 L
316.433 273.318 L
318.433 271.865 L
319.197 269.514 LE
332.205 261.964 LS
331.441 259.613 L
329.441 258.16 L
326.969 258.16 L
324.969 259.613 L
324.205 261.964 L
324.969 264.315 L
326.969 265.769 L
329.441 265.769 L
331.441 264.315 L
332.205 261.964 LE
345.214 253.729 LS
344.45 251.377 L
342.45 249.924 L
339.978 249.924 L
337.978 251.377 L
337.214 253.729 L
337.978 256.08 L
339.978 257.533 L
342.45 257.533 L
344.45 256.08 L
345.214 253.729 LE
357.538 246.865 LS
356.774 244.514 L
354.774 243.061 L
352.302 243.061 L
350.302 244.514 L
349.538 246.865 L
350.302 249.216 L
352.302 250.669 L
354.774 250.669 L
356.774 249.216 L
357.538 246.865 LE
369.177 240.002 LS
368.413 237.651 L
366.413 236.198 L
363.941 236.198 L
361.941 237.651 L
361.177 240.002 L
361.941 242.353 L
363.941 243.806 L
366.413 243.806 L
368.413 242.353 L
369.177 240.002 LE
383.555 232.453 LS
382.791 230.102 L
380.791 228.648 L
378.319 228.648 L
376.319 230.102 L
375.555 232.453 L
376.319 234.804 L
378.319 236.257 L
380.791 236.257 L
382.791 234.804 L
383.555 232.453 LE
396.563 226.276 LS
395.799 223.925 L
393.799 222.472 L
391.327 222.472 L
389.327 223.925 L
388.563 226.276 L
389.327 228.627 L
391.327 230.08 L
393.799 230.08 L
395.799 228.627 L
396.563 226.276 LE
410.257 219.413 LS
409.493 217.062 L
407.493 215.608 L
405.021 215.608 L
403.021 217.062 L
402.257 219.413 L
403.021 221.764 L
405.021 223.217 L
407.493 223.217 L
409.493 221.764 L
410.257 219.413 LE
422.581 213.236 LS
421.817 210.885 L
419.817 209.432 L
417.345 209.432 L
415.345 210.885 L
414.581 213.236 L
415.345 215.587 L
417.345 217.04 L
419.817 217.04 L
421.817 215.587 L
422.581 213.236 LE
435.589 206.373 LS
434.825 204.021 L
432.825 202.568 L
430.353 202.568 L
428.353 204.021 L
427.589 206.373 L
428.353 208.724 L
430.353 210.177 L
432.825 210.177 L
434.825 208.724 L
435.589 206.373 LE
448.598 198.823 LS
447.834 196.472 L
445.834 195.019 L
443.362 195.019 L
441.362 196.472 L
440.598 198.823 L
441.362 201.174 L
443.362 202.627 L
445.834 202.627 L
447.834 201.174 L
448.598 198.823 LE
462.976 191.274 LS
462.212 188.922 L
460.212 187.469 L
457.74 187.469 L
455.74 188.922 L
454.976 191.274 L
455.74 193.625 L
457.74 195.078 L
460.212 195.078 L
462.212 193.625 L
462.976 191.274 LE
475.984 184.411 LS
475.22 182.06 L
473.22 180.606 L
470.748 180.606 L
468.748 182.06 L
467.984 184.411 L
468.748 186.762 L
470.748 188.215 L
473.22 188.215 L
475.22 186.762 L
475.984 184.411 LE
487.624 178.234 LS
486.86 175.882 L
484.859 174.43 L
482.388 174.43 L
480.388 175.882 L
479.624 178.234 L
480.388 180.585 L
482.388 182.038 L
484.859 182.038 L
486.86 180.585 L
487.624 178.234 LE
502.686 172.057 LS
501.922 169.706 L
499.922 168.252 L
497.45 168.252 L
495.45 169.706 L
494.686 172.057 L
495.45 174.408 L
497.45 175.861 L
499.922 175.861 L
501.922 174.408 L
502.686 172.057 LE
513.641 167.252 LS
512.877 164.901 L
510.877 163.448 L
508.405 163.448 L
506.405 164.901 L
505.641 167.252 L
506.405 169.604 L
508.405 171.057 L
510.877 171.057 L
512.877 169.604 L
513.641 167.252 LE
523.911 163.135 LS
523.146 160.784 L
521.146 159.331 L
518.675 159.331 L
516.675 160.784 L
515.911 163.135 L
516.675 165.486 L
518.675 166.939 L
521.146 166.939 L
523.146 165.486 L
523.911 163.135 LE
0.525 0.525 0.525 C
72.2495 316.751 LS
72.2495 308.751 L
80.2495 308.751 L
80.2495 316.751 L
72.2495 316.751 LE
87.9966 315.379 LS
87.9966 307.379 L
95.9966 307.379 L
95.9966 315.379 L
87.9966 315.379 LE
101.005 314.006 LS
101.005 306.006 L
109.005 306.006 L
109.005 314.006 L
101.005 314.006 LE
113.329 312.634 LS
113.329 304.634 L
121.329 304.634 L
121.329 312.634 L
113.329 312.634 LE
124.968 311.261 LS
124.968 303.261 L
132.968 303.261 L
132.968 311.261 L
124.968 311.261 LE
136.607 308.516 LS
136.607 300.516 L
144.607 300.516 L
144.607 308.516 L
136.607 308.516 LE
150.301 305.771 LS
150.301 297.771 L
158.301 297.771 L
158.301 305.771 L
150.301 305.771 LE
162.625 302.339 LS
162.625 294.339 L
170.625 294.339 L
170.625 302.339 L
162.625 302.339 LE
174.264 298.907 LS
174.264 290.907 L
182.264 290.907 L
182.264 298.907 L
174.264 298.907 LE
185.219 295.476 LS
185.219 287.476 L
193.219 287.476 L
193.219 295.476 L
185.219 295.476 LE
197.542 292.044 LS
197.542 284.044 L
205.542 284.044 L
205.542 292.044 L
197.542 292.044 LE
209.182 287.926 LS
209.182 279.926 L
217.182 279.926 L
217.182 287.926 L
209.182 287.926 LE
224.245 282.436 LS
224.245 274.436 L
232.245 274.436 L
232.245 282.436 L
224.245 282.436 LE
236.568 277.631 LS
236.568 269.631 L
244.568 269.631 L
244.568 277.631 L
236.568 277.631 LE
248.208 273.514 LS
248.208 265.514 L
256.208 265.514 L
256.208 273.514 L
248.208 273.514 LE
259.847 269.396 LS
259.847 261.396 L
267.847 261.396 L
267.847 269.396 L
259.847 269.396 LE
270.117 265.278 LS
270.117 257.278 L
278.117 257.278 L
278.117 265.278 L
270.117 265.278 LE
282.441 261.16 LS
282.441 253.16 L
290.441 253.16 L
290.441 261.16 L
282.441 261.16 LE
294.765 256.356 LS
294.765 248.356 L
302.765 248.356 L
302.765 256.356 L
294.765 256.356 LE
309.143 250.865 LS
309.143 242.865 L
317.143 242.865 L
317.143 250.865 L
309.143 250.865 LE
321.466 246.061 LS
321.466 238.061 L
329.466 238.061 L
329.466 246.061 L
321.466 246.061 LE
333.791 240.57 LS
333.791 232.57 L
341.791 232.57 L
341.791 240.57 L
333.791 240.57 LE
347.484 235.08 LS
347.484 227.08 L
355.484 227.08 L
355.484 235.08 L
347.484 235.08 LE
359.123 230.276 LS
359.123 222.276 L
367.123 222.276 L
367.123 230.276 L
359.123 230.276 LE
370.762 224.099 LS
370.762 216.099 L
378.762 216.099 L
378.762 224.099 L
370.762 224.099 LE
383.086 218.608 LS
383.086 210.608 L
391.086 210.608 L
391.086 218.608 L
383.086 218.608 LE
396.779 211.059 LS
396.779 203.059 L
404.779 203.059 L
404.779 211.059 L
396.779 211.059 LE
413.896 203.509 LS
413.896 195.509 L
421.896 195.509 L
421.896 203.509 L
413.896 203.509 LE
428.274 196.646 LS
428.274 188.646 L
436.274 188.646 L
436.274 196.646 L
428.274 196.646 LE
440.598 190.469 LS
440.598 182.469 L
448.598 182.469 L
448.598 190.469 L
440.598 190.469 LE
459.769 182.234 LS
459.769 174.234 L
467.769 174.234 L
467.769 182.234 L
459.769 182.234 LE
476.2 176.743 LS
476.2 168.743 L
484.2 168.743 L
484.2 176.743 L
476.2 176.743 LE
493.317 171.939 LS
493.317 163.939 L
501.317 163.939 L
501.317 171.939 L
493.317 171.939 LE
504.271 168.507 LS
504.271 160.507 L
512.271 160.507 L
512.271 168.507 L
504.271 168.507 LE
516.595 167.135 LS
516.595 159.135 L
524.595 159.135 L
524.595 167.135 L
516.595 167.135 LE
0.5 W
[16 0] 0 setdash
0 0 0 C
330.322 321.063 LS
518.539 321.063 LE
330.322 397.858 LS
518.539 397.858 LE
330.322 321.063 LS
330.322 397.858 LE
518.539 321.063 LS
518.539 397.858 LE
(following particle) 356.368 388.259 14 /Helvetica SCL
(leading particle) 356.368 369.06 14 /Helvetica SCL
(following particle Glow.) 356.368 349.861 14 /Helvetica SCL
(leading particle Glow.) 356.368 330.663 14 /Helvetica SCL
2 W
[] 0 setdash
0.525 0.525 0.525 C
339.345 334.663 LS
339.345 326.663 L
347.345 326.663 L
347.345 334.663 L
339.345 334.663 LE
0.3 0.3 0.3 C
347.345 349.861 LS
346.582 347.51 L
344.582 346.057 L
342.109 346.057 L
340.109 347.51 L
339.345 349.861 L
340.109 352.212 L
342.109 353.666 L
344.582 353.666 L
346.582 352.212 L
347.345 349.861 LE
0.295 0.295 0.295 C
339.345 369.06 LS
347.345 369.06 LE
343.345 373.06 LS
343.345 365.06 LE
0.11 0.11 0.11 C
339.345 388.259 LS
347.345 388.259 LE
343.345 392.259 LS
343.345 384.259 LE
340.517 391.087 LS
346.174 385.431 LE
340.517 385.431 LS
346.174 391.087 LE
0 0 0 C
(Comparison of the y-position of two particles) 298.08 410.6 15 /Helvetica SBC
grestore
showpage
cleartomark
%%PageTrailer
%%Trailer
end
%%EOF
