%!PS-Adobe-3.0 EPSF-3.0
%%Title: glps_renderer figure
%%Creator: GL2PS 1.3.8, (C) 1999-2012 C. Geuzaine
%%For: Octave
%%CreationDate: Wed Oct 18 12:57:21 2017
%%LanguageLevel: 3
%%DocumentData: Clean7Bit
%%Pages: 1
%%BoundingBox: 0 0 576 433
%%EndComments
%%BeginProlog
/gl2psdict 64 dict def gl2psdict begin
0 setlinecap 0 setlinejoin
/tryPS3shading false def % set to false to force subdivision
/rThreshold 0.064 def % red component subdivision threshold
/gThreshold 0.034 def % green component subdivision threshold
/bThreshold 0.1 def % blue component subdivision threshold
/BD { bind def } bind def
/C  { setrgbcolor } BD
/G  { 0.082 mul exch 0.6094 mul add exch 0.3086 mul add neg 1.0 add setgray } BD
/W  { setlinewidth } BD
/FC { findfont exch /SH exch def SH scalefont setfont } BD
/SW { dup stringwidth pop } BD
/S  { FC moveto show } BD
/SBC{ FC moveto SW -2 div 0 rmoveto show } BD
/SBR{ FC moveto SW neg 0 rmoveto show } BD
/SCL{ FC moveto 0 SH -2 div rmoveto show } BD
/SCC{ FC moveto SW -2 div SH -2 div rmoveto show } BD
/SCR{ FC moveto SW neg SH -2 div rmoveto show } BD
/STL{ FC moveto 0 SH neg rmoveto show } BD
/STC{ FC moveto SW -2 div SH neg rmoveto show } BD
/STR{ FC moveto SW neg SH neg rmoveto show } BD
/FCT { FC translate 0 0 } BD
/SR  { gsave FCT moveto rotate show grestore } BD
/SBCR{ gsave FCT moveto rotate SW -2 div 0 rmoveto show grestore } BD
/SBRR{ gsave FCT moveto rotate SW neg 0 rmoveto show grestore } BD
/SCLR{ gsave FCT moveto rotate 0 SH -2 div rmoveto show grestore} BD
/SCCR{ gsave FCT moveto rotate SW -2 div SH -2 div rmoveto show grestore} BD
/SCRR{ gsave FCT moveto rotate SW neg SH -2 div rmoveto show grestore} BD
/STLR{ gsave FCT moveto rotate 0 SH neg rmoveto show grestore } BD
/STCR{ gsave FCT moveto rotate SW -2 div SH neg rmoveto show grestore } BD
/STRR{ gsave FCT moveto rotate SW neg SH neg rmoveto show grestore } BD
/P  { newpath 0.0 360.0 arc closepath fill } BD
/LS { newpath moveto } BD
/L  { lineto } BD
/LE { lineto stroke } BD
/T  { newpath moveto lineto lineto closepath fill } BD
/STshfill {
      /b1 exch def /g1 exch def /r1 exch def /y1 exch def /x1 exch def
      /b2 exch def /g2 exch def /r2 exch def /y2 exch def /x2 exch def
      /b3 exch def /g3 exch def /r3 exch def /y3 exch def /x3 exch def
      gsave << /ShadingType 4 /ColorSpace [/DeviceRGB]
      /DataSource [ 0 x1 y1 r1 g1 b1 0 x2 y2 r2 g2 b2 0 x3 y3 r3 g3 b3 ] >>
      shfill grestore } BD
/Tm { 3 -1 roll 8 -1 roll 13 -1 roll add add 3 div
      3 -1 roll 7 -1 roll 11 -1 roll add add 3 div
      3 -1 roll 6 -1 roll 9 -1 roll add add 3 div C T } BD
/STsplit {
      4 index 15 index add 0.5 mul
      4 index 15 index add 0.5 mul
      4 index 15 index add 0.5 mul
      4 index 15 index add 0.5 mul
      4 index 15 index add 0.5 mul
      5 copy 5 copy 25 15 roll
      9 index 30 index add 0.5 mul
      9 index 30 index add 0.5 mul
      9 index 30 index add 0.5 mul
      9 index 30 index add 0.5 mul
      9 index 30 index add 0.5 mul
      5 copy 5 copy 35 5 roll 25 5 roll 15 5 roll
      4 index 10 index add 0.5 mul
      4 index 10 index add 0.5 mul
      4 index 10 index add 0.5 mul
      4 index 10 index add 0.5 mul
      4 index 10 index add 0.5 mul
      5 copy 5 copy 40 5 roll 25 5 roll 15 5 roll 25 5 roll
      STnoshfill STnoshfill STnoshfill STnoshfill } BD
/STnoshfill {
      2 index 8 index sub abs rThreshold gt
      { STsplit }
      { 1 index 7 index sub abs gThreshold gt
        { STsplit }
        { dup 6 index sub abs bThreshold gt
          { STsplit }
          { 2 index 13 index sub abs rThreshold gt
            { STsplit }
            { 1 index 12 index sub abs gThreshold gt
              { STsplit }
              { dup 11 index sub abs bThreshold gt
                { STsplit }
                { 7 index 13 index sub abs rThreshold gt
                  { STsplit }
                  { 6 index 12 index sub abs gThreshold gt
                    { STsplit }
                    { 5 index 11 index sub abs bThreshold gt
                      { STsplit }
                      { Tm }
                      ifelse }
                    ifelse }
                  ifelse }
                ifelse }
              ifelse }
            ifelse }
          ifelse }
        ifelse }
      ifelse } BD
tryPS3shading
{ /shfill where
  { /ST { STshfill } BD }
  { /ST { STnoshfill } BD }
  ifelse }
{ /ST { STnoshfill } BD }
ifelse
end
%%EndProlog
%%BeginSetup
/DeviceRGB setcolorspace
gl2psdict begin
%%EndSetup
%%Page: 1 1
%%BeginPageSetup
%%EndPageSetup
mark
gsave
1.0 1.0 scale
1 1 1 C
521.28 400.6 521.28 48.52 74.8799 48.52 T
74.8799 400.6 521.28 400.6 74.8799 48.52 T
518.539 397.858 518.539 321.063 330.322 321.063 T
330.322 397.858 518.539 397.858 330.322 321.063 T
0.5 W
[16 0] 0 setdash
0 0 0 C
74.8799 48.52 LS
521.28 48.52 LE
74.8799 400.6 LS
521.28 400.6 LE
74.8799 48.52 LS
74.8799 400.6 LE
521.28 48.52 LS
521.28 400.6 LE
74.8799 48.52 LS
74.8799 52.9849 LE
74.8799 400.6 LS
74.8799 396.135 LE
164.16 48.52 LS
164.16 52.9849 LE
164.16 400.6 LS
164.16 396.135 LE
253.44 48.52 LS
253.44 52.9849 LE
253.44 400.6 LS
253.44 396.135 LE
342.72 48.52 LS
342.72 52.9849 LE
342.72 400.6 LS
342.72 396.135 LE
432 48.52 LS
432 52.9849 LE
432 400.6 LS
432 396.135 LE
521.28 48.52 LS
521.28 52.9849 LE
521.28 400.6 LS
521.28 396.135 LE
(0) 74.8799 43.519 12 /Helvetica STC
(0.05) 164.16 43.519 12 /Helvetica STC
(0.1) 253.44 43.519 12 /Helvetica STC
(0.15) 342.72 43.519 12 /Helvetica STC
(0.2) 432 43.519 12 /Helvetica STC
(0.25) 521.28 43.519 12 /Helvetica STC
74.8799 48.52 LS
79.3481 48.52 LE
521.28 48.52 LS
516.812 48.52 LE
74.8799 136.54 LS
79.3481 136.54 LE
521.28 136.54 LS
516.812 136.54 LE
74.8799 224.56 LS
79.3481 224.56 LE
521.28 224.56 LS
516.812 224.56 LE
74.8799 312.58 LS
79.3481 312.58 LE
521.28 312.58 LS
516.812 312.58 LE
74.8799 400.6 LS
79.3481 400.6 LE
521.28 400.6 LS
516.812 400.6 LE
(-20) 69.8755 48.52 12 /Helvetica SCR
(-15) 69.8755 136.54 12 /Helvetica SCR
(-10) 69.8755 224.56 12 /Helvetica SCR
(-5) 69.8755 312.58 12 /Helvetica SCR
(0) 69.8755 400.6 12 /Helvetica SCR
(time (s)) 298.08 29.519 14 /Helvetica STC
(position (cm)) 90 45.8755 224.56 14 /Helvetica SBCR
2 W
[] 0 setdash
0.11 0.11 0.11 C
76.2368 386.321 LS
84.2368 386.321 LE
80.2368 390.321 LS
80.2368 382.321 LE
77.4082 389.15 LS
83.0654 383.493 LE
77.4082 383.493 LS
83.0654 389.15 LE
81.5938 375.21 LS
89.5938 375.21 LE
85.5938 379.21 LS
85.5938 371.21 LE
82.7651 378.039 LS
88.4219 372.382 LE
82.7651 372.382 LS
88.4219 378.039 LE
86.9502 364.911 LS
94.9502 364.911 LE
90.9502 368.911 LS
90.9502 360.911 LE
88.1221 367.739 LS
93.7788 362.082 LE
88.1221 362.082 LS
93.7788 367.739 LE
92.3071 355.305 LS
100.307 355.305 LE
96.3071 359.305 LS
96.3071 351.305 LE
93.479 358.133 LS
99.1357 352.477 LE
93.479 352.477 LS
99.1357 358.133 LE
97.6641 346.008 LS
105.664 346.008 LE
101.664 350.008 LS
101.664 342.008 LE
98.8354 348.837 LS
104.493 343.18 LE
98.8354 343.18 LS
104.493 348.837 LE
103.021 337.212 LS
111.021 337.212 LE
107.021 341.212 LS
107.021 333.212 LE
104.192 340.041 LS
109.849 334.384 LE
104.192 334.384 LS
109.849 340.041 LE
108.377 329.313 LS
116.377 329.313 LE
112.377 333.313 LS
112.377 325.313 LE
109.549 332.141 LS
115.206 326.484 LE
109.549 326.484 LS
115.206 332.141 LE
113.734 321.927 LS
121.734 321.927 LE
117.734 325.927 LS
117.734 317.927 LE
114.906 324.755 LS
120.563 319.099 LE
114.906 319.099 LS
120.563 324.755 LE
119.091 314.818 LS
127.091 314.818 LE
123.091 318.818 LS
123.091 310.818 LE
120.263 317.646 LS
125.919 311.99 LE
120.263 311.99 LS
125.919 317.646 LE
124.448 308.254 LS
132.448 308.254 LE
128.448 312.254 LS
128.448 304.254 LE
125.62 311.083 LS
131.276 305.426 LE
125.62 305.426 LS
131.276 311.083 LE
129.805 302.798 LS
137.805 302.798 LE
133.805 306.798 LS
133.805 298.798 LE
130.977 305.627 LS
136.633 299.97 LE
130.977 299.97 LS
136.633 305.627 LE
135.162 297.387 LS
143.162 297.387 LE
139.162 301.387 LS
139.162 293.387 LE
136.333 300.215 LS
141.99 294.558 LE
136.333 294.558 LS
141.99 300.215 LE
140.519 291.967 LS
148.519 291.967 LE
144.519 295.967 LS
144.519 287.967 LE
141.69 294.796 LS
147.347 289.139 LE
141.69 289.139 LS
147.347 294.796 LE
145.875 288.246 LS
153.875 288.246 LE
149.875 292.246 LS
149.875 284.246 LE
147.047 291.075 LS
152.704 285.418 LE
147.047 285.418 LS
152.704 291.075 LE
151.232 283.856 LS
159.232 283.856 LE
155.232 287.856 LS
155.232 279.856 LE
152.403 286.685 LS
158.061 281.028 LE
152.403 281.028 LS
158.061 286.685 LE
156.589 279.728 LS
164.589 279.728 LE
160.589 283.728 LS
160.589 275.728 LE
157.76 282.556 LS
163.417 276.899 LE
157.76 276.899 LS
163.417 282.556 LE
161.946 277.165 LS
169.946 277.165 LE
165.946 281.165 LS
165.946 273.165 LE
163.117 279.993 LS
168.774 274.336 LE
163.117 274.336 LS
168.774 279.993 LE
167.302 273.065 LS
175.302 273.065 LE
171.302 277.065 LS
171.302 269.065 LE
168.474 275.894 LS
174.131 270.237 LE
168.474 270.237 LS
174.131 275.894 LE
172.659 270.679 LS
180.659 270.679 LE
176.659 274.679 LS
176.659 266.679 LE
173.831 273.507 LS
179.488 267.851 LE
173.831 267.851 LS
179.488 273.507 LE
178.016 267.3 LS
186.016 267.3 LE
182.016 271.3 LS
182.016 263.3 LE
179.188 270.128 LS
184.844 264.472 LE
179.188 264.472 LS
184.844 270.128 LE
183.373 264.808 LS
191.373 264.808 LE
187.373 268.808 LS
187.373 260.808 LE
184.544 267.636 LS
190.201 261.979 LE
184.544 261.979 LS
190.201 267.636 LE
188.729 261.55 LS
196.729 261.55 LE
192.729 265.55 LS
192.729 257.55 LE
189.901 264.378 LS
195.558 258.721 LE
189.901 258.721 LS
195.558 264.378 LE
194.086 258.351 LS
202.086 258.351 LE
198.086 262.351 LS
198.086 254.351 LE
195.258 261.18 LS
200.915 255.523 LE
195.258 255.523 LS
200.915 261.18 LE
199.443 256.149 LS
207.443 256.149 LE
203.443 260.149 LS
203.443 252.149 LE
200.615 258.978 LS
206.271 253.321 LE
200.615 253.321 LS
206.271 258.978 LE
204.8 253.042 LS
212.8 253.042 LE
208.8 257.042 LS
208.8 249.042 LE
205.972 255.87 LS
211.628 250.213 LE
205.972 250.213 LS
211.628 255.87 LE
210.157 250.196 LS
218.157 250.196 LE
214.157 254.196 LS
214.157 246.196 LE
211.328 253.024 LS
216.985 247.368 LE
211.328 247.368 LS
216.985 253.024 LE
215.514 246.908 LS
223.514 246.908 LE
219.514 250.908 LS
219.514 242.908 LE
216.685 249.737 LS
222.342 244.08 LE
216.685 244.08 LS
222.342 249.737 LE
220.871 244.55 LS
228.871 244.55 LE
224.871 248.55 LS
224.871 240.55 LE
222.042 247.378 LS
227.699 241.722 LE
222.042 241.722 LS
227.699 247.378 LE
226.227 241.773 LS
234.227 241.773 LE
230.227 245.773 LS
230.227 237.773 LE
227.399 244.602 LS
233.056 238.945 LE
227.399 238.945 LS
233.056 244.602 LE
231.584 238.286 LS
239.584 238.286 LE
235.584 242.286 LS
235.584 234.286 LE
232.755 241.115 LS
238.413 235.458 LE
232.755 235.458 LS
238.413 241.115 LE
236.941 235.869 LS
244.941 235.869 LE
240.941 239.869 LS
240.941 231.869 LE
238.112 238.698 LS
243.769 233.041 LE
238.112 233.041 LS
243.769 238.698 LE
242.298 232.622 LS
250.298 232.622 LE
246.298 236.622 LS
246.298 228.622 LE
243.469 235.45 LS
249.126 229.793 LE
243.469 229.793 LS
249.126 235.45 LE
247.654 230.097 LS
255.654 230.097 LE
251.654 234.097 LS
251.654 226.097 LE
248.826 232.925 LS
254.483 227.268 LE
248.826 227.268 LS
254.483 232.925 LE
0.295 0.295 0.295 C
76.2368 387.778 LS
84.2368 387.778 LE
80.2368 391.778 LS
80.2368 383.778 LE
81.5938 376.588 LS
89.5938 376.588 LE
85.5938 380.588 LS
85.5938 372.588 LE
86.9502 366.194 LS
94.9502 366.194 LE
90.9502 370.194 LS
90.9502 362.194 LE
92.3071 356.357 LS
100.307 356.357 LE
96.3071 360.357 LS
96.3071 352.357 LE
97.6641 347.002 LS
105.664 347.002 LE
101.664 351.002 LS
101.664 343.002 LE
103.021 338.095 LS
111.021 338.095 LE
107.021 342.095 LS
107.021 334.095 LE
108.377 329.631 LS
116.377 329.631 LE
112.377 333.631 LS
112.377 325.631 LE
113.734 322.083 LS
121.734 322.083 LE
117.734 326.083 LS
117.734 318.083 LE
119.091 315.158 LS
127.091 315.158 LE
123.091 319.158 LS
123.091 311.158 LE
124.448 308.263 LS
132.448 308.263 LE
128.448 312.263 LS
128.448 304.263 LE
129.805 302.023 LS
137.805 302.023 LE
133.805 306.023 LS
133.805 298.023 LE
135.162 296.745 LS
143.162 296.745 LE
139.162 300.745 LS
139.162 292.745 LE
140.519 291.151 LS
148.519 291.151 LE
144.519 295.151 LS
144.519 287.151 LE
145.875 286.206 LS
153.875 286.206 LE
149.875 290.206 LS
149.875 282.206 LE
151.232 282.827 LS
159.232 282.827 LE
155.232 286.827 LS
155.232 278.827 LE
156.589 278.29 LS
164.589 278.29 LE
160.589 282.29 LS
160.589 274.29 LE
161.946 275.261 LS
169.946 275.261 LE
165.946 279.261 LS
165.946 271.261 LE
167.302 271.616 LS
175.302 271.616 LE
171.302 275.616 LS
171.302 267.616 LE
172.659 269.111 LS
180.659 269.111 LE
176.659 273.111 LS
176.659 265.111 LE
178.016 266.687 LS
186.016 266.687 LE
182.016 270.687 LS
182.016 262.687 LE
183.373 263.908 LS
191.373 263.908 LE
187.373 267.908 LS
187.373 259.908 LE
188.729 262.143 LS
196.729 262.143 LE
192.729 266.143 LS
192.729 258.143 LE
194.086 259.798 LS
202.086 259.798 LE
198.086 263.798 LS
198.086 255.798 LE
199.443 258.796 LS
207.443 258.796 LE
203.443 262.796 LS
203.443 254.796 LE
204.8 256.698 LS
212.8 256.698 LE
208.8 260.698 LS
208.8 252.698 LE
210.157 255.589 LS
218.157 255.589 LE
214.157 259.589 LS
214.157 251.589 LE
215.514 253.634 LS
223.514 253.634 LE
219.514 257.634 LS
219.514 249.634 LE
220.871 253.261 LS
228.871 253.261 LE
224.871 257.261 LS
224.871 249.261 LE
226.227 251.485 LS
234.227 251.485 LE
230.227 255.485 LS
230.227 247.485 LE
231.584 250.685 LS
239.584 250.685 LE
235.584 254.685 LS
235.584 246.685 LE
236.941 249.224 LS
244.941 249.224 LE
240.941 253.224 LS
240.941 245.224 LE
242.298 248.838 LS
250.298 248.838 LE
246.298 252.838 LS
246.298 244.838 LE
247.654 247.284 LS
255.654 247.284 LE
251.654 251.284 LS
251.654 243.284 LE
0.3 0.3 0.3 C
79.5752 395.739 LS
78.8115 393.388 L
76.8115 391.935 L
74.3394 391.935 L
72.3394 393.388 L
71.5752 395.739 L
72.3394 398.09 L
74.3394 399.543 L
76.8115 399.543 L
78.8115 398.09 L
79.5752 395.739 LE
83.7471 388.1 LS
82.9834 385.749 L
80.9834 384.296 L
78.5112 384.296 L
76.5112 385.749 L
75.7471 388.1 L
76.5112 390.451 L
78.5112 391.904 L
80.9834 391.904 L
82.9834 390.451 L
83.7471 388.1 LE
87.9194 380.461 LS
87.1553 378.11 L
85.1553 376.657 L
82.6831 376.657 L
80.6831 378.11 L
79.9194 380.461 L
80.6831 382.812 L
82.6831 384.266 L
85.1553 384.266 L
87.1553 382.812 L
87.9194 380.461 LE
91.396 374.211 LS
90.6318 371.86 L
88.6318 370.407 L
86.1597 370.407 L
84.1597 371.86 L
83.396 374.211 L
84.1597 376.562 L
86.1597 378.016 L
88.6318 378.016 L
90.6318 376.562 L
91.396 374.211 LE
95.5679 367.267 LS
94.8037 364.916 L
92.8037 363.463 L
90.332 363.463 L
88.3315 364.916 L
87.5679 367.267 L
88.3315 369.618 L
90.332 371.071 L
92.8037 371.071 L
94.8037 369.618 L
95.5679 367.267 LE
98.3491 361.711 LS
97.5854 359.36 L
95.5854 357.907 L
93.1133 357.907 L
91.1133 359.36 L
90.3491 361.711 L
91.1133 364.062 L
93.1133 365.516 L
95.5854 365.516 L
97.5854 364.062 L
98.3491 361.711 LE
101.13 356.156 LS
100.367 353.805 L
98.3667 352.352 L
95.8945 352.352 L
93.8945 353.805 L
93.1304 356.156 L
93.8945 358.507 L
95.8945 359.96 L
98.3667 359.96 L
100.367 358.507 L
101.13 356.156 LE
104.607 351.295 LS
103.843 348.944 L
101.843 347.491 L
99.3711 347.491 L
97.3711 348.944 L
96.6069 351.295 L
97.3711 353.646 L
99.3711 355.099 L
101.843 355.099 L
103.843 353.646 L
104.607 351.295 LE
108.084 345.045 LS
107.32 342.694 L
105.32 341.241 L
102.848 341.241 L
100.848 342.694 L
100.084 345.045 L
100.848 347.396 L
102.848 348.849 L
105.32 348.849 L
107.32 347.396 L
108.084 345.045 LE
112.256 338.795 LS
111.492 336.444 L
109.492 334.991 L
107.02 334.991 L
105.02 336.444 L
104.256 338.795 L
105.02 341.146 L
107.02 342.599 L
109.492 342.599 L
111.492 341.146 L
112.256 338.795 LE
116.428 332.545 LS
115.664 330.194 L
113.664 328.741 L
111.191 328.741 L
109.191 330.194 L
108.428 332.545 L
109.191 334.896 L
111.191 336.349 L
113.664 336.349 L
115.664 334.896 L
116.428 332.545 LE
119.904 326.99 LS
119.14 324.639 L
117.14 323.186 L
114.668 323.186 L
112.668 324.639 L
111.904 326.99 L
112.668 329.341 L
114.668 330.794 L
117.14 330.794 L
119.14 329.341 L
119.904 326.99 LE
123.381 321.434 LS
122.617 319.083 L
120.617 317.63 L
118.145 317.63 L
116.145 319.083 L
115.381 321.434 L
116.145 323.785 L
118.145 325.238 L
120.617 325.238 L
122.617 323.785 L
123.381 321.434 LE
126.857 315.878 LS
126.094 313.527 L
124.094 312.074 L
121.622 312.074 L
119.622 313.527 L
118.857 315.878 L
119.622 318.229 L
121.622 319.683 L
124.094 319.683 L
126.094 318.229 L
126.857 315.878 LE
130.334 311.018 LS
129.57 308.667 L
127.57 307.213 L
125.098 307.213 L
123.098 308.667 L
122.334 311.018 L
123.098 313.369 L
125.098 314.822 L
127.57 314.822 L
129.57 313.369 L
130.334 311.018 LE
133.811 305.462 LS
133.047 303.111 L
131.047 301.658 L
128.575 301.658 L
126.575 303.111 L
125.811 305.462 L
126.575 307.813 L
128.575 309.266 L
131.047 309.266 L
133.047 307.813 L
133.811 305.462 LE
137.983 299.907 LS
137.219 297.555 L
135.219 296.102 L
132.747 296.102 L
130.747 297.555 L
129.983 299.907 L
130.747 302.258 L
132.747 303.711 L
135.219 303.711 L
137.219 302.258 L
137.983 299.907 LE
142.85 292.962 LS
142.086 290.611 L
140.086 289.158 L
137.614 289.158 L
135.614 290.611 L
134.85 292.962 L
135.614 295.313 L
137.614 296.766 L
140.086 296.766 L
142.086 295.313 L
142.85 292.962 LE
147.022 286.712 LS
146.258 284.361 L
144.258 282.908 L
141.786 282.908 L
139.786 284.361 L
139.022 286.712 L
139.786 289.063 L
141.786 290.517 L
144.258 290.517 L
146.258 289.063 L
147.022 286.712 LE
151.889 280.462 LS
151.125 278.111 L
149.125 276.658 L
146.653 276.658 L
144.653 278.111 L
143.889 280.462 L
144.653 282.813 L
146.653 284.267 L
149.125 284.267 L
151.125 282.813 L
151.889 280.462 LE
157.452 274.212 LS
156.688 271.861 L
154.688 270.408 L
152.216 270.408 L
150.216 271.861 L
149.452 274.212 L
150.216 276.563 L
152.216 278.017 L
154.688 278.017 L
156.688 276.563 L
157.452 274.212 LE
163.015 268.657 LS
162.25 266.306 L
160.25 264.853 L
157.778 264.853 L
155.778 266.306 L
155.015 268.657 L
155.778 271.008 L
157.778 272.461 L
160.25 272.461 L
162.25 271.008 L
163.015 268.657 LE
167.882 263.101 LS
167.118 260.75 L
165.118 259.297 L
162.646 259.297 L
160.646 260.75 L
159.882 263.101 L
160.646 265.453 L
162.646 266.906 L
165.118 266.906 L
167.118 265.453 L
167.882 263.101 LE
172.749 258.24 LS
171.985 255.889 L
169.985 254.436 L
167.513 254.436 L
165.513 255.889 L
164.749 258.24 L
165.513 260.591 L
167.513 262.044 L
169.985 262.044 L
171.985 260.591 L
172.749 258.24 LE
179.007 252.685 LS
178.243 250.333 L
176.243 248.88 L
173.771 248.88 L
171.771 250.333 L
171.007 252.685 L
171.771 255.036 L
173.771 256.489 L
176.243 256.489 L
178.243 255.036 L
179.007 252.685 LE
184.57 247.129 LS
183.806 244.778 L
181.806 243.325 L
179.333 243.325 L
177.333 244.778 L
176.57 247.129 L
177.333 249.48 L
179.333 250.934 L
181.806 250.934 L
183.806 249.48 L
184.57 247.129 LE
190.828 241.574 LS
190.064 239.223 L
188.064 237.77 L
185.592 237.77 L
183.592 239.223 L
182.828 241.574 L
183.592 243.925 L
185.592 245.378 L
188.064 245.378 L
190.064 243.925 L
190.828 241.574 LE
196.39 238.102 LS
195.626 235.75 L
193.626 234.297 L
191.154 234.297 L
189.154 235.75 L
188.39 238.102 L
189.154 240.453 L
191.154 241.906 L
193.626 241.906 L
195.626 240.453 L
196.39 238.102 LE
201.953 233.241 LS
201.189 230.889 L
199.189 229.436 L
196.717 229.436 L
194.717 230.889 L
193.953 233.241 L
194.717 235.592 L
196.717 237.045 L
199.189 237.045 L
201.189 235.592 L
201.953 233.241 LE
206.82 229.768 LS
206.056 227.417 L
204.056 225.964 L
201.584 225.964 L
199.584 227.417 L
198.82 229.768 L
199.584 232.12 L
201.584 233.573 L
204.056 233.573 L
206.056 232.12 L
206.82 229.768 LE
211.688 226.296 LS
210.923 223.945 L
208.923 222.492 L
206.451 222.492 L
204.451 223.945 L
203.688 226.296 L
204.451 228.647 L
206.451 230.1 L
208.923 230.1 L
210.923 228.647 L
211.688 226.296 LE
217.25 222.129 LS
216.486 219.778 L
214.486 218.325 L
212.014 218.325 L
210.014 219.778 L
209.25 222.129 L
210.014 224.48 L
212.014 225.934 L
214.486 225.934 L
216.486 224.48 L
217.25 222.129 LE
223.508 218.657 LS
222.744 216.306 L
220.744 214.853 L
218.272 214.853 L
216.272 216.306 L
215.508 218.657 L
216.272 221.008 L
218.272 222.461 L
220.744 222.461 L
222.744 221.008 L
223.508 218.657 LE
231.157 213.796 LS
230.393 211.445 L
228.393 209.992 L
225.92 209.992 L
223.92 211.445 L
223.157 213.796 L
223.92 216.147 L
225.92 217.601 L
228.393 217.601 L
230.393 216.147 L
231.157 213.796 LE
238.805 208.935 LS
238.042 206.584 L
236.042 205.131 L
233.569 205.131 L
231.569 206.584 L
230.805 208.935 L
231.569 211.286 L
233.569 212.739 L
236.042 212.739 L
238.042 211.286 L
238.805 208.935 LE
243.672 204.074 LS
242.909 201.723 L
240.909 200.27 L
238.437 200.27 L
236.437 201.723 L
235.672 204.074 L
236.437 206.425 L
238.437 207.878 L
240.909 207.878 L
242.909 206.425 L
243.672 204.074 LE
248.54 199.907 LS
247.776 197.556 L
245.776 196.103 L
243.304 196.103 L
241.304 197.556 L
240.54 199.907 L
241.304 202.259 L
243.304 203.712 L
245.776 203.712 L
247.776 202.259 L
248.54 199.907 LE
254.103 196.435 LS
253.338 194.084 L
251.338 192.631 L
248.866 192.631 L
246.866 194.084 L
246.103 196.435 L
246.866 198.787 L
248.866 200.239 L
251.338 200.239 L
253.338 198.787 L
254.103 196.435 LE
258.97 190.88 LS
258.206 188.529 L
256.206 187.076 L
253.734 187.076 L
251.734 188.529 L
250.97 190.88 L
251.734 193.231 L
253.734 194.684 L
256.206 194.684 L
258.206 193.231 L
258.97 190.88 LE
263.142 186.713 LS
262.378 184.362 L
260.378 182.909 L
257.906 182.909 L
255.906 184.362 L
255.142 186.713 L
255.906 189.064 L
257.906 190.518 L
260.378 190.518 L
262.378 189.064 L
263.142 186.713 LE
268.009 180.463 LS
267.245 178.112 L
265.245 176.659 L
262.773 176.659 L
260.773 178.112 L
260.009 180.463 L
260.773 182.814 L
262.773 184.268 L
265.245 184.268 L
267.245 182.814 L
268.009 180.463 LE
272.181 174.908 LS
271.417 172.557 L
269.417 171.104 L
266.945 171.104 L
264.945 172.557 L
264.181 174.908 L
264.945 177.259 L
266.945 178.712 L
269.417 178.712 L
271.417 177.259 L
272.181 174.908 LE
276.353 168.658 LS
275.589 166.307 L
273.589 164.854 L
271.117 164.854 L
269.117 166.307 L
268.353 168.658 L
269.117 171.009 L
271.117 172.462 L
273.589 172.462 L
275.589 171.009 L
276.353 168.658 LE
281.22 162.408 LS
280.456 160.057 L
278.456 158.604 L
275.984 158.604 L
273.984 160.057 L
273.22 162.408 L
273.984 164.759 L
275.984 166.212 L
278.456 166.212 L
280.456 164.759 L
281.22 162.408 LE
284.697 156.158 LS
283.933 153.807 L
281.933 152.354 L
279.461 152.354 L
277.461 153.807 L
276.697 156.158 L
277.461 158.509 L
279.461 159.962 L
281.933 159.962 L
283.933 158.509 L
284.697 156.158 LE
288.173 149.213 LS
287.41 146.862 L
285.41 145.409 L
282.938 145.409 L
280.938 146.862 L
280.173 149.213 L
280.938 151.564 L
282.938 153.018 L
285.41 153.018 L
287.41 151.564 L
288.173 149.213 LE
291.65 142.963 LS
290.886 140.612 L
288.886 139.159 L
286.414 139.159 L
284.414 140.612 L
283.65 142.963 L
284.414 145.315 L
286.414 146.768 L
288.886 146.768 L
290.886 145.315 L
291.65 142.963 LE
295.822 135.325 LS
295.058 132.974 L
293.058 131.521 L
290.586 131.521 L
288.586 132.974 L
287.822 135.325 L
288.586 137.676 L
290.586 139.129 L
293.058 139.129 L
295.058 137.676 L
295.822 135.325 LE
299.299 129.769 LS
298.535 127.418 L
296.535 125.965 L
294.062 125.965 L
292.062 127.418 L
291.299 129.769 L
292.062 132.121 L
294.062 133.573 L
296.535 133.573 L
298.535 132.121 L
299.299 129.769 LE
302.775 122.825 LS
302.011 120.474 L
300.011 119.021 L
297.539 119.021 L
295.539 120.474 L
294.775 122.825 L
295.539 125.176 L
297.539 126.629 L
300.011 126.629 L
302.011 125.176 L
302.775 122.825 LE
306.252 117.27 LS
305.488 114.918 L
303.488 113.465 L
301.016 113.465 L
299.016 114.918 L
298.252 117.27 L
299.016 119.621 L
301.016 121.074 L
303.488 121.074 L
305.488 119.621 L
306.252 117.27 LE
310.424 111.02 LS
309.66 108.668 L
307.66 107.215 L
305.188 107.215 L
303.188 108.668 L
302.424 111.02 L
303.188 113.371 L
305.188 114.824 L
307.66 114.824 L
309.66 113.371 L
310.424 111.02 LE
313.9 106.158 LS
313.137 103.807 L
311.137 102.354 L
308.665 102.354 L
306.665 103.807 L
305.9 106.158 L
306.665 108.509 L
308.665 109.962 L
311.137 109.962 L
313.137 108.509 L
313.9 106.158 LE
317.377 100.603 LS
316.613 98.2515 L
314.613 96.7988 L
312.141 96.7988 L
310.141 98.2515 L
309.377 100.603 L
310.141 102.954 L
312.141 104.407 L
314.613 104.407 L
316.613 102.954 L
317.377 100.603 LE
321.549 95.7417 LS
320.785 93.3906 L
318.785 91.9375 L
316.313 91.9375 L
314.313 93.3906 L
313.549 95.7417 L
314.313 98.0928 L
316.313 99.5459 L
318.785 99.5459 L
320.785 98.0928 L
321.549 95.7417 LE
325.721 90.8809 LS
324.957 88.5298 L
322.957 87.0767 L
320.485 87.0767 L
318.485 88.5298 L
317.721 90.8809 L
318.485 93.2319 L
320.485 94.6851 L
322.957 94.6851 L
324.957 93.2319 L
325.721 90.8809 LE
333.37 86.7139 LS
332.606 84.3628 L
330.606 82.9097 L
328.134 82.9097 L
326.134 84.3628 L
325.37 86.7139 L
326.134 89.0654 L
328.134 90.5186 L
330.606 90.5186 L
332.606 89.0654 L
333.37 86.7139 LE
339.627 83.2417 LS
338.864 80.8906 L
336.864 79.4375 L
334.392 79.4375 L
332.392 80.8906 L
331.627 83.2417 L
332.392 85.5933 L
334.392 87.0459 L
336.864 87.0459 L
338.864 85.5933 L
339.627 83.2417 LE
345.19 81.853 LS
344.426 79.502 L
342.426 78.0488 L
339.954 78.0488 L
337.954 79.502 L
337.19 81.853 L
337.954 84.2041 L
339.954 85.6572 L
342.426 85.6572 L
344.426 84.2041 L
345.19 81.853 LE
350.753 81.1587 LS
349.989 78.8076 L
347.989 77.3545 L
345.517 77.3545 L
343.517 78.8076 L
342.753 81.1587 L
343.517 83.5098 L
345.517 84.9629 L
347.989 84.9629 L
349.989 83.5098 L
350.753 81.1587 LE
357.011 81.1587 LS
356.247 78.8076 L
354.247 77.3545 L
351.775 77.3545 L
349.775 78.8076 L
349.011 81.1587 L
349.775 83.5098 L
351.775 84.9629 L
354.247 84.9629 L
356.247 83.5098 L
357.011 81.1587 LE
361.183 82.5474 LS
360.419 80.1963 L
358.419 78.7432 L
355.947 78.7432 L
353.947 80.1963 L
353.183 82.5474 L
353.947 84.8984 L
355.947 86.3516 L
358.419 86.3516 L
360.419 84.8984 L
361.183 82.5474 LE
361.878 88.103 LS
361.114 85.752 L
359.114 84.2988 L
356.642 84.2988 L
354.642 85.752 L
353.878 88.103 L
354.642 90.4541 L
356.642 91.9072 L
359.114 91.9072 L
361.114 90.4541 L
361.878 88.103 LE
363.269 97.1309 LS
362.505 94.7793 L
360.505 93.3262 L
358.033 93.3262 L
356.033 94.7793 L
355.269 97.1309 L
356.033 99.4819 L
358.033 100.935 L
360.505 100.935 L
362.505 99.4819 L
363.269 97.1309 LE
363.269 92.2695 LS
362.505 89.9185 L
360.505 88.4653 L
358.033 88.4653 L
356.033 89.9185 L
355.269 92.2695 L
356.033 94.6206 L
358.033 96.0737 L
360.505 96.0737 L
362.505 94.6206 L
363.269 92.2695 LE
364.66 108.936 LS
363.896 106.585 L
361.896 105.132 L
359.423 105.132 L
357.423 106.585 L
356.66 108.936 L
357.423 111.287 L
359.423 112.74 L
361.896 112.74 L
363.896 111.287 L
364.66 108.936 LE
364.66 102.686 LS
363.896 100.335 L
361.896 98.8818 L
359.423 98.8818 L
357.423 100.335 L
356.66 102.686 L
357.423 105.037 L
359.423 106.49 L
361.896 106.49 L
363.896 105.037 L
364.66 102.686 LE
365.355 120.047 LS
364.591 117.696 L
362.591 116.243 L
360.119 116.243 L
358.119 117.696 L
357.355 120.047 L
358.119 122.398 L
360.119 123.851 L
362.591 123.851 L
364.591 122.398 L
365.355 120.047 LE
366.05 113.797 LS
365.286 111.446 L
363.286 109.993 L
360.814 109.993 L
358.814 111.446 L
358.05 113.797 L
358.814 116.148 L
360.814 117.602 L
363.286 117.602 L
365.286 116.148 L
366.05 113.797 LE
368.832 122.825 LS
368.067 120.474 L
366.067 119.021 L
363.595 119.021 L
361.595 120.474 L
360.832 122.825 L
361.595 125.176 L
363.595 126.629 L
366.067 126.629 L
368.067 125.176 L
368.832 122.825 LE
370.917 126.992 LS
370.153 124.64 L
368.153 123.187 L
365.681 123.187 L
363.681 124.64 L
362.917 126.992 L
363.681 129.343 L
365.681 130.796 L
368.153 130.796 L
370.153 129.343 L
370.917 126.992 LE
374.394 127.686 LS
373.63 125.335 L
371.63 123.882 L
369.158 123.882 L
367.158 125.335 L
366.394 127.686 L
367.158 130.037 L
369.158 131.49 L
371.63 131.49 L
373.63 130.037 L
374.394 127.686 LE
378.566 126.992 LS
377.802 124.64 L
375.802 123.187 L
373.33 123.187 L
371.33 124.64 L
370.566 126.992 L
371.33 129.343 L
373.33 130.796 L
375.802 130.796 L
377.802 129.343 L
378.566 126.992 LE
382.738 125.603 LS
381.974 123.251 L
379.974 121.798 L
377.502 121.798 L
375.502 123.251 L
374.738 125.603 L
375.502 127.954 L
377.502 129.407 L
379.974 129.407 L
381.974 127.954 L
382.738 125.603 LE
388.996 124.214 LS
388.232 121.863 L
386.232 120.41 L
383.76 120.41 L
381.76 121.863 L
380.996 124.214 L
381.76 126.565 L
383.76 128.018 L
386.232 128.018 L
388.232 126.565 L
388.996 124.214 LE
393.168 124.214 LS
392.404 121.863 L
390.404 120.41 L
387.932 120.41 L
385.932 121.863 L
385.168 124.214 L
385.932 126.565 L
387.932 128.018 L
390.404 128.018 L
392.404 126.565 L
393.168 124.214 LE
397.34 124.214 LS
396.576 121.863 L
394.576 120.41 L
392.104 120.41 L
390.104 121.863 L
389.34 124.214 L
390.104 126.565 L
392.104 128.018 L
394.576 128.018 L
396.576 126.565 L
397.34 124.214 LE
402.902 122.825 LS
402.139 120.474 L
400.139 119.021 L
397.667 119.021 L
395.667 120.474 L
394.902 122.825 L
395.667 125.176 L
397.667 126.629 L
400.139 126.629 L
402.139 125.176 L
402.902 122.825 LE
406.379 122.13 LS
405.615 119.779 L
403.615 118.326 L
401.143 118.326 L
399.143 119.779 L
398.379 122.13 L
399.143 124.481 L
401.143 125.935 L
403.615 125.935 L
405.615 124.481 L
406.379 122.13 LE
411.942 120.047 LS
411.178 117.696 L
409.178 116.243 L
406.706 116.243 L
404.706 117.696 L
403.942 120.047 L
404.706 122.398 L
406.706 123.851 L
409.178 123.851 L
411.178 122.398 L
411.942 120.047 LE
418.895 117.27 LS
418.131 114.918 L
416.131 113.465 L
413.659 113.465 L
411.659 114.918 L
410.895 117.27 L
411.659 119.621 L
413.659 121.074 L
416.131 121.074 L
418.131 119.621 L
418.895 117.27 LE
424.458 115.88 LS
423.694 113.529 L
421.694 112.076 L
419.222 112.076 L
417.222 113.529 L
416.458 115.88 L
417.222 118.231 L
419.222 119.685 L
421.694 119.685 L
423.694 118.231 L
424.458 115.88 LE
429.325 114.492 LS
428.561 112.141 L
426.561 110.688 L
424.089 110.688 L
422.089 112.141 L
421.325 114.492 L
422.089 116.843 L
424.089 118.296 L
426.561 118.296 L
428.561 116.843 L
429.325 114.492 LE
435.583 113.797 LS
434.819 111.446 L
432.819 109.993 L
430.347 109.993 L
428.347 111.446 L
427.583 113.797 L
428.347 116.148 L
430.347 117.602 L
432.819 117.602 L
434.819 116.148 L
435.583 113.797 LE
439.06 114.492 LS
438.295 112.141 L
436.295 110.688 L
433.823 110.688 L
431.823 112.141 L
431.06 114.492 L
431.823 116.843 L
433.823 118.296 L
436.295 118.296 L
438.295 116.843 L
439.06 114.492 LE
443.231 115.88 LS
442.467 113.529 L
440.467 112.076 L
437.995 112.076 L
435.995 113.529 L
435.231 115.88 L
435.995 118.231 L
437.995 119.685 L
440.467 119.685 L
442.467 118.231 L
443.231 115.88 LE
448.099 116.575 LS
447.335 114.224 L
445.335 112.771 L
442.863 112.771 L
440.863 114.224 L
440.099 116.575 L
440.863 118.926 L
442.863 120.379 L
445.335 120.379 L
447.335 118.926 L
448.099 116.575 LE
451.575 117.964 LS
450.812 115.613 L
448.812 114.16 L
446.339 114.16 L
444.339 115.613 L
443.575 117.964 L
444.339 120.315 L
446.339 121.768 L
448.812 121.768 L
450.812 120.315 L
451.575 117.964 LE
456.443 120.047 LS
455.679 117.696 L
453.679 116.243 L
451.207 116.243 L
449.207 117.696 L
448.443 120.047 L
449.207 122.398 L
451.207 123.851 L
453.679 123.851 L
455.679 122.398 L
456.443 120.047 LE
460.615 122.13 LS
459.851 119.779 L
457.851 118.326 L
455.378 118.326 L
453.378 119.779 L
452.615 122.13 L
453.378 124.481 L
455.378 125.935 L
457.851 125.935 L
459.851 124.481 L
460.615 122.13 LE
465.482 124.214 LS
464.718 121.863 L
462.718 120.41 L
460.246 120.41 L
458.246 121.863 L
457.482 124.214 L
458.246 126.565 L
460.246 128.018 L
462.718 128.018 L
464.718 126.565 L
465.482 124.214 LE
467.568 126.297 LS
466.804 123.946 L
464.804 122.493 L
462.332 122.493 L
460.332 123.946 L
459.568 126.297 L
460.332 128.648 L
462.332 130.101 L
464.804 130.101 L
466.804 128.648 L
467.568 126.297 LE
471.74 130.464 LS
470.976 128.112 L
468.976 126.659 L
466.504 126.659 L
464.504 128.112 L
463.74 130.464 L
464.504 132.815 L
466.504 134.268 L
468.976 134.268 L
470.976 132.815 L
471.74 130.464 LE
475.216 133.936 LS
474.453 131.584 L
472.453 130.132 L
469.98 130.132 L
467.98 131.584 L
467.216 133.936 L
467.98 136.287 L
469.98 137.74 L
472.453 137.74 L
474.453 136.287 L
475.216 133.936 LE
477.302 137.408 LS
476.539 135.057 L
474.539 133.604 L
472.066 133.604 L
470.066 135.057 L
469.302 137.408 L
470.066 139.759 L
472.066 141.212 L
474.539 141.212 L
476.539 139.759 L
477.302 137.408 LE
481.475 142.269 LS
480.71 139.918 L
478.71 138.465 L
476.238 138.465 L
474.238 139.918 L
473.475 142.269 L
474.238 144.62 L
476.238 146.073 L
478.71 146.073 L
480.71 144.62 L
481.475 142.269 LE
485.646 147.825 LS
484.882 145.474 L
482.882 144.021 L
480.41 144.021 L
478.41 145.474 L
477.646 147.825 L
478.41 150.176 L
480.41 151.629 L
482.882 151.629 L
484.882 150.176 L
485.646 147.825 LE
489.123 152.686 LS
488.359 150.334 L
486.359 148.881 L
483.887 148.881 L
481.887 150.334 L
481.123 152.686 L
481.887 155.037 L
483.887 156.49 L
486.359 156.49 L
488.359 155.037 L
489.123 152.686 LE
492.6 158.241 LS
491.836 155.89 L
489.836 154.437 L
487.364 154.437 L
485.364 155.89 L
484.6 158.241 L
485.364 160.592 L
487.364 162.045 L
489.836 162.045 L
491.836 160.592 L
492.6 158.241 LE
495.381 163.102 LS
494.617 160.751 L
492.617 159.298 L
490.145 159.298 L
488.145 160.751 L
487.381 163.102 L
488.145 165.454 L
490.145 166.906 L
492.617 166.906 L
494.617 165.454 L
495.381 163.102 LE
499.553 167.963 LS
498.789 165.612 L
496.789 164.159 L
494.317 164.159 L
492.317 165.612 L
491.553 167.963 L
492.317 170.314 L
494.317 171.768 L
496.789 171.768 L
498.789 170.314 L
499.553 167.963 LE
503.725 172.824 LS
502.961 170.473 L
500.961 169.02 L
498.489 169.02 L
496.489 170.473 L
495.725 172.824 L
496.489 175.175 L
498.489 176.628 L
500.961 176.628 L
502.961 175.175 L
503.725 172.824 LE
507.897 177.686 LS
507.133 175.334 L
505.133 173.881 L
502.661 173.881 L
500.661 175.334 L
499.897 177.686 L
500.661 180.037 L
502.661 181.49 L
505.133 181.49 L
507.133 180.037 L
507.897 177.686 LE
512.069 182.546 LS
511.305 180.195 L
509.305 178.742 L
506.833 178.742 L
504.833 180.195 L
504.069 182.546 L
504.833 184.897 L
506.833 186.351 L
509.305 186.351 L
511.305 184.897 L
512.069 182.546 LE
516.936 186.713 LS
516.172 184.362 L
514.172 182.909 L
511.7 182.909 L
509.7 184.362 L
508.936 186.713 L
509.7 189.064 L
511.7 190.518 L
514.172 190.518 L
516.172 189.064 L
516.936 186.713 LE
520.413 190.186 LS
519.649 187.834 L
517.649 186.381 L
515.177 186.381 L
513.177 187.834 L
512.413 190.186 L
513.177 192.537 L
515.177 193.99 L
517.649 193.99 L
519.649 192.537 L
520.413 190.186 LE
523.889 192.963 LS
523.125 190.612 L
521.125 189.159 L
518.653 189.159 L
516.653 190.612 L
515.889 192.963 L
516.653 195.314 L
518.653 196.767 L
521.125 196.767 L
523.125 195.314 L
523.889 192.963 LE
0.525 0.525 0.525 C
73.6611 395.572 LS
73.6611 387.572 L
81.6611 387.572 L
81.6611 395.572 L
73.6611 395.572 LE
77.8335 388.628 LS
77.8335 380.628 L
85.8335 380.628 L
85.8335 388.628 L
77.8335 388.628 LE
81.3101 381.684 LS
81.3101 373.684 L
89.3101 373.684 L
89.3101 381.684 L
81.3101 381.684 LE
85.4819 374.045 LS
85.4819 366.045 L
93.4819 366.045 L
93.4819 374.045 L
85.4819 374.045 LE
88.2632 369.184 LS
88.2632 361.184 L
96.2632 361.184 L
96.2632 369.184 L
88.2632 369.184 LE
91.0444 363.628 LS
91.0444 355.628 L
99.0444 355.628 L
99.0444 363.628 L
91.0444 363.628 LE
94.521 358.767 LS
94.521 350.767 L
102.521 350.767 L
102.521 358.767 L
94.521 358.767 LE
98.6929 352.517 LS
98.6929 344.517 L
106.693 344.517 L
106.693 352.517 L
98.6929 352.517 LE
102.17 345.573 LS
102.17 337.573 L
110.17 337.573 L
110.17 345.573 L
102.17 345.573 LE
106.342 339.323 LS
106.342 331.323 L
114.342 331.323 L
114.342 339.323 L
106.342 339.323 LE
109.818 333.768 LS
109.818 325.767 L
117.818 325.767 L
117.818 333.768 L
109.818 333.768 LE
113.99 327.518 LS
113.99 319.518 L
121.99 319.518 L
121.99 327.518 L
113.99 327.518 LE
117.467 321.962 LS
117.467 313.962 L
125.467 313.962 L
125.467 321.962 L
117.467 321.962 LE
120.943 317.101 LS
120.943 309.101 L
128.943 309.101 L
128.943 317.101 L
120.943 317.101 LE
123.725 312.24 LS
123.725 304.24 L
131.725 304.24 L
131.725 312.24 L
123.725 312.24 LE
127.897 306.684 LS
127.897 298.684 L
135.897 298.684 L
135.897 306.684 L
127.897 306.684 LE
132.069 299.74 LS
132.069 291.74 L
140.069 291.74 L
140.069 299.74 L
132.069 299.74 LE
136.936 294.185 LS
136.936 286.185 L
144.936 286.185 L
144.936 294.185 L
136.936 294.185 LE
141.803 287.935 LS
141.803 279.935 L
149.803 279.935 L
149.803 287.935 L
141.803 287.935 LE
146.671 280.99 LS
146.671 272.99 L
154.671 272.99 L
154.671 280.99 L
146.671 280.99 LE
151.538 274.046 LS
151.538 266.046 L
159.538 266.046 L
159.538 274.046 L
151.538 274.046 LE
155.71 268.49 LS
155.71 260.49 L
163.71 260.49 L
163.71 268.49 L
155.71 268.49 LE
160.577 263.629 LS
160.577 255.629 L
168.577 255.629 L
168.577 263.629 L
160.577 263.629 LE
163.358 260.157 LS
163.358 252.157 L
171.358 252.157 L
171.358 260.157 L
163.358 260.157 LE
166.835 256.685 LS
166.835 248.685 L
174.835 248.685 L
174.835 256.685 L
166.835 256.685 LE
171.007 252.518 LS
171.007 244.518 L
179.007 244.518 L
179.007 252.518 L
171.007 252.518 LE
174.484 249.74 LS
174.484 241.74 L
182.484 241.74 L
182.484 249.74 L
174.484 249.74 LE
177.96 246.268 LS
177.96 238.268 L
185.96 238.268 L
185.96 246.268 L
177.96 246.268 LE
181.437 243.49 LS
181.437 235.49 L
189.437 235.49 L
189.437 243.49 L
181.437 243.49 LE
184.914 240.018 LS
184.914 232.018 L
192.914 232.018 L
192.914 240.018 L
184.914 240.018 LE
189.781 236.546 LS
189.781 228.546 L
197.781 228.546 L
197.781 236.546 L
189.781 236.546 LE
192.562 234.463 LS
192.562 226.463 L
200.562 226.463 L
200.562 234.463 L
192.562 234.463 LE
193.257 234.463 LS
193.257 226.463 L
201.258 226.463 L
201.258 234.463 L
193.257 234.463 LE
198.125 230.296 LS
198.125 222.296 L
206.125 222.296 L
206.125 230.296 L
198.125 230.296 LE
202.297 228.213 LS
202.297 220.213 L
210.297 220.213 L
210.297 228.213 L
202.297 228.213 LE
206.469 226.129 LS
206.469 218.129 L
214.469 218.129 L
214.469 226.129 L
206.469 226.129 LE
213.422 222.657 LS
213.422 214.657 L
221.422 214.657 L
221.422 222.657 L
213.422 222.657 LE
219.68 220.574 LS
219.68 212.574 L
227.68 212.574 L
227.68 220.574 L
219.68 220.574 LE
226.633 217.796 LS
226.633 209.796 L
234.633 209.796 L
234.633 217.796 L
226.633 217.796 LE
233.586 215.713 LS
233.586 207.713 L
241.586 207.713 L
241.586 215.713 L
233.586 215.713 LE
239.845 213.629 LS
239.845 205.629 L
247.845 205.629 L
247.845 213.629 L
239.845 213.629 LE
246.798 210.852 LS
246.798 202.852 L
254.798 202.852 L
254.798 210.852 L
246.798 210.852 LE
254.446 209.463 LS
254.446 201.463 L
262.446 201.463 L
262.446 209.463 L
254.446 209.463 LE
261.399 207.38 LS
261.399 199.38 L
269.399 199.38 L
269.399 207.38 L
261.399 207.38 LE
268.353 205.991 LS
268.353 197.991 L
276.353 197.991 L
276.353 205.991 L
268.353 205.991 LE
275.306 204.602 LS
275.306 196.602 L
283.306 196.602 L
283.306 204.602 L
275.306 204.602 LE
282.259 203.213 LS
282.259 195.213 L
290.259 195.213 L
290.259 203.213 L
282.259 203.213 LE
288.518 201.824 LS
288.518 193.824 L
296.518 193.824 L
296.518 201.824 L
288.518 201.824 LE
295.471 200.435 LS
295.471 192.435 L
303.471 192.435 L
303.471 200.435 L
295.471 200.435 LE
299.643 199.046 LS
299.643 191.046 L
307.643 191.046 L
307.643 199.046 L
299.643 199.046 LE
306.596 197.658 LS
306.596 189.658 L
314.596 189.658 L
314.596 197.658 L
306.596 197.658 LE
314.94 195.574 LS
314.94 187.574 L
322.94 187.574 L
322.94 195.574 L
314.94 195.574 LE
321.198 194.186 LS
321.198 186.186 L
329.198 186.186 L
329.198 194.186 L
321.198 194.186 LE
326.76 192.102 LS
326.76 184.102 L
334.76 184.102 L
334.76 192.102 L
326.76 192.102 LE
332.323 190.713 LS
332.323 182.713 L
340.323 182.713 L
340.323 190.713 L
332.323 190.713 LE
337.886 188.63 LS
337.886 180.63 L
345.886 180.63 L
345.886 188.63 L
337.886 188.63 LE
344.144 185.852 LS
344.144 177.852 L
352.144 177.852 L
352.144 185.852 L
344.144 185.852 LE
349.706 183.074 LS
349.706 175.074 L
357.706 175.074 L
357.706 183.074 L
349.706 183.074 LE
353.878 180.991 LS
353.878 172.991 L
361.878 172.991 L
361.878 180.991 L
353.878 180.991 LE
354.573 176.13 LS
354.573 168.13 L
362.573 168.13 L
362.573 176.13 L
354.573 176.13 LE
355.269 171.963 LS
355.269 163.963 L
363.269 163.963 L
363.269 171.963 L
355.269 171.963 LE
355.964 165.019 LS
355.964 157.019 L
363.964 157.019 L
363.964 165.019 L
355.964 165.019 LE
356.66 159.463 LS
356.66 151.463 L
364.66 151.463 L
364.66 159.463 L
356.66 159.463 LE
357.355 155.297 LS
357.355 147.297 L
365.355 147.297 L
365.355 155.297 L
357.355 155.297 LE
357.355 150.436 LS
357.355 142.436 L
365.355 142.436 L
365.355 150.436 L
357.355 150.436 LE
357.355 144.88 LS
357.355 136.88 L
365.355 136.88 L
365.355 144.88 L
357.355 144.88 LE
358.746 142.103 LS
358.746 134.103 L
366.746 134.103 L
366.746 142.103 L
358.746 142.103 LE
361.527 140.019 LS
361.527 132.019 L
369.527 132.019 L
369.527 140.019 L
361.527 140.019 LE
362.222 140.019 LS
362.222 132.019 L
370.222 132.019 L
370.222 140.019 L
362.222 140.019 LE
362.917 137.241 LS
362.917 129.241 L
370.917 129.241 L
370.917 137.241 L
362.917 137.241 LE
365.003 133.769 LS
365.003 125.769 L
373.003 125.769 L
373.003 133.769 L
365.003 133.769 LE
368.48 135.158 LS
368.48 127.158 L
376.48 127.158 L
376.48 135.158 L
368.48 135.158 LE
373.347 136.547 LS
373.347 128.547 L
381.347 128.547 L
381.347 136.547 L
373.347 136.547 LE
378.214 136.547 LS
378.214 128.547 L
386.214 128.547 L
386.214 136.547 L
378.214 136.547 LE
382.387 137.241 LS
382.387 129.241 L
390.387 129.241 L
390.387 137.241 L
382.387 137.241 LE
387.949 137.936 LS
387.949 129.936 L
395.949 129.936 L
395.949 137.936 L
387.949 137.936 LE
392.121 138.63 LS
392.121 130.63 L
400.121 130.63 L
400.121 138.63 L
392.121 138.63 LE
398.379 138.63 LS
398.379 130.63 L
406.379 130.63 L
406.379 138.63 L
398.379 138.63 LE
405.333 139.325 LS
405.333 131.325 L
413.333 131.325 L
413.333 139.325 L
405.333 139.325 LE
412.286 141.408 LS
412.286 133.408 L
420.286 133.408 L
420.286 141.408 L
412.286 141.408 LE
415.762 143.491 LS
415.762 135.491 L
423.762 135.491 L
423.762 143.491 L
415.762 143.491 LE
419.934 144.88 LS
419.934 136.88 L
427.934 136.88 L
427.934 144.88 L
419.934 144.88 LE
423.411 147.658 LS
423.411 139.658 L
431.411 139.658 L
431.411 147.658 L
423.411 147.658 LE
426.888 149.741 LS
426.888 141.741 L
434.888 141.741 L
434.888 149.741 L
426.888 149.741 LE
428.974 153.213 LS
428.974 145.213 L
436.974 145.213 L
436.974 153.213 L
428.974 153.213 LE
432.45 156.686 LS
432.45 148.686 L
440.45 148.686 L
440.45 156.686 L
432.45 156.686 LE
432.45 155.991 LS
432.45 147.991 L
440.45 147.991 L
440.45 155.991 L
432.45 155.991 LE
435.231 160.853 LS
435.231 152.853 L
443.231 152.853 L
443.231 160.853 L
435.231 160.853 LE
438.708 164.325 LS
438.708 156.325 L
446.708 156.325 L
446.708 164.325 L
438.708 164.325 LE
440.794 168.491 LS
440.794 160.491 L
448.794 160.491 L
448.794 168.491 L
440.794 168.491 LE
444.271 172.658 LS
444.271 164.658 L
452.271 164.658 L
452.271 172.658 L
444.271 172.658 LE
445.661 176.824 LS
445.661 168.824 L
453.661 168.824 L
453.661 176.824 L
445.661 176.824 LE
448.443 180.296 LS
448.443 172.296 L
456.443 172.296 L
456.443 180.296 L
448.443 180.296 LE
450.529 184.463 LS
450.529 176.463 L
458.529 176.463 L
458.529 184.463 L
450.529 184.463 LE
452.615 189.324 LS
452.615 181.324 L
460.615 181.324 L
460.615 189.324 L
452.615 189.324 LE
455.396 194.88 LS
455.396 186.88 L
463.396 186.88 L
463.396 194.88 L
455.396 194.88 LE
458.873 199.741 LS
458.873 191.741 L
466.873 191.741 L
466.873 199.741 L
458.873 199.741 LE
461.654 205.991 LS
461.654 197.991 L
469.654 197.991 L
469.654 205.991 L
461.654 205.991 LE
463.74 210.852 LS
463.74 202.852 L
471.74 202.852 L
471.74 210.852 L
463.74 210.852 LE
466.521 216.407 LS
466.521 208.407 L
474.521 208.407 L
474.521 216.407 L
466.521 216.407 LE
469.302 222.657 LS
469.302 214.657 L
477.302 214.657 L
477.302 222.657 L
469.302 222.657 LE
472.779 228.907 LS
472.779 220.907 L
480.779 220.907 L
480.779 228.907 L
472.779 228.907 LE
476.951 236.546 LS
476.951 228.546 L
484.951 228.546 L
484.951 236.546 L
476.951 236.546 LE
476.951 235.852 LS
476.951 227.852 L
484.951 227.852 L
484.951 235.852 L
476.951 235.852 LE
480.428 242.796 LS
480.428 234.796 L
488.428 234.796 L
488.428 242.796 L
480.428 242.796 LE
483.904 250.435 LS
483.904 242.435 L
491.904 242.435 L
491.904 250.435 L
483.904 250.435 LE
487.381 255.296 LS
487.381 247.296 L
495.381 247.296 L
495.381 255.296 L
487.381 255.296 LE
490.857 260.157 LS
490.857 252.157 L
498.857 252.157 L
498.857 260.157 L
490.857 260.157 LE
494.334 264.324 LS
494.334 256.324 L
502.334 256.324 L
502.334 264.324 L
494.334 264.324 LE
497.811 269.185 LS
497.811 261.185 L
505.811 261.185 L
505.811 269.185 L
497.811 269.185 LE
501.288 273.351 LS
501.288 265.351 L
509.288 265.351 L
509.288 273.351 L
501.288 273.351 LE
505.459 276.129 LS
505.459 268.129 L
513.459 268.129 L
513.459 276.129 L
505.459 276.129 LE
510.327 278.907 LS
510.327 270.907 L
518.327 270.907 L
518.327 278.907 L
510.327 278.907 LE
0.5 W
[16 0] 0 setdash
0 0 0 C
330.322 321.063 LS
518.539 321.063 LE
330.322 397.858 LS
518.539 397.858 LE
330.322 321.063 LS
330.322 397.858 LE
518.539 321.063 LS
518.539 397.858 LE
(following particle) 356.368 388.259 14 /Helvetica SCL
(leading particle) 356.368 369.06 14 /Helvetica SCL
(following particle Glow.) 356.368 349.861 14 /Helvetica SCL
(leading particle Glow.) 356.368 330.663 14 /Helvetica SCL
2 W
[] 0 setdash
0.525 0.525 0.525 C
339.345 334.663 LS
339.345 326.663 L
347.345 326.663 L
347.345 334.663 L
339.345 334.663 LE
0.3 0.3 0.3 C
347.345 349.861 LS
346.582 347.51 L
344.582 346.057 L
342.109 346.057 L
340.109 347.51 L
339.345 349.861 L
340.109 352.212 L
342.109 353.666 L
344.582 353.666 L
346.582 352.212 L
347.345 349.861 LE
0.295 0.295 0.295 C
339.345 369.06 LS
347.345 369.06 LE
343.345 373.06 LS
343.345 365.06 LE
0.11 0.11 0.11 C
339.345 388.259 LS
347.345 388.259 LE
343.345 392.259 LS
343.345 384.259 LE
340.517 391.087 LS
346.174 385.431 LE
340.517 385.431 LS
346.174 391.087 LE
0 0 0 C
(Comparison of the settling velocity of two particles) 298.08 410.6 15 /Helvetica SBC
grestore
showpage
cleartomark
%%PageTrailer
%%Trailer
end
%%EOF
