%!PS-Adobe-3.0 EPSF-3.0
%%Title: glps_renderer figure
%%Creator: GL2PS 1.3.8, (C) 1999-2012 C. Geuzaine
%%For: Octave
%%CreationDate: Mon Nov 12 14:46:24 2018
%%LanguageLevel: 3
%%DocumentData: Clean7Bit
%%Pages: 1
%%BoundingBox: 0 0 576 432
%%EndComments
%%BeginProlog
/gl2psdict 64 dict def gl2psdict begin
0 setlinecap 0 setlinejoin
/tryPS3shading false def % set to false to force subdivision
/rThreshold 0.064 def % red component subdivision threshold
/gThreshold 0.034 def % green component subdivision threshold
/bThreshold 0.1 def % blue component subdivision threshold
/BD { bind def } bind def
/C  { setrgbcolor } BD
/G  { 0.082 mul exch 0.6094 mul add exch 0.3086 mul add neg 1.0 add setgray } BD
/W  { setlinewidth } BD
/FC { findfont exch /SH exch def SH scalefont setfont } BD
/SW { dup stringwidth pop } BD
/S  { FC moveto show } BD
/SBC{ FC moveto SW -2 div 0 rmoveto show } BD
/SBR{ FC moveto SW neg 0 rmoveto show } BD
/SCL{ FC moveto 0 SH -2 div rmoveto show } BD
/SCC{ FC moveto SW -2 div SH -2 div rmoveto show } BD
/SCR{ FC moveto SW neg SH -2 div rmoveto show } BD
/STL{ FC moveto 0 SH neg rmoveto show } BD
/STC{ FC moveto SW -2 div SH neg rmoveto show } BD
/STR{ FC moveto SW neg SH neg rmoveto show } BD
/FCT { FC translate 0 0 } BD
/SR  { gsave FCT moveto rotate show grestore } BD
/SBCR{ gsave FCT moveto rotate SW -2 div 0 rmoveto show grestore } BD
/SBRR{ gsave FCT moveto rotate SW neg 0 rmoveto show grestore } BD
/SCLR{ gsave FCT moveto rotate 0 SH -2 div rmoveto show grestore} BD
/SCCR{ gsave FCT moveto rotate SW -2 div SH -2 div rmoveto show grestore} BD
/SCRR{ gsave FCT moveto rotate SW neg SH -2 div rmoveto show grestore} BD
/STLR{ gsave FCT moveto rotate 0 SH neg rmoveto show grestore } BD
/STCR{ gsave FCT moveto rotate SW -2 div SH neg rmoveto show grestore } BD
/STRR{ gsave FCT moveto rotate SW neg SH neg rmoveto show grestore } BD
/P  { newpath 0.0 360.0 arc closepath fill } BD
/LS { newpath moveto } BD
/L  { lineto } BD
/LE { lineto stroke } BD
/T  { newpath moveto lineto lineto closepath fill } BD
/STshfill {
      /b1 exch def /g1 exch def /r1 exch def /y1 exch def /x1 exch def
      /b2 exch def /g2 exch def /r2 exch def /y2 exch def /x2 exch def
      /b3 exch def /g3 exch def /r3 exch def /y3 exch def /x3 exch def
      gsave << /ShadingType 4 /ColorSpace [/DeviceRGB]
      /DataSource [ 0 x1 y1 r1 g1 b1 0 x2 y2 r2 g2 b2 0 x3 y3 r3 g3 b3 ] >>
      shfill grestore } BD
/Tm { 3 -1 roll 8 -1 roll 13 -1 roll add add 3 div
      3 -1 roll 7 -1 roll 11 -1 roll add add 3 div
      3 -1 roll 6 -1 roll 9 -1 roll add add 3 div C T } BD
/STsplit {
      4 index 15 index add 0.5 mul
      4 index 15 index add 0.5 mul
      4 index 15 index add 0.5 mul
      4 index 15 index add 0.5 mul
      4 index 15 index add 0.5 mul
      5 copy 5 copy 25 15 roll
      9 index 30 index add 0.5 mul
      9 index 30 index add 0.5 mul
      9 index 30 index add 0.5 mul
      9 index 30 index add 0.5 mul
      9 index 30 index add 0.5 mul
      5 copy 5 copy 35 5 roll 25 5 roll 15 5 roll
      4 index 10 index add 0.5 mul
      4 index 10 index add 0.5 mul
      4 index 10 index add 0.5 mul
      4 index 10 index add 0.5 mul
      4 index 10 index add 0.5 mul
      5 copy 5 copy 40 5 roll 25 5 roll 15 5 roll 25 5 roll
      STnoshfill STnoshfill STnoshfill STnoshfill } BD
/STnoshfill {
      2 index 8 index sub abs rThreshold gt
      { STsplit }
      { 1 index 7 index sub abs gThreshold gt
        { STsplit }
        { dup 6 index sub abs bThreshold gt
          { STsplit }
          { 2 index 13 index sub abs rThreshold gt
            { STsplit }
            { 1 index 12 index sub abs gThreshold gt
              { STsplit }
              { dup 11 index sub abs bThreshold gt
                { STsplit }
                { 7 index 13 index sub abs rThreshold gt
                  { STsplit }
                  { 6 index 12 index sub abs gThreshold gt
                    { STsplit }
                    { 5 index 11 index sub abs bThreshold gt
                      { STsplit }
                      { Tm }
                      ifelse }
                    ifelse }
                  ifelse }
                ifelse }
              ifelse }
            ifelse }
          ifelse }
        ifelse }
      ifelse } BD
tryPS3shading
{ /shfill where
  { /ST { STshfill } BD }
  { /ST { STnoshfill } BD }
  ifelse }
{ /ST { STnoshfill } BD }
ifelse
end
%%EndProlog
%%BeginSetup
/DeviceRGB setcolorspace
gl2psdict begin
%%EndSetup
%%Page: 1 1
%%BeginPageSetup
%%EndPageSetup
mark
gsave
1.0 1.0 scale
1 1 1 C
74.88 399.6 521.28 47.52 74.88 47.52 T
74.88 399.6 521.28 399.6 521.28 47.52 T
0.5 W
[16 0] 0 setdash
0 0 0 C
74.88 47.52 LS
521.28 47.52 LE
74.88 399.6 LS
521.28 399.6 LE
74.88 399.6 LS
521.28 399.6 LE
74.88 47.52 LS
521.28 47.52 LE
74.88 47.52 LS
74.88 399.6 LE
521.28 47.52 LS
521.28 399.6 LE
521.28 47.52 LS
521.28 399.6 LE
74.88 47.52 LS
74.88 399.6 L
74.88 399.6 LE
521.28 399.6 LS
521.28 399.6 LE
521.28 47.52 LS
521.28 47.52 LE
74.88 47.52 LS
74.88 47.52 L
74.88 51.985 LE
74.88 399.6 LS
74.88 395.135 LE
164.16 47.52 LS
164.16 51.985 LE
164.16 399.6 LS
164.16 395.135 LE
253.44 47.52 LS
253.44 51.985 LE
253.44 399.6 LS
253.44 395.135 LE
342.72 47.52 LS
342.72 51.985 LE
342.72 399.6 LS
342.72 395.135 LE
432 47.52 LS
432 51.985 LE
432 399.6 LS
432 395.135 LE
521.28 47.52 LS
521.28 51.985 LE
521.28 399.6 LS
521.28 395.135 LE
(0) 74.88 42.5189 12 /Helvetica STC
(0.05) 164.16 42.5189 12 /Helvetica STC
(0.1) 253.44 42.5189 12 /Helvetica STC
(0.15) 342.72 42.5189 12 /Helvetica STC
(0.2) 432 42.5189 12 /Helvetica STC
(0.25) 521.28 42.5189 12 /Helvetica STC
74.88 47.52 LS
79.348 47.52 LE
521.28 47.52 LS
516.812 47.52 LE
74.88 106.2 LS
79.348 106.2 LE
521.28 106.2 LS
516.812 106.2 LE
74.88 164.88 LS
79.348 164.88 LE
521.28 164.88 LS
516.812 164.88 LE
74.88 223.56 LS
79.348 223.56 LE
521.28 223.56 LS
516.812 223.56 LE
74.88 282.24 LS
79.348 282.24 LE
521.28 282.24 LS
516.812 282.24 LE
74.88 340.92 LS
79.348 340.92 LE
521.28 340.92 LS
516.812 340.92 LE
74.88 399.6 LS
79.348 399.6 LE
521.28 399.6 LS
516.812 399.6 LE
(0) 69.8755 47.52 12 /Helvetica SCR
(1) 69.8755 106.2 12 /Helvetica SCR
(2) 69.8755 164.88 12 /Helvetica SCR
(3) 69.8755 223.56 12 /Helvetica SCR
(4) 69.8755 282.24 12 /Helvetica SCR
(5) 69.8755 340.92 12 /Helvetica SCR
(6) 69.8755 399.6 12 /Helvetica SCR
(time (s)) 298.08 27.5189 14 /Helvetica STC
(position (cm)) 90 57.8755 223.56 14 /Helvetica SBCR
(Comparison of the y-position of two particles) 298.08 409.6 15 /Helvetica SBC
2 W
[] 0 setdash
0.11 0.11 0.11 C
76.2368 340.92 LS
84.2368 340.92 LE
80.2368 344.92 LS
80.2368 336.92 LE
77.4084 343.748 LS
83.0652 338.092 LE
77.4084 338.092 LS
83.0652 343.748 LE
81.5936 340.721 LS
89.5936 340.721 LE
85.5936 344.721 LS
85.5936 336.721 LE
82.7652 343.55 LS
88.422 337.893 LE
82.7652 337.893 LS
88.422 343.55 LE
86.9504 340.415 LS
94.9504 340.415 LE
90.9504 344.415 LS
90.9504 336.415 LE
88.122 343.244 LS
93.7788 337.587 LE
88.122 337.587 LS
93.7788 343.244 LE
92.3072 340.01 LS
100.307 340.01 LE
96.3072 344.01 LS
96.3072 336.01 LE
93.4788 342.838 LS
99.1356 337.181 LE
93.4788 337.181 LS
99.1356 342.838 LE
97.664 339.51 LS
105.664 339.51 LE
101.664 343.51 LS
101.664 335.51 LE
98.8356 342.338 LS
104.492 336.681 LE
98.8356 336.681 LS
104.492 342.338 LE
103.021 338.919 LS
111.021 338.919 LE
107.021 342.919 LS
107.021 334.919 LE
104.192 341.748 LS
109.849 336.091 LE
104.192 336.091 LS
109.849 341.748 LE
108.378 338.245 LS
116.378 338.245 LE
112.378 342.245 LS
112.378 334.245 LE
109.549 341.074 LS
115.206 335.417 LE
109.549 335.417 LS
115.206 341.074 LE
113.734 337.495 LS
121.734 337.495 LE
117.734 341.495 LS
117.734 333.495 LE
114.906 340.324 LS
120.563 334.667 LE
114.906 334.667 LS
120.563 340.324 LE
119.091 336.673 LS
127.091 336.673 LE
123.091 340.673 LS
123.091 332.673 LE
120.263 339.501 LS
125.92 333.844 LE
120.263 333.844 LS
125.92 339.501 LE
124.448 335.781 LS
132.448 335.781 LE
128.448 339.781 LS
128.448 331.781 LE
125.62 338.61 LS
131.276 332.953 LE
125.62 332.953 LS
131.276 338.61 LE
129.805 334.829 LS
137.805 334.829 LE
133.805 338.829 LS
133.805 330.829 LE
130.976 337.657 LS
136.633 332.001 LE
130.976 332.001 LS
136.633 337.657 LE
135.162 333.826 LS
143.162 333.826 LE
139.162 337.826 LS
139.162 329.826 LE
136.333 336.654 LS
141.99 330.997 LE
136.333 330.997 LS
141.99 336.654 LE
140.518 332.765 LS
148.518 332.765 LE
144.518 336.765 LS
144.518 328.765 LE
141.69 335.594 LS
147.347 329.937 LE
141.69 329.937 LS
147.347 335.594 LE
145.875 331.658 LS
153.875 331.658 LE
149.875 335.658 LS
149.875 327.658 LE
147.047 334.487 LS
152.704 328.83 LE
147.047 328.83 LS
152.704 334.487 LE
151.232 330.513 LS
159.232 330.513 LE
155.232 334.513 LS
155.232 326.513 LE
152.404 333.341 LS
158.06 327.684 LE
152.404 327.684 LS
158.06 333.341 LE
156.589 329.324 LS
164.589 329.324 LE
160.589 333.324 LS
160.589 325.324 LE
157.76 332.153 LS
163.417 326.496 LE
157.76 326.496 LS
163.417 332.153 LE
161.946 328.105 LS
169.946 328.105 LE
165.946 332.105 LS
165.946 324.105 LE
163.117 330.933 LS
168.774 325.276 LE
163.117 325.276 LS
168.774 330.933 LE
167.302 326.849 LS
175.302 326.849 LE
171.302 330.849 LS
171.302 322.849 LE
168.474 329.678 LS
174.131 324.021 LE
168.474 324.021 LS
174.131 329.678 LE
172.659 325.56 LS
180.659 325.56 LE
176.659 329.56 LS
176.659 321.56 LE
173.831 328.389 LS
179.488 322.732 LE
173.831 322.732 LS
179.488 328.389 LE
178.016 324.245 LS
186.016 324.245 LE
182.016 328.245 LS
182.016 320.245 LE
179.188 327.074 LS
184.844 321.417 LE
179.188 321.417 LS
184.844 327.074 LE
183.373 322.898 LS
191.373 322.898 LE
187.373 326.898 LS
187.373 318.898 LE
184.544 325.726 LS
190.201 320.069 LE
184.544 320.069 LS
190.201 325.726 LE
188.73 321.526 LS
196.73 321.526 LE
192.73 325.526 LS
192.73 317.526 LE
189.901 324.354 LS
195.558 318.697 LE
189.901 318.697 LS
195.558 324.354 LE
194.086 320.118 LS
202.086 320.118 LE
198.086 324.118 LS
198.086 316.118 LE
195.258 322.946 LS
200.915 317.29 LE
195.258 317.29 LS
200.915 322.946 LE
199.443 318.687 LS
207.443 318.687 LE
203.443 322.687 LS
203.443 314.687 LE
200.615 321.516 LS
206.272 315.859 LE
200.615 315.859 LS
206.272 321.516 LE
204.8 317.226 LS
212.8 317.226 LE
208.8 321.226 LS
208.8 313.226 LE
205.972 320.054 LS
211.628 314.397 LE
205.972 314.397 LS
211.628 320.054 LE
210.157 315.739 LS
218.157 315.739 LE
214.157 319.739 LS
214.157 311.739 LE
211.328 318.568 LS
216.985 312.911 LE
211.328 312.911 LS
216.985 318.568 LE
215.514 314.217 LS
223.514 314.217 LE
219.514 318.217 LS
219.514 310.217 LE
216.685 317.046 LS
222.342 311.389 LE
216.685 311.389 LS
222.342 317.046 LE
220.87 312.672 LS
228.87 312.672 LE
224.87 316.672 LS
224.87 308.672 LE
222.042 315.5 LS
227.699 309.843 LE
222.042 309.843 LS
227.699 315.5 LE
226.227 311.094 LS
234.227 311.094 LE
230.227 315.094 LS
230.227 307.094 LE
227.399 313.923 LS
233.056 308.266 LE
227.399 308.266 LS
233.056 313.923 LE
231.584 309.491 LS
239.584 309.491 LE
235.584 313.491 LS
235.584 305.491 LE
232.756 312.32 LS
238.412 306.663 LE
232.756 306.663 LS
238.412 312.32 LE
236.941 307.854 LS
244.941 307.854 LE
240.941 311.854 LS
240.941 303.854 LE
238.112 310.682 LS
243.769 305.026 LE
238.112 305.026 LS
243.769 310.682 LE
242.298 306.191 LS
250.298 306.191 LE
246.298 310.191 LS
246.298 302.191 LE
243.469 309.02 LS
249.126 303.363 LE
243.469 303.363 LS
249.126 309.02 LE
247.654 304.499 LS
255.654 304.499 LE
251.654 308.499 LS
251.654 300.499 LE
248.826 307.327 LS
254.483 301.67 LE
248.826 301.67 LS
254.483 307.327 LE
253.011 302.773 LS
261.011 302.773 LE
257.011 306.773 LS
257.011 298.773 LE
254.183 305.602 LS
259.84 299.945 LE
254.183 299.945 LS
259.84 305.602 LE
258.368 301.021 LS
266.368 301.021 LE
262.368 305.021 LS
262.368 297.021 LE
259.54 303.849 LS
265.196 298.192 LE
259.54 298.192 LS
265.196 303.849 LE
263.725 299.236 LS
271.725 299.236 LE
267.725 303.236 LS
267.725 295.236 LE
264.896 302.064 LS
270.553 296.407 LE
264.896 296.407 LS
270.553 302.064 LE
269.082 297.425 LS
277.082 297.425 LE
273.082 301.425 LS
273.082 293.425 LE
270.253 300.254 LS
275.91 294.597 LE
270.253 294.597 LS
275.91 300.254 LE
274.438 295.581 LS
282.438 295.581 LE
278.438 299.581 LS
278.438 291.581 LE
275.61 298.409 LS
281.267 292.752 LE
275.61 292.752 LS
281.267 298.409 LE
279.795 293.704 LS
287.795 293.704 LE
283.795 297.704 LS
283.795 289.704 LE
280.967 296.533 LS
286.624 290.876 LE
280.967 290.876 LS
286.624 296.533 LE
285.152 291.793 LS
293.152 291.793 LE
289.152 295.793 LS
289.152 287.793 LE
286.324 294.622 LS
291.98 288.965 LE
286.324 288.965 LS
291.98 294.622 LE
290.509 289.846 LS
298.509 289.846 LE
294.509 293.846 LS
294.509 285.846 LE
291.68 292.674 LS
297.337 287.017 LE
291.68 287.017 LS
297.337 292.674 LE
295.866 287.863 LS
303.866 287.863 LE
299.866 291.863 LS
299.866 283.863 LE
297.037 290.692 LS
302.694 285.035 LE
297.037 285.035 LS
302.694 290.692 LE
301.222 285.844 LS
309.222 285.844 LE
305.222 289.844 LS
305.222 281.844 LE
302.394 288.673 LS
308.051 283.016 LE
302.394 283.016 LS
308.051 288.673 LE
306.579 283.784 LS
314.579 283.784 LE
310.579 287.784 LS
310.579 279.784 LE
307.751 286.612 LS
313.408 280.956 LE
307.751 280.956 LS
313.408 286.612 LE
311.936 281.685 LS
319.936 281.685 LE
315.936 285.685 LS
315.936 277.685 LE
313.108 284.514 LS
318.764 278.857 LE
313.108 278.857 LS
318.764 284.514 LE
317.293 279.549 LS
325.293 279.549 LE
321.293 283.549 LS
321.293 275.549 LE
318.464 282.377 LS
324.121 276.72 LE
318.464 276.72 LS
324.121 282.377 LE
322.65 277.373 LS
330.65 277.373 LE
326.65 281.373 LS
326.65 273.373 LE
323.821 280.201 LS
329.478 274.544 LE
323.821 274.544 LS
329.478 280.201 LE
328.006 275.161 LS
336.006 275.161 LE
332.006 279.161 LS
332.006 271.161 LE
329.178 277.989 LS
334.835 272.332 LE
329.178 272.332 LS
334.835 277.989 LE
333.363 272.916 LS
341.363 272.916 LE
337.363 276.916 LS
337.363 268.916 LE
334.535 275.745 LS
340.192 270.088 LE
334.535 270.088 LS
340.192 275.745 LE
338.72 270.641 LS
346.72 270.641 LE
342.72 274.641 LS
342.72 266.641 LE
339.892 273.47 LS
345.548 267.813 LE
339.892 267.813 LS
345.548 273.47 LE
344.077 268.339 LS
352.077 268.339 LE
348.077 272.339 LS
348.077 264.339 LE
345.248 271.168 LS
350.905 265.511 LE
345.248 265.511 LS
350.905 271.168 LE
349.434 266.01 LS
357.434 266.01 LE
353.434 270.01 LS
353.434 262.01 LE
350.605 268.838 LS
356.262 263.181 LE
350.605 263.181 LS
356.262 268.838 LE
354.79 263.657 LS
362.79 263.657 LE
358.79 267.657 LS
358.79 259.657 LE
355.962 266.486 LS
361.619 260.829 LE
355.962 260.829 LS
361.619 266.486 LE
360.147 261.288 LS
368.147 261.288 LE
364.147 265.288 LS
364.147 257.288 LE
361.319 264.116 LS
366.976 258.459 LE
361.319 258.459 LS
366.976 264.116 LE
365.504 259.155 LS
373.504 259.155 LE
369.504 263.155 LS
369.504 255.155 LE
366.676 261.984 LS
372.332 256.327 LE
366.676 256.327 LS
372.332 261.984 LE
370.861 257.02 LS
378.861 257.02 LE
374.861 261.02 LS
374.861 253.02 LE
372.032 259.849 LS
377.689 254.192 LE
372.032 254.192 LS
377.689 259.849 LE
376.218 254.894 LS
384.218 254.894 LE
380.218 258.894 LS
380.218 250.894 LE
377.389 257.722 LS
383.046 252.066 LE
377.389 252.066 LS
383.046 257.722 LE
381.574 252.774 LS
389.574 252.774 LE
385.574 256.774 LS
385.574 248.774 LE
382.746 255.602 LS
388.403 249.945 LE
382.746 249.945 LS
388.403 255.602 LE
386.931 250.646 LS
394.931 250.646 LE
390.931 254.646 LS
390.931 246.646 LE
388.103 253.474 LS
393.76 247.817 LE
388.103 247.817 LS
393.76 253.474 LE
392.288 248.51 LS
400.288 248.51 LE
396.288 252.51 LS
396.288 244.51 LE
393.46 251.339 LS
399.116 245.682 LE
393.46 245.682 LS
399.116 251.339 LE
397.645 246.366 LS
405.645 246.366 LE
401.645 250.366 LS
401.645 242.366 LE
398.816 249.194 LS
404.473 243.537 LE
398.816 243.537 LS
404.473 249.194 LE
403.002 244.212 LS
411.002 244.212 LE
407.002 248.212 LS
407.002 240.212 LE
404.173 247.041 LS
409.83 241.384 LE
404.173 241.384 LS
409.83 247.041 LE
408.358 242.042 LS
416.358 242.042 LE
412.358 246.042 LS
412.358 238.042 LE
409.53 244.87 LS
415.187 239.214 LE
409.53 239.214 LS
415.187 244.87 LE
413.715 239.861 LS
421.715 239.861 LE
417.715 243.861 LS
417.715 235.861 LE
414.887 242.689 LS
420.544 237.032 LE
414.887 237.032 LS
420.544 242.689 LE
419.072 237.67 LS
427.072 237.67 LE
423.072 241.67 LS
423.072 233.67 LE
420.244 240.498 LS
425.9 234.841 LE
420.244 234.841 LS
425.9 240.498 LE
424.429 235.466 LS
432.429 235.466 LE
428.429 239.466 LS
428.429 231.466 LE
425.6 238.295 LS
431.257 232.638 LE
425.6 232.638 LS
431.257 238.295 LE
429.786 233.248 LS
437.786 233.248 LE
433.786 237.248 LS
433.786 229.248 LE
430.957 236.076 LS
436.614 230.419 LE
430.957 230.419 LS
436.614 236.076 LE
435.142 231.017 LS
443.142 231.017 LE
439.142 235.017 LS
439.142 227.017 LE
436.314 233.846 LS
441.971 228.189 LE
436.314 228.189 LS
441.971 233.846 LE
440.499 228.782 LS
448.499 228.782 LE
444.499 232.782 LS
444.499 224.782 LE
441.671 231.61 LS
447.328 225.954 LE
441.671 225.954 LS
447.328 231.61 LE
445.856 226.541 LS
453.856 226.541 LE
449.856 230.541 LS
449.856 222.541 LE
447.028 229.369 LS
452.684 223.712 LE
447.028 223.712 LS
452.684 229.369 LE
451.213 224.291 LS
459.213 224.291 LE
455.213 228.291 LS
455.213 220.291 LE
452.384 227.12 LS
458.041 221.463 LE
452.384 221.463 LS
458.041 227.12 LE
456.57 222.037 LS
464.57 222.037 LE
460.57 226.037 LS
460.57 218.037 LE
457.741 224.866 LS
463.398 219.209 LE
457.741 219.209 LS
463.398 224.866 LE
461.926 219.777 LS
469.926 219.777 LE
465.926 223.777 LS
465.926 215.777 LE
463.098 222.606 LS
468.755 216.949 LE
463.098 216.949 LS
468.755 222.606 LE
467.283 217.517 LS
475.283 217.517 LE
471.283 221.517 LS
471.283 213.517 LE
468.455 220.345 LS
474.112 214.689 LE
468.455 214.689 LS
474.112 220.345 LE
472.64 215.248 LS
480.64 215.248 LE
476.64 219.248 LS
476.64 211.248 LE
473.812 218.076 LS
479.468 212.419 LE
473.812 212.419 LS
479.468 218.076 LE
477.997 212.976 LS
485.997 212.976 LE
481.997 216.976 LS
481.997 208.976 LE
479.168 215.804 LS
484.825 210.147 LE
479.168 210.147 LS
484.825 215.804 LE
483.354 210.708 LS
491.354 210.708 LE
487.354 214.708 LS
487.354 206.708 LE
484.525 213.536 LS
490.182 207.88 LE
484.525 207.88 LS
490.182 213.536 LE
488.71 208.439 LS
496.71 208.439 LE
492.71 212.439 LS
492.71 204.439 LE
489.882 211.267 LS
495.539 205.611 LE
489.882 205.611 LS
495.539 211.267 LE
494.067 206.167 LS
502.067 206.167 LE
498.067 210.167 LS
498.067 202.167 LE
495.239 208.996 LS
500.896 203.339 LE
495.239 203.339 LS
500.896 208.996 LE
499.424 203.896 LS
507.424 203.896 LE
503.424 207.896 LS
503.424 199.896 LE
500.596 206.724 LS
506.252 201.067 LE
500.596 201.067 LS
506.252 206.724 LE
504.781 201.618 LS
512.781 201.618 LE
508.781 205.618 LS
508.781 197.618 LE
505.952 204.447 LS
511.609 198.79 LE
505.952 198.79 LS
511.609 204.447 LE
510.138 199.332 LS
518.138 199.332 LE
514.138 203.332 LS
514.138 195.332 LE
511.309 202.16 LS
516.966 196.504 LE
511.309 196.504 LS
516.966 202.16 LE
515.494 197.03 LS
523.494 197.03 LE
519.494 201.03 LS
519.494 193.03 LE
516.666 199.859 LS
522.323 194.202 LE
516.666 194.202 LS
522.323 199.859 LE
0.295 0.295 0.295 C
76.2368 320.985 LS
84.2368 320.985 LE
80.2368 324.985 LS
80.2368 316.985 LE
81.5936 320.8 LS
89.5936 320.8 LE
85.5936 324.8 LS
85.5936 316.8 LE
86.9504 320.508 LS
94.9504 320.508 LE
90.9504 324.508 LS
90.9504 316.508 LE
92.3072 320.115 LS
100.307 320.115 LE
96.3072 324.114 LS
96.3072 316.115 LE
97.664 319.624 LS
105.664 319.624 LE
101.664 323.624 LS
101.664 315.624 LE
103.021 319.044 LS
111.021 319.044 LE
107.021 323.044 LS
107.021 315.044 LE
108.378 318.376 LS
116.378 318.376 LE
112.378 322.376 LS
112.378 314.376 LE
113.734 317.628 LS
121.734 317.628 LE
117.734 321.628 LS
117.734 313.628 LE
119.091 316.808 LS
127.091 316.808 LE
123.091 320.808 LS
123.091 312.808 LE
124.448 315.919 LS
132.448 315.919 LE
128.448 319.919 LS
128.448 311.919 LE
129.805 314.963 LS
137.805 314.963 LE
133.805 318.963 LS
133.805 310.963 LE
135.162 313.95 LS
143.162 313.95 LE
139.162 317.95 LS
139.162 309.95 LE
140.518 312.884 LS
148.518 312.884 LE
144.518 316.884 LS
144.518 308.884 LE
145.875 311.764 LS
153.875 311.764 LE
149.875 315.764 LS
149.875 307.764 LE
151.232 310.605 LS
159.232 310.605 LE
155.232 314.605 LS
155.232 306.605 LE
156.589 309.404 LS
164.589 309.404 LE
160.589 313.404 LS
160.589 305.404 LE
161.946 308.166 LS
169.946 308.166 LE
165.946 312.166 LS
165.946 304.166 LE
167.302 306.895 LS
175.302 306.895 LE
171.302 310.895 LS
171.302 302.895 LE
172.659 305.59 LS
180.659 305.59 LE
176.659 309.59 LS
176.659 301.59 LE
178.016 304.264 LS
186.016 304.264 LE
182.016 308.264 LS
182.016 300.264 LE
183.373 302.91 LS
191.373 302.91 LE
187.373 306.91 LS
187.373 298.91 LE
188.73 301.538 LS
196.73 301.538 LE
192.73 305.538 LS
192.73 297.538 LE
194.086 300.14 LS
202.086 300.14 LE
198.086 304.14 LS
198.086 296.14 LE
199.443 298.729 LS
207.443 298.729 LE
203.443 302.729 LS
203.443 294.729 LE
204.8 297.299 LS
212.8 297.299 LE
208.8 301.299 LS
208.8 293.299 LE
210.157 295.856 LS
218.157 295.856 LE
214.157 299.856 LS
214.157 291.856 LE
215.514 294.395 LS
223.514 294.395 LE
219.514 298.395 LS
219.514 290.395 LE
220.87 292.923 LS
228.87 292.923 LE
224.87 296.923 LS
224.87 288.923 LE
226.227 291.44 LS
234.227 291.44 LE
230.227 295.44 LS
230.227 287.44 LE
231.584 289.947 LS
239.584 289.947 LE
235.584 293.947 LS
235.584 285.947 LE
236.941 288.438 LS
244.941 288.438 LE
240.941 292.438 LS
240.941 284.438 LE
242.298 286.924 LS
250.298 286.924 LE
246.298 290.924 LS
246.298 282.924 LE
247.654 285.398 LS
255.654 285.398 LE
251.654 289.398 LS
251.654 281.398 LE
253.011 283.867 LS
261.011 283.867 LE
257.011 287.867 LS
257.011 279.867 LE
258.368 282.321 LS
266.368 282.321 LE
262.368 286.321 LS
262.368 278.321 LE
263.725 280.773 LS
271.725 280.773 LE
267.725 284.773 LS
267.725 276.773 LE
269.082 279.214 LS
277.082 279.214 LE
273.082 283.214 LS
273.082 275.214 LE
274.438 277.652 LS
282.438 277.652 LE
278.438 281.652 LS
278.438 273.652 LE
279.795 276.076 LS
287.795 276.076 LE
283.795 280.076 LS
283.795 272.076 LE
285.152 274.501 LS
293.152 274.501 LE
289.152 278.501 LS
289.152 270.501 LE
290.509 272.916 LS
298.509 272.916 LE
294.509 276.916 LS
294.509 268.916 LE
295.866 271.326 LS
303.866 271.326 LE
299.866 275.326 LS
299.866 267.326 LE
301.222 269.73 LS
309.222 269.73 LE
305.222 273.73 LS
305.222 265.73 LE
306.579 268.124 LS
314.579 268.124 LE
310.579 272.124 LS
310.579 264.124 LE
311.936 266.509 LS
319.936 266.509 LE
315.936 270.509 LS
315.936 262.509 LE
317.293 264.88 LS
325.293 264.88 LE
321.293 268.88 LS
321.293 260.88 LE
322.65 263.242 LS
330.65 263.242 LE
326.65 267.242 LS
326.65 259.242 LE
328.006 261.586 LS
336.006 261.586 LE
332.006 265.586 LS
332.006 257.586 LE
333.363 259.921 LS
341.363 259.921 LE
337.363 263.921 LS
337.363 255.921 LE
338.72 258.236 LS
346.72 258.236 LE
342.72 262.236 LS
342.72 254.236 LE
344.077 256.537 LS
352.077 256.537 LE
348.077 260.537 LS
348.077 252.537 LE
349.434 254.818 LS
357.434 254.818 LE
353.434 258.818 LS
353.434 250.818 LE
354.79 253.074 LS
362.79 253.074 LE
358.79 257.074 LS
358.79 249.074 LE
360.147 251.304 LS
368.147 251.304 LE
364.147 255.304 LS
364.147 247.304 LE
365.504 249.253 LS
373.504 249.253 LE
369.504 253.253 LS
369.504 245.253 LE
370.861 247.181 LS
378.861 247.181 LE
374.861 251.181 LS
374.861 243.181 LE
376.218 245.086 LS
384.218 245.086 LE
380.218 249.086 LS
380.218 241.086 LE
381.574 242.971 LS
389.574 242.971 LE
385.574 246.971 LS
385.574 238.971 LE
386.931 240.848 LS
394.931 240.848 LE
390.931 244.848 LS
390.931 236.848 LE
392.288 238.716 LS
400.288 238.716 LE
396.288 242.716 LS
396.288 234.716 LE
397.645 236.575 LS
405.645 236.575 LE
401.645 240.575 LS
401.645 232.575 LE
403.002 234.418 LS
411.002 234.418 LE
407.002 238.418 LS
407.002 230.418 LE
408.358 232.251 LS
416.358 232.251 LE
412.358 236.251 LS
412.358 228.251 LE
413.715 230.076 LS
421.715 230.076 LE
417.715 234.076 LS
417.715 226.076 LE
419.072 227.886 LS
427.072 227.886 LE
423.072 231.886 LS
423.072 223.886 LE
424.429 225.683 LS
432.429 225.683 LE
428.429 229.683 LS
428.429 221.683 LE
429.786 223.47 LS
437.786 223.47 LE
433.786 227.47 LS
433.786 219.47 LE
435.142 221.249 LS
443.142 221.249 LE
439.142 225.249 LS
439.142 217.249 LE
440.499 219.017 LS
448.499 219.017 LE
444.499 223.017 LS
444.499 215.017 LE
445.856 216.778 LS
453.856 216.778 LE
449.856 220.778 LS
449.856 212.778 LE
451.213 214.538 LS
459.213 214.538 LE
455.213 218.538 LS
455.213 210.538 LE
456.57 212.295 LS
464.57 212.295 LE
460.57 216.295 LS
460.57 208.295 LE
461.926 210.047 LS
469.926 210.047 LE
465.926 214.047 LS
465.926 206.047 LE
467.283 207.792 LS
475.283 207.792 LE
471.283 211.792 LS
471.283 203.792 LE
472.64 205.537 LS
480.64 205.537 LE
476.64 209.537 LS
476.64 201.537 LE
477.997 203.283 LS
485.997 203.283 LE
481.997 207.283 LS
481.997 199.283 LE
483.354 201.028 LS
491.354 201.028 LE
487.354 205.028 LS
487.354 197.028 LE
488.71 198.777 LS
496.71 198.777 LE
492.71 202.777 LS
492.71 194.777 LE
494.067 196.535 LS
502.067 196.535 LE
498.067 200.535 LS
498.067 192.535 LE
499.424 194.294 LS
507.424 194.294 LE
503.424 198.294 LS
503.424 190.294 LE
504.781 192.049 LS
512.781 192.049 LE
508.781 196.049 LS
508.781 188.049 LE
510.138 189.808 LS
518.138 189.808 LE
514.138 193.808 LS
514.138 185.808 LE
515.494 187.567 LS
523.494 187.567 LE
519.494 191.567 LS
519.494 183.567 LE
0.3 0.3 0.3 C
80.2493 340.577 LS
79.4854 338.226 L
77.4854 336.773 L
75.0133 336.773 L
73.0133 338.226 L
72.2493 340.577 L
73.0133 342.928 L
75.0133 344.381 L
77.4854 344.381 L
79.4854 342.928 L
80.2493 340.577 LE
94.6273 339.891 LS
93.8633 337.539 L
91.8633 336.086 L
89.3912 336.086 L
87.3912 337.539 L
86.6272 339.891 L
87.3912 342.242 L
89.3912 343.695 L
91.8633 343.695 L
93.8633 342.242 L
94.6273 339.891 LE
112.428 338.518 LS
111.665 336.167 L
109.665 334.714 L
107.192 334.714 L
105.192 336.167 L
104.428 338.518 L
105.192 340.869 L
107.192 342.322 L
109.665 342.322 L
111.665 340.869 L
112.428 338.518 LE
128.86 336.459 LS
128.096 334.108 L
126.096 332.655 L
123.624 332.655 L
121.624 334.108 L
120.86 336.459 L
121.624 338.81 L
123.624 340.263 L
126.096 340.263 L
128.096 338.81 L
128.86 336.459 LE
141.184 333.714 LS
140.42 331.363 L
138.42 329.909 L
135.948 329.909 L
133.948 331.363 L
133.184 333.714 L
133.948 336.065 L
135.948 337.518 L
138.42 337.518 L
140.42 336.065 L
141.184 333.714 LE
151.454 330.968 LS
150.69 328.617 L
148.69 327.164 L
146.218 327.164 L
144.218 328.617 L
143.454 330.968 L
144.218 333.32 L
146.218 334.773 L
148.69 334.773 L
150.69 333.32 L
151.454 330.968 LE
163.094 328.909 LS
162.33 326.558 L
160.33 325.105 L
157.857 325.105 L
155.857 326.558 L
155.093 328.909 L
155.857 331.261 L
157.857 332.714 L
160.33 332.714 L
162.33 331.261 L
163.094 328.909 LE
176.787 325.478 LS
176.023 323.127 L
174.023 321.674 L
171.551 321.674 L
169.551 323.127 L
168.787 325.478 L
169.551 327.829 L
171.551 329.282 L
174.023 329.282 L
176.023 327.829 L
176.787 325.478 LE
187.741 322.046 LS
186.977 319.695 L
184.977 318.242 L
182.505 318.242 L
180.505 319.695 L
179.741 322.046 L
180.505 324.397 L
182.505 325.851 L
184.977 325.851 L
186.977 324.397 L
187.741 322.046 LE
202.804 317.928 LS
202.04 315.577 L
200.04 314.124 L
197.568 314.124 L
195.568 315.577 L
194.804 317.928 L
195.568 320.28 L
197.568 321.733 L
200.04 321.733 L
202.04 320.28 L
202.804 317.928 LE
219.92 311.752 LS
219.157 309.4 L
217.157 307.947 L
214.684 307.947 L
212.684 309.4 L
211.92 311.752 L
212.684 314.103 L
214.684 315.556 L
217.157 315.556 L
219.157 314.103 L
219.92 311.752 LE
237.037 305.575 LS
236.273 303.224 L
234.273 301.771 L
231.801 301.771 L
229.801 303.224 L
229.037 305.575 L
229.801 307.926 L
231.801 309.379 L
234.273 309.379 L
236.273 307.926 L
237.037 305.575 LE
247.992 301.457 LS
247.228 299.106 L
245.228 297.653 L
242.756 297.653 L
240.756 299.106 L
239.992 301.457 L
240.756 303.808 L
242.756 305.261 L
245.228 305.261 L
247.228 303.808 L
247.992 301.457 LE
261.685 295.966 LS
260.921 293.615 L
258.921 292.162 L
256.449 292.162 L
254.449 293.615 L
253.685 295.966 L
254.449 298.317 L
256.449 299.771 L
258.921 299.771 L
260.921 298.317 L
261.685 295.966 LE
276.747 289.789 LS
275.984 287.438 L
273.984 285.985 L
271.511 285.985 L
269.511 287.438 L
268.747 289.789 L
269.511 292.141 L
271.511 293.594 L
273.984 293.594 L
275.984 292.141 L
276.747 289.789 LE
287.017 284.985 LS
286.253 282.634 L
284.253 281.181 L
281.781 281.181 L
279.781 282.634 L
279.017 284.985 L
279.781 287.336 L
281.781 288.789 L
284.253 288.789 L
286.253 287.336 L
287.017 284.985 LE
296.603 280.181 LS
295.839 277.83 L
293.839 276.377 L
291.367 276.377 L
289.367 277.83 L
288.603 280.181 L
289.367 282.532 L
291.367 283.985 L
293.839 283.985 L
295.839 282.532 L
296.603 280.181 LE
306.188 275.377 LS
305.424 273.026 L
303.424 271.573 L
300.952 271.573 L
298.952 273.026 L
298.188 275.377 L
298.952 277.728 L
300.952 279.181 L
303.424 279.181 L
305.424 277.728 L
306.188 275.377 LE
319.197 268.514 LS
318.433 266.163 L
316.433 264.709 L
313.96 264.709 L
311.96 266.163 L
311.197 268.514 L
311.96 270.865 L
313.96 272.318 L
316.433 272.318 L
318.433 270.865 L
319.197 268.514 LE
332.205 260.964 LS
331.441 258.613 L
329.441 257.16 L
326.969 257.16 L
324.969 258.613 L
324.205 260.964 L
324.969 263.315 L
326.969 264.768 L
329.441 264.768 L
331.441 263.315 L
332.205 260.964 LE
345.214 252.728 LS
344.45 250.377 L
342.45 248.924 L
339.978 248.924 L
337.978 250.377 L
337.214 252.728 L
337.978 255.08 L
339.978 256.533 L
342.45 256.533 L
344.45 255.08 L
345.214 252.728 LE
357.538 245.865 LS
356.774 243.514 L
354.774 242.061 L
352.302 242.061 L
350.302 243.514 L
349.538 245.865 L
350.302 248.216 L
352.302 249.669 L
354.774 249.669 L
356.774 248.216 L
357.538 245.865 LE
369.177 239.002 LS
368.413 236.651 L
366.413 235.198 L
363.941 235.198 L
361.941 236.651 L
361.177 239.002 L
361.941 241.353 L
363.941 242.806 L
366.413 242.806 L
368.413 241.353 L
369.177 239.002 LE
383.555 231.453 LS
382.791 229.102 L
380.791 227.648 L
378.319 227.648 L
376.319 229.102 L
375.555 231.453 L
376.319 233.804 L
378.319 235.257 L
380.791 235.257 L
382.791 233.804 L
383.555 231.453 LE
396.563 225.276 LS
395.799 222.925 L
393.799 221.472 L
391.327 221.472 L
389.327 222.925 L
388.563 225.276 L
389.327 227.627 L
391.327 229.08 L
393.799 229.08 L
395.799 227.627 L
396.563 225.276 LE
410.257 218.413 LS
409.493 216.061 L
407.493 214.608 L
405.021 214.608 L
403.021 216.061 L
402.257 218.413 L
403.021 220.764 L
405.021 222.217 L
407.493 222.217 L
409.493 220.764 L
410.257 218.413 LE
422.581 212.236 LS
421.817 209.885 L
419.817 208.432 L
417.345 208.432 L
415.345 209.885 L
414.581 212.236 L
415.345 214.587 L
417.345 216.04 L
419.817 216.04 L
421.817 214.587 L
422.581 212.236 LE
435.589 205.373 LS
434.825 203.021 L
432.825 201.568 L
430.353 201.568 L
428.353 203.021 L
427.589 205.373 L
428.353 207.724 L
430.353 209.177 L
432.825 209.177 L
434.825 207.724 L
435.589 205.373 LE
448.598 197.823 LS
447.834 195.472 L
445.834 194.019 L
443.362 194.019 L
441.362 195.472 L
440.598 197.823 L
441.362 200.174 L
443.362 201.627 L
445.834 201.627 L
447.834 200.174 L
448.598 197.823 LE
462.976 190.274 LS
462.212 187.923 L
460.212 186.469 L
457.74 186.469 L
455.74 187.923 L
454.976 190.274 L
455.74 192.625 L
457.74 194.078 L
460.212 194.078 L
462.212 192.625 L
462.976 190.274 LE
475.984 183.411 LS
475.22 181.059 L
473.22 179.606 L
470.748 179.606 L
468.748 181.059 L
467.984 183.411 L
468.748 185.762 L
470.748 187.215 L
473.22 187.215 L
475.22 185.762 L
475.984 183.411 LE
487.624 177.234 LS
486.86 174.883 L
484.86 173.429 L
482.387 173.429 L
480.387 174.883 L
479.624 177.234 L
480.387 179.585 L
482.387 181.038 L
484.86 181.038 L
486.86 179.585 L
487.624 177.234 LE
502.686 171.057 LS
501.922 168.706 L
499.922 167.253 L
497.45 167.253 L
495.45 168.706 L
494.686 171.057 L
495.45 173.408 L
497.45 174.861 L
499.922 174.861 L
501.922 173.408 L
502.686 171.057 LE
513.641 166.253 LS
512.877 163.901 L
510.877 162.448 L
508.405 162.448 L
506.405 163.901 L
505.641 166.253 L
506.405 168.604 L
508.405 170.057 L
510.877 170.057 L
512.877 168.604 L
513.641 166.253 LE
523.911 162.135 LS
523.147 159.784 L
521.147 158.331 L
518.675 158.331 L
516.675 159.784 L
515.911 162.135 L
516.675 164.486 L
518.675 165.939 L
521.147 165.939 L
523.147 164.486 L
523.911 162.135 LE
0.525 0.525 0.525 C
72.2493 315.752 LS
72.2493 307.752 L
80.2493 307.752 L
80.2493 315.752 L
72.2493 315.752 LE
87.9966 314.379 LS
87.9966 306.379 L
95.9966 306.379 L
95.9966 314.379 L
87.9966 314.379 LE
101.005 313.006 LS
101.005 305.006 L
109.005 305.006 L
109.005 313.006 L
101.005 313.006 LE
113.329 311.634 LS
113.329 303.634 L
121.329 303.634 L
121.329 311.634 L
113.329 311.634 LE
124.968 310.261 LS
124.968 302.261 L
132.968 302.261 L
132.968 310.261 L
124.968 310.261 LE
136.608 307.516 LS
136.608 299.516 L
144.608 299.516 L
144.608 307.516 L
136.608 307.516 LE
150.301 304.771 LS
150.301 296.771 L
158.301 296.771 L
158.301 304.771 L
150.301 304.771 LE
162.625 301.339 LS
162.625 293.339 L
170.625 293.339 L
170.625 301.339 L
162.625 301.339 LE
174.264 297.907 LS
174.264 289.907 L
182.264 289.907 L
182.264 297.907 L
174.264 297.907 LE
185.219 294.476 LS
185.219 286.476 L
193.219 286.476 L
193.219 294.476 L
185.219 294.476 LE
197.543 291.044 LS
197.543 283.044 L
205.543 283.044 L
205.543 291.044 L
197.543 291.044 LE
209.182 286.926 LS
209.182 278.926 L
217.182 278.926 L
217.182 286.926 L
209.182 286.926 LE
224.244 281.436 LS
224.244 273.436 L
232.244 273.436 L
232.244 281.436 L
224.244 281.436 LE
236.568 276.632 LS
236.568 268.632 L
244.568 268.632 L
244.568 276.632 L
236.568 276.632 LE
248.208 272.514 LS
248.208 264.514 L
256.208 264.514 L
256.208 272.514 L
248.208 272.514 LE
259.847 268.396 LS
259.847 260.396 L
267.847 260.396 L
267.847 268.396 L
259.847 268.396 LE
270.117 264.278 LS
270.117 256.278 L
278.117 256.278 L
278.117 264.278 L
270.117 264.278 LE
282.441 260.16 LS
282.441 252.16 L
290.441 252.16 L
290.441 260.16 L
282.441 260.16 LE
294.765 255.356 LS
294.765 247.356 L
302.765 247.356 L
302.765 255.356 L
294.765 255.356 LE
309.143 249.865 LS
309.143 241.865 L
317.143 241.865 L
317.143 249.865 L
309.143 249.865 LE
321.466 245.061 LS
321.466 237.061 L
329.466 237.061 L
329.466 245.061 L
321.466 245.061 LE
333.79 239.571 LS
333.79 231.571 L
341.79 231.571 L
341.79 239.571 L
333.79 239.571 LE
347.484 234.08 LS
347.484 226.08 L
355.484 226.08 L
355.484 234.08 L
347.484 234.08 LE
359.123 229.276 LS
359.123 221.276 L
367.123 221.276 L
367.123 229.276 L
359.123 229.276 LE
370.762 223.099 LS
370.762 215.099 L
378.762 215.099 L
378.762 223.099 L
370.762 223.099 LE
383.086 217.608 LS
383.086 209.608 L
391.086 209.608 L
391.086 217.608 L
383.086 217.608 LE
396.779 210.059 LS
396.779 202.059 L
404.779 202.059 L
404.779 210.059 L
396.779 210.059 LE
413.896 202.509 LS
413.896 194.509 L
421.896 194.509 L
421.896 202.509 L
413.896 202.509 LE
428.274 195.646 LS
428.274 187.646 L
436.274 187.646 L
436.274 195.646 L
428.274 195.646 LE
440.598 189.469 LS
440.598 181.469 L
448.598 181.469 L
448.598 189.469 L
440.598 189.469 LE
459.768 181.234 LS
459.768 173.234 L
467.768 173.234 L
467.768 181.234 L
459.768 181.234 LE
476.2 175.743 LS
476.2 167.743 L
484.2 167.743 L
484.2 175.743 L
476.2 175.743 LE
493.317 170.939 LS
493.317 162.939 L
501.317 162.939 L
501.317 170.939 L
493.317 170.939 LE
504.271 167.507 LS
504.271 159.507 L
512.271 159.507 L
512.271 167.507 L
504.271 167.507 LE
516.595 166.135 LS
516.595 158.135 L
524.595 158.135 L
524.595 166.135 L
516.595 166.135 LE
1 1 1 C
330.322 396.858 518.538 315.949 330.322 315.949 T
330.322 396.858 518.538 396.858 518.538 315.949 T
0.5 W
[16 0] 0 setdash
0 0 0 C
330.322 315.949 LS
518.538 315.949 LE
330.322 396.858 LS
518.538 396.858 LE
330.322 396.858 LS
518.538 396.858 LE
330.322 315.949 LS
518.538 315.949 LE
330.322 315.949 LS
330.322 396.858 LE
518.538 315.949 LS
518.538 396.858 LE
518.538 315.949 LS
518.538 396.858 LE
330.322 315.949 LS
330.322 396.858 L
330.322 396.858 LE
518.538 396.858 LS
518.538 396.858 LE
518.538 315.949 LS
518.538 315.949 LE
330.322 315.949 LS
330.322 315.949 LE
(following particle) 356.368 386.745 14 /Helvetica SCL
(leading particle) 356.368 366.517 14 /Helvetica SCL
(following particle Glow.) 356.368 346.29 14 /Helvetica SCL
(leading particle Glow.) 356.368 326.063 14 /Helvetica SCL
[] 0 setdash
0.525 0.525 0.525 C
339.345 330.063 LS
339.345 322.063 L
347.345 322.063 L
347.345 330.063 L
339.345 330.063 LE
0.3 0.3 0.3 C
347.345 346.29 LS
346.581 343.939 L
344.581 342.486 L
342.109 342.486 L
340.109 343.939 L
339.345 346.29 L
340.109 348.641 L
342.109 350.094 L
344.581 350.094 L
346.581 348.641 L
347.345 346.29 LE
0.295 0.295 0.295 C
339.345 366.517 LS
347.345 366.517 LE
343.345 370.517 LS
343.345 362.517 LE
0.11 0.11 0.11 C
339.345 386.745 LS
347.345 386.745 LE
343.345 390.745 LS
343.345 382.745 LE
340.517 389.573 LS
346.174 383.916 LE
340.517 383.916 LS
346.174 389.573 LE
grestore
showpage
cleartomark
%%PageTrailer
%%Trailer
end
%%EOF
