%!PS-Adobe-3.0 EPSF-3.0
%%Title: glps_renderer figure
%%Creator: GL2PS 1.3.8, (C) 1999-2012 C. Geuzaine
%%For: Octave
%%CreationDate: Mon Nov 12 14:46:25 2018
%%LanguageLevel: 3
%%DocumentData: Clean7Bit
%%Pages: 1
%%BoundingBox: 0 0 576 432
%%EndComments
%%BeginProlog
/gl2psdict 64 dict def gl2psdict begin
0 setlinecap 0 setlinejoin
/tryPS3shading false def % set to false to force subdivision
/rThreshold 0.064 def % red component subdivision threshold
/gThreshold 0.034 def % green component subdivision threshold
/bThreshold 0.1 def % blue component subdivision threshold
/BD { bind def } bind def
/C  { setrgbcolor } BD
/G  { 0.082 mul exch 0.6094 mul add exch 0.3086 mul add neg 1.0 add setgray } BD
/W  { setlinewidth } BD
/FC { findfont exch /SH exch def SH scalefont setfont } BD
/SW { dup stringwidth pop } BD
/S  { FC moveto show } BD
/SBC{ FC moveto SW -2 div 0 rmoveto show } BD
/SBR{ FC moveto SW neg 0 rmoveto show } BD
/SCL{ FC moveto 0 SH -2 div rmoveto show } BD
/SCC{ FC moveto SW -2 div SH -2 div rmoveto show } BD
/SCR{ FC moveto SW neg SH -2 div rmoveto show } BD
/STL{ FC moveto 0 SH neg rmoveto show } BD
/STC{ FC moveto SW -2 div SH neg rmoveto show } BD
/STR{ FC moveto SW neg SH neg rmoveto show } BD
/FCT { FC translate 0 0 } BD
/SR  { gsave FCT moveto rotate show grestore } BD
/SBCR{ gsave FCT moveto rotate SW -2 div 0 rmoveto show grestore } BD
/SBRR{ gsave FCT moveto rotate SW neg 0 rmoveto show grestore } BD
/SCLR{ gsave FCT moveto rotate 0 SH -2 div rmoveto show grestore} BD
/SCCR{ gsave FCT moveto rotate SW -2 div SH -2 div rmoveto show grestore} BD
/SCRR{ gsave FCT moveto rotate SW neg SH -2 div rmoveto show grestore} BD
/STLR{ gsave FCT moveto rotate 0 SH neg rmoveto show grestore } BD
/STCR{ gsave FCT moveto rotate SW -2 div SH neg rmoveto show grestore } BD
/STRR{ gsave FCT moveto rotate SW neg SH neg rmoveto show grestore } BD
/P  { newpath 0.0 360.0 arc closepath fill } BD
/LS { newpath moveto } BD
/L  { lineto } BD
/LE { lineto stroke } BD
/T  { newpath moveto lineto lineto closepath fill } BD
/STshfill {
      /b1 exch def /g1 exch def /r1 exch def /y1 exch def /x1 exch def
      /b2 exch def /g2 exch def /r2 exch def /y2 exch def /x2 exch def
      /b3 exch def /g3 exch def /r3 exch def /y3 exch def /x3 exch def
      gsave << /ShadingType 4 /ColorSpace [/DeviceRGB]
      /DataSource [ 0 x1 y1 r1 g1 b1 0 x2 y2 r2 g2 b2 0 x3 y3 r3 g3 b3 ] >>
      shfill grestore } BD
/Tm { 3 -1 roll 8 -1 roll 13 -1 roll add add 3 div
      3 -1 roll 7 -1 roll 11 -1 roll add add 3 div
      3 -1 roll 6 -1 roll 9 -1 roll add add 3 div C T } BD
/STsplit {
      4 index 15 index add 0.5 mul
      4 index 15 index add 0.5 mul
      4 index 15 index add 0.5 mul
      4 index 15 index add 0.5 mul
      4 index 15 index add 0.5 mul
      5 copy 5 copy 25 15 roll
      9 index 30 index add 0.5 mul
      9 index 30 index add 0.5 mul
      9 index 30 index add 0.5 mul
      9 index 30 index add 0.5 mul
      9 index 30 index add 0.5 mul
      5 copy 5 copy 35 5 roll 25 5 roll 15 5 roll
      4 index 10 index add 0.5 mul
      4 index 10 index add 0.5 mul
      4 index 10 index add 0.5 mul
      4 index 10 index add 0.5 mul
      4 index 10 index add 0.5 mul
      5 copy 5 copy 40 5 roll 25 5 roll 15 5 roll 25 5 roll
      STnoshfill STnoshfill STnoshfill STnoshfill } BD
/STnoshfill {
      2 index 8 index sub abs rThreshold gt
      { STsplit }
      { 1 index 7 index sub abs gThreshold gt
        { STsplit }
        { dup 6 index sub abs bThreshold gt
          { STsplit }
          { 2 index 13 index sub abs rThreshold gt
            { STsplit }
            { 1 index 12 index sub abs gThreshold gt
              { STsplit }
              { dup 11 index sub abs bThreshold gt
                { STsplit }
                { 7 index 13 index sub abs rThreshold gt
                  { STsplit }
                  { 6 index 12 index sub abs gThreshold gt
                    { STsplit }
                    { 5 index 11 index sub abs bThreshold gt
                      { STsplit }
                      { Tm }
                      ifelse }
                    ifelse }
                  ifelse }
                ifelse }
              ifelse }
            ifelse }
          ifelse }
        ifelse }
      ifelse } BD
tryPS3shading
{ /shfill where
  { /ST { STshfill } BD }
  { /ST { STnoshfill } BD }
  ifelse }
{ /ST { STnoshfill } BD }
ifelse
end
%%EndProlog
%%BeginSetup
/DeviceRGB setcolorspace
gl2psdict begin
%%EndSetup
%%Page: 1 1
%%BeginPageSetup
%%EndPageSetup
mark
gsave
1.0 1.0 scale
1 1 1 C
74.88 399.6 521.28 47.52 74.88 47.52 T
74.88 399.6 521.28 399.6 521.28 47.52 T
0.5 W
[16 0] 0 setdash
0 0 0 C
74.88 47.52 LS
521.28 47.52 LE
74.88 399.6 LS
521.28 399.6 LE
74.88 399.6 LS
521.28 399.6 LE
74.88 47.52 LS
521.28 47.52 LE
74.88 47.52 LS
74.88 399.6 LE
521.28 47.52 LS
521.28 399.6 LE
521.28 47.52 LS
521.28 399.6 LE
74.88 47.52 LS
74.88 399.6 L
74.88 399.6 LE
521.28 399.6 LS
521.28 399.6 LE
521.28 47.52 LS
521.28 47.52 LE
74.88 47.52 LS
74.88 47.52 L
74.88 51.985 LE
74.88 399.6 LS
74.88 395.135 LE
164.16 47.52 LS
164.16 51.985 LE
164.16 399.6 LS
164.16 395.135 LE
253.44 47.52 LS
253.44 51.985 LE
253.44 399.6 LS
253.44 395.135 LE
342.72 47.52 LS
342.72 51.985 LE
342.72 399.6 LS
342.72 395.135 LE
432 47.52 LS
432 51.985 LE
432 399.6 LS
432 395.135 LE
521.28 47.52 LS
521.28 51.985 LE
521.28 399.6 LS
521.28 395.135 LE
(0) 74.88 42.5189 12 /Helvetica STC
(0.05) 164.16 42.5189 12 /Helvetica STC
(0.1) 253.44 42.5189 12 /Helvetica STC
(0.15) 342.72 42.5189 12 /Helvetica STC
(0.2) 432 42.5189 12 /Helvetica STC
(0.25) 521.28 42.5189 12 /Helvetica STC
74.88 47.52 LS
79.348 47.52 LE
521.28 47.52 LS
516.812 47.52 LE
74.88 135.54 LS
79.348 135.54 LE
521.28 135.54 LS
516.812 135.54 LE
74.88 223.56 LS
79.348 223.56 LE
521.28 223.56 LS
516.812 223.56 LE
74.88 311.58 LS
79.348 311.58 LE
521.28 311.58 LS
516.812 311.58 LE
74.88 399.6 LS
79.348 399.6 LE
521.28 399.6 LS
516.812 399.6 LE
(-20) 69.8755 47.52 12 /Helvetica SCR
(-15) 69.8755 135.54 12 /Helvetica SCR
(-10) 69.8755 223.56 12 /Helvetica SCR
(-5) 69.8755 311.58 12 /Helvetica SCR
(0) 69.8755 399.6 12 /Helvetica SCR
(time (s)) 298.08 27.5189 14 /Helvetica STC
(position (cm)) 90 45.8755 223.56 14 /Helvetica SBCR
(Comparison of the settling velocity of two particles) 298.08 409.6 15 /Helvetica SBC
2 W
[] 0 setdash
0.11 0.11 0.11 C
76.2368 385.321 LS
84.2368 385.321 LE
80.2368 389.321 LS
80.2368 381.321 LE
77.4084 388.15 LS
83.0652 382.493 LE
77.4084 382.493 LS
83.0652 388.15 LE
81.5936 374.21 LS
89.5936 374.21 LE
85.5936 378.21 LS
85.5936 370.21 LE
82.7652 377.039 LS
88.422 371.382 LE
82.7652 371.382 LS
88.422 377.039 LE
86.9504 363.911 LS
94.9504 363.911 LE
90.9504 367.911 LS
90.9504 359.911 LE
88.122 366.739 LS
93.7788 361.082 LE
88.122 361.082 LS
93.7788 366.739 LE
92.3072 354.305 LS
100.307 354.305 LE
96.3072 358.305 LS
96.3072 350.305 LE
93.4788 357.133 LS
99.1356 351.477 LE
93.4788 351.477 LS
99.1356 357.133 LE
97.664 345.008 LS
105.664 345.008 LE
101.664 349.008 LS
101.664 341.008 LE
98.8356 347.837 LS
104.492 342.18 LE
98.8356 342.18 LS
104.492 347.837 LE
103.021 336.212 LS
111.021 336.212 LE
107.021 340.212 LS
107.021 332.212 LE
104.192 339.041 LS
109.849 333.384 LE
104.192 333.384 LS
109.849 339.041 LE
108.378 328.313 LS
116.378 328.313 LE
112.378 332.313 LS
112.378 324.313 LE
109.549 331.141 LS
115.206 325.484 LE
109.549 325.484 LS
115.206 331.141 LE
113.734 320.927 LS
121.734 320.927 LE
117.734 324.927 LS
117.734 316.927 LE
114.906 323.756 LS
120.563 318.099 LE
114.906 318.099 LS
120.563 323.756 LE
119.091 313.818 LS
127.091 313.818 LE
123.091 317.818 LS
123.091 309.818 LE
120.263 316.646 LS
125.92 310.99 LE
120.263 310.99 LS
125.92 316.646 LE
124.448 307.255 LS
132.448 307.255 LE
128.448 311.255 LS
128.448 303.255 LE
125.62 310.083 LS
131.276 304.426 LE
125.62 304.426 LS
131.276 310.083 LE
129.805 301.798 LS
137.805 301.798 LE
133.805 305.798 LS
133.805 297.798 LE
130.976 304.627 LS
136.633 298.97 LE
130.976 298.97 LS
136.633 304.627 LE
135.162 296.387 LS
143.162 296.387 LE
139.162 300.387 LS
139.162 292.387 LE
136.333 299.215 LS
141.99 293.558 LE
136.333 293.558 LS
141.99 299.215 LE
140.518 290.967 LS
148.518 290.967 LE
144.518 294.967 LS
144.518 286.967 LE
141.69 293.796 LS
147.347 288.139 LE
141.69 288.139 LS
147.347 293.796 LE
145.875 287.246 LS
153.875 287.246 LE
149.875 291.246 LS
149.875 283.246 LE
147.047 290.075 LS
152.704 284.418 LE
147.047 284.418 LS
152.704 290.075 LE
151.232 282.856 LS
159.232 282.856 LE
155.232 286.856 LS
155.232 278.856 LE
152.404 285.685 LS
158.06 280.028 LE
152.404 280.028 LS
158.06 285.685 LE
156.589 278.728 LS
164.589 278.728 LE
160.589 282.728 LS
160.589 274.728 LE
157.76 281.556 LS
163.417 275.899 LE
157.76 275.899 LS
163.417 281.556 LE
161.946 276.165 LS
169.946 276.165 LE
165.946 280.165 LS
165.946 272.165 LE
163.117 278.993 LS
168.774 273.336 LE
163.117 273.336 LS
168.774 278.993 LE
167.302 272.065 LS
175.302 272.065 LE
171.302 276.065 LS
171.302 268.065 LE
168.474 274.894 LS
174.131 269.237 LE
168.474 269.237 LS
174.131 274.894 LE
172.659 269.679 LS
180.659 269.679 LE
176.659 273.679 LS
176.659 265.679 LE
173.831 272.507 LS
179.488 266.851 LE
173.831 266.851 LS
179.488 272.507 LE
178.016 266.3 LS
186.016 266.3 LE
182.016 270.3 LS
182.016 262.3 LE
179.188 269.128 LS
184.844 263.472 LE
179.188 263.472 LS
184.844 269.128 LE
183.373 263.808 LS
191.373 263.808 LE
187.373 267.808 LS
187.373 259.808 LE
184.544 266.636 LS
190.201 260.979 LE
184.544 260.979 LS
190.201 266.636 LE
188.73 260.55 LS
196.73 260.55 LE
192.73 264.55 LS
192.73 256.55 LE
189.901 263.378 LS
195.558 257.721 LE
189.901 257.721 LS
195.558 263.378 LE
194.086 257.351 LS
202.086 257.351 LE
198.086 261.351 LS
198.086 253.351 LE
195.258 260.18 LS
200.915 254.523 LE
195.258 254.523 LS
200.915 260.18 LE
199.443 255.149 LS
207.443 255.149 LE
203.443 259.149 LS
203.443 251.149 LE
200.615 257.978 LS
206.272 252.321 LE
200.615 252.321 LS
206.272 257.978 LE
204.8 252.041 LS
212.8 252.041 LE
208.8 256.041 LS
208.8 248.041 LE
205.972 254.87 LS
211.628 249.213 LE
205.972 249.213 LS
211.628 254.87 LE
210.157 249.196 LS
218.157 249.196 LE
214.157 253.196 LS
214.157 245.196 LE
211.328 252.025 LS
216.985 246.368 LE
211.328 246.368 LS
216.985 252.025 LE
215.514 245.908 LS
223.514 245.908 LE
219.514 249.908 LS
219.514 241.908 LE
216.685 248.737 LS
222.342 243.08 LE
216.685 243.08 LS
222.342 248.737 LE
220.87 243.55 LS
228.87 243.55 LE
224.87 247.55 LS
224.87 239.55 LE
222.042 246.378 LS
227.699 240.722 LE
222.042 240.722 LS
227.699 246.378 LE
226.227 240.773 LS
234.227 240.773 LE
230.227 244.773 LS
230.227 236.773 LE
227.399 243.602 LS
233.056 237.945 LE
227.399 237.945 LS
233.056 243.602 LE
231.584 237.286 LS
239.584 237.286 LE
235.584 241.286 LS
235.584 233.286 LE
232.756 240.115 LS
238.412 234.458 LE
232.756 234.458 LS
238.412 240.115 LE
236.941 234.869 LS
244.941 234.869 LE
240.941 238.869 LS
240.941 230.869 LE
238.112 237.698 LS
243.769 232.041 LE
238.112 232.041 LS
243.769 237.698 LE
242.298 231.621 LS
250.298 231.621 LE
246.298 235.621 LS
246.298 227.621 LE
243.469 234.45 LS
249.126 228.793 LE
243.469 228.793 LS
249.126 234.45 LE
247.654 229.096 LS
255.654 229.096 LE
251.654 233.096 LS
251.654 225.096 LE
248.826 231.925 LS
254.483 226.268 LE
248.826 226.268 LS
254.483 231.925 LE
253.011 225.095 LS
261.011 225.095 LE
257.011 229.095 LS
257.011 221.095 LE
254.183 227.924 LS
259.84 222.267 LE
254.183 222.267 LS
259.84 227.924 LE
258.368 222.728 LS
266.368 222.728 LE
262.368 226.728 LS
262.368 218.728 LE
259.54 225.556 LS
265.196 219.9 LE
259.54 219.9 LS
265.196 225.556 LE
263.725 220.278 LS
271.725 220.278 LE
267.725 224.278 LS
267.725 216.278 LE
264.896 223.107 LS
270.553 217.45 LE
264.896 217.45 LS
270.553 223.107 LE
269.082 216.337 LS
277.082 216.337 LE
273.082 220.337 LS
273.082 212.337 LE
270.253 219.166 LS
275.91 213.509 LE
270.253 213.509 LS
275.91 219.166 LE
274.438 214.096 LS
282.438 214.096 LE
278.438 218.096 LS
278.438 210.096 LE
275.61 216.925 LS
281.267 211.268 LE
275.61 211.268 LS
281.267 216.925 LE
279.795 210.006 LS
287.795 210.006 LE
283.795 214.006 LS
283.795 206.006 LE
280.967 212.834 LS
286.624 207.177 LE
280.967 207.177 LS
286.624 212.834 LE
285.152 206.403 LS
293.152 206.403 LE
289.152 210.403 LS
289.152 202.403 LE
286.324 209.231 LS
291.98 203.574 LE
286.324 203.574 LS
291.98 209.231 LE
290.509 203.141 LS
298.509 203.141 LE
294.509 207.141 LS
294.509 199.141 LE
291.68 205.97 LS
297.337 200.313 LE
291.68 200.313 LS
297.337 205.97 LE
295.866 199.35 LS
303.866 199.35 LE
299.866 203.35 LS
299.866 195.35 LE
297.037 202.179 LS
302.694 196.522 LE
297.037 196.522 LS
302.694 202.179 LE
301.222 195.453 LS
309.222 195.453 LE
305.222 199.453 LS
305.222 191.453 LE
302.394 198.282 LS
308.051 192.625 LE
302.394 192.625 LS
308.051 198.282 LE
306.579 192.109 LS
314.579 192.109 LE
310.579 196.109 LS
310.579 188.109 LE
307.751 194.937 LS
313.408 189.281 LE
307.751 189.281 LS
313.408 194.937 LE
311.936 187.808 LS
319.936 187.808 LE
315.936 191.808 LS
315.936 183.808 LE
313.108 190.636 LS
318.764 184.979 LE
313.108 184.979 LS
318.764 190.636 LE
317.293 183.765 LS
325.293 183.765 LE
321.293 187.765 LS
321.293 179.765 LE
318.464 186.593 LS
324.121 180.936 LE
318.464 180.936 LS
324.121 186.593 LE
322.65 180.389 LS
330.65 180.389 LE
326.65 184.389 LS
326.65 176.389 LE
323.821 183.217 LS
329.478 177.56 LE
323.821 177.56 LS
329.478 183.217 LE
328.006 177.2 LS
336.006 177.2 LE
332.006 181.2 LS
332.006 173.2 LE
329.178 180.028 LS
334.835 174.372 LE
329.178 174.372 LS
334.835 180.028 LE
333.363 173.2 LS
341.363 173.2 LE
337.363 177.2 LS
337.363 169.2 LE
334.535 176.028 LS
340.192 170.371 LE
334.535 170.371 LS
340.192 176.028 LE
338.72 170.674 LS
346.72 170.674 LE
342.72 174.674 LS
342.72 166.674 LE
339.892 173.502 LS
345.548 167.845 LE
339.892 167.845 LS
345.548 173.502 LE
344.077 167.989 LS
352.077 167.989 LE
348.077 171.989 LS
348.077 163.989 LE
345.248 170.818 LS
350.905 165.161 LE
345.248 165.161 LS
350.905 170.818 LE
349.434 166.237 LS
357.434 166.237 LE
353.434 170.237 LS
353.434 162.237 LE
350.605 169.065 LS
356.262 163.409 LE
350.605 163.409 LS
356.262 169.065 LE
354.79 163.272 LS
362.79 163.272 LE
358.79 167.272 LS
358.79 159.272 LE
355.962 166.1 LS
361.619 160.443 LE
355.962 160.443 LS
361.619 166.1 LE
360.147 161.873 LS
368.147 161.873 LE
364.147 165.873 LS
364.147 157.873 LE
361.319 164.701 LS
366.976 159.044 LE
361.319 159.044 LS
366.976 164.701 LE
365.504 191.235 LS
373.504 191.235 LE
369.504 195.235 LS
369.504 187.235 LE
366.676 194.063 LS
372.332 188.406 LE
366.676 188.406 LS
372.332 194.063 LE
370.861 182.442 LS
378.861 182.442 LE
374.861 186.442 LS
374.861 178.442 LE
372.032 185.27 LS
377.689 179.613 LE
372.032 179.613 LS
377.689 185.27 LE
376.218 185.593 LS
384.218 185.593 LE
380.218 189.593 LS
380.218 181.593 LE
377.389 188.421 LS
383.046 182.764 LE
377.389 182.764 LS
383.046 188.421 LE
381.574 187.244 LS
389.574 187.244 LE
385.574 191.244 LS
385.574 183.244 LE
382.746 190.073 LS
388.403 184.416 LE
382.746 184.416 LS
388.403 190.073 LE
386.931 185.393 LS
394.931 185.393 LE
390.931 189.393 LS
390.931 181.393 LE
388.103 188.222 LS
393.76 182.565 LE
388.103 182.565 LS
393.76 188.222 LE
392.288 183.536 LS
400.288 183.536 LE
396.288 187.536 LS
396.288 179.536 LE
393.46 186.365 LS
399.116 180.708 LE
393.46 180.708 LS
399.116 186.365 LE
397.645 186.122 LS
405.645 186.122 LE
401.645 190.122 LS
401.645 182.122 LE
398.816 188.951 LS
404.473 183.294 LE
398.816 183.294 LS
404.473 188.951 LE
403.002 184.626 LS
411.002 184.626 LE
407.002 188.626 LS
407.002 180.626 LE
404.173 187.454 LS
409.83 181.797 LE
404.173 181.797 LS
409.83 187.454 LE
408.358 180.357 LS
416.358 180.357 LE
412.358 184.357 LS
412.358 176.357 LE
409.53 183.186 LS
415.187 177.529 LE
409.53 177.529 LS
415.187 183.186 LE
413.715 179.321 LS
421.715 179.321 LE
417.715 183.321 LS
417.715 175.321 LE
414.887 182.149 LS
420.544 176.492 LE
414.887 176.492 LS
420.544 182.149 LE
419.072 182.051 LS
427.072 182.051 LE
423.072 186.051 LS
423.072 178.051 LE
420.244 184.88 LS
425.9 179.223 LE
420.244 179.223 LS
425.9 184.88 LE
424.429 179.485 LS
432.429 179.485 LE
428.429 183.485 LS
428.429 175.485 LE
425.6 182.314 LS
431.257 176.657 LE
425.6 176.657 LS
431.257 182.314 LE
429.786 175.237 LS
437.786 175.237 LE
433.786 179.237 LS
433.786 171.237 LE
430.957 178.065 LS
436.614 172.408 LE
430.957 172.408 LS
436.614 178.065 LE
435.142 175.84 LS
443.142 175.84 LE
439.142 179.84 LS
439.142 171.84 LE
436.314 178.668 LS
441.971 173.011 LE
436.314 173.011 LS
441.971 178.668 LE
440.499 178.064 LS
448.499 178.064 LE
444.499 182.064 LS
444.499 174.064 LE
441.671 180.892 LS
447.328 175.235 LE
441.671 175.235 LS
447.328 180.892 LE
445.856 176.416 LS
453.856 176.416 LE
449.856 180.416 LS
449.856 172.416 LE
447.028 179.244 LS
452.684 173.588 LE
447.028 173.588 LS
452.684 179.244 LE
451.213 173.148 LS
459.213 173.148 LE
455.213 177.148 LS
455.213 169.148 LE
452.384 175.977 LS
458.041 170.32 LE
452.384 170.32 LS
458.041 175.977 LE
456.57 171.635 LS
464.57 171.635 LE
460.57 175.635 LS
460.57 167.635 LE
457.741 174.463 LS
463.398 168.807 LE
457.741 168.807 LS
463.398 174.463 LE
461.926 174.206 LS
469.926 174.206 LE
465.926 178.206 LS
465.926 170.206 LE
463.098 177.035 LS
468.755 171.378 LE
463.098 171.378 LS
468.755 177.035 LE
467.283 174.093 LS
475.283 174.093 LE
471.283 178.093 LS
471.283 170.093 LE
468.455 176.922 LS
474.112 171.265 LE
468.455 171.265 LS
474.112 176.922 LE
472.64 170.833 LS
480.64 170.833 LE
476.64 174.833 LS
476.64 166.833 LE
473.812 173.661 LS
479.468 168.004 LE
473.812 168.004 LS
479.468 173.661 LE
477.997 170.472 LS
485.997 170.472 LE
481.997 174.472 LS
481.997 166.472 LE
479.168 173.301 LS
484.825 167.644 LE
479.168 167.644 LS
484.825 173.301 LE
483.354 174.644 LS
491.354 174.644 LE
487.354 178.644 LS
487.354 170.644 LE
484.525 177.473 LS
490.182 171.816 LE
484.525 171.816 LS
490.182 177.473 LE
488.71 172.066 LS
496.71 172.066 LE
492.71 176.066 LS
492.71 168.066 LE
489.882 174.895 LS
495.539 169.238 LE
489.882 169.238 LS
495.539 174.895 LE
494.067 170.353 LS
502.067 170.353 LE
498.067 174.353 LS
498.067 166.353 LE
495.239 173.182 LS
500.896 167.525 LE
495.239 167.525 LS
500.896 173.182 LE
499.424 174.295 LS
507.424 174.295 LE
503.424 178.295 LS
503.424 170.295 LE
500.596 177.123 LS
506.252 171.467 LE
500.596 171.467 LS
506.252 177.123 LE
504.781 172.704 LS
512.781 172.704 LE
508.781 176.704 LS
508.781 168.704 LE
505.952 175.533 LS
511.609 169.876 LE
505.952 169.876 LS
511.609 175.533 LE
510.138 168.724 LS
518.138 168.724 LE
514.138 172.724 LS
514.138 164.724 LE
511.309 171.552 LS
516.966 165.896 LE
511.309 165.896 LS
516.966 171.552 LE
515.494 168.551 LS
523.494 168.551 LE
519.494 172.551 LS
519.494 164.551 LE
516.666 171.38 LS
522.323 165.723 LE
516.666 165.723 LS
522.323 171.38 LE
0.295 0.295 0.295 C
76.2368 386.778 LS
84.2368 386.778 LE
80.2368 390.778 LS
80.2368 382.778 LE
81.5936 375.588 LS
89.5936 375.588 LE
85.5936 379.588 LS
85.5936 371.588 LE
86.9504 365.194 LS
94.9504 365.194 LE
90.9504 369.194 LS
90.9504 361.194 LE
92.3072 355.357 LS
100.307 355.357 LE
96.3072 359.357 LS
96.3072 351.357 LE
97.664 346.002 LS
105.664 346.002 LE
101.664 350.002 LS
101.664 342.002 LE
103.021 337.095 LS
111.021 337.095 LE
107.021 341.095 LS
107.021 333.095 LE
108.378 328.631 LS
116.378 328.631 LE
112.378 332.631 LS
112.378 324.631 LE
113.734 321.083 LS
121.734 321.083 LE
117.734 325.083 LS
117.734 317.083 LE
119.091 314.158 LS
127.091 314.158 LE
123.091 318.158 LS
123.091 310.158 LE
124.448 307.263 LS
132.448 307.263 LE
128.448 311.263 LS
128.448 303.263 LE
129.805 301.023 LS
137.805 301.023 LE
133.805 305.023 LS
133.805 297.023 LE
135.162 295.745 LS
143.162 295.745 LE
139.162 299.745 LS
139.162 291.745 LE
140.518 290.151 LS
148.518 290.151 LE
144.518 294.151 LS
144.518 286.151 LE
145.875 285.206 LS
153.875 285.206 LE
149.875 289.206 LS
149.875 281.206 LE
151.232 281.827 LS
159.232 281.827 LE
155.232 285.827 LS
155.232 277.827 LE
156.589 277.29 LS
164.589 277.29 LE
160.589 281.29 LS
160.589 273.29 LE
161.946 274.261 LS
169.946 274.261 LE
165.946 278.261 LS
165.946 270.261 LE
167.302 270.616 LS
175.302 270.616 LE
171.302 274.616 LS
171.302 266.616 LE
172.659 268.111 LS
180.659 268.111 LE
176.659 272.111 LS
176.659 264.111 LE
178.016 265.687 LS
186.016 265.687 LE
182.016 269.687 LS
182.016 261.687 LE
183.373 262.908 LS
191.373 262.908 LE
187.373 266.908 LS
187.373 258.908 LE
188.73 261.143 LS
196.73 261.143 LE
192.73 265.143 LS
192.73 257.143 LE
194.086 258.798 LS
202.086 258.798 LE
198.086 262.798 LS
198.086 254.798 LE
199.443 257.796 LS
207.443 257.796 LE
203.443 261.796 LS
203.443 253.796 LE
204.8 255.698 LS
212.8 255.698 LE
208.8 259.698 LS
208.8 251.698 LE
210.157 254.589 LS
218.157 254.589 LE
214.157 258.589 LS
214.157 250.589 LE
215.514 252.634 LS
223.514 252.634 LE
219.514 256.634 LS
219.514 248.634 LE
220.87 252.261 LS
228.87 252.261 LE
224.87 256.261 LS
224.87 248.261 LE
226.227 250.485 LS
234.227 250.485 LE
230.227 254.485 LS
230.227 246.485 LE
231.584 249.685 LS
239.584 249.685 LE
235.584 253.685 LS
235.584 245.685 LE
236.941 248.224 LS
244.941 248.224 LE
240.941 252.224 LS
240.941 244.224 LE
242.298 247.838 LS
250.298 247.838 LE
246.298 251.838 LS
246.298 243.838 LE
247.654 246.284 LS
255.654 246.284 LE
251.654 250.284 LS
251.654 242.284 LE
253.011 245.738 LS
261.011 245.738 LE
257.011 249.738 LS
257.011 241.738 LE
258.368 244.513 LS
266.368 244.513 LE
262.368 248.513 LS
262.368 240.513 LE
263.725 244.412 LS
271.725 244.412 LE
267.725 248.412 LS
267.725 240.412 LE
269.082 243.777 LS
277.082 243.777 LE
273.082 247.777 LS
273.082 239.777 LE
274.438 242.668 LS
282.438 242.668 LE
278.438 246.668 LS
278.438 238.668 LE
279.795 242.479 LS
287.795 242.479 LE
283.795 246.479 LS
283.795 238.479 LE
285.152 241.367 LS
293.152 241.367 LE
289.152 245.367 LS
289.152 237.367 LE
290.509 241.277 LS
298.509 241.277 LE
294.509 245.277 LS
294.509 237.277 LE
295.866 240 LS
303.866 240 LE
299.866 244 LS
299.866 236 LE
301.222 239.836 LS
309.222 239.836 LE
305.222 243.836 LS
305.222 235.836 LE
306.579 238.248 LS
314.579 238.248 LE
310.579 242.248 LS
310.579 234.248 LE
311.936 237.718 LS
319.936 237.718 LE
315.936 241.718 LS
315.936 233.718 LE
317.293 235.789 LS
325.293 235.789 LE
321.293 239.789 LS
321.293 231.789 LE
322.65 235 LS
330.65 235 LE
326.65 239 LS
326.65 231 LE
328.006 233.972 LS
336.006 233.972 LE
332.006 237.972 LS
332.006 229.972 LE
333.363 232.022 LS
341.363 232.022 LE
337.363 236.022 LS
337.363 228.022 LE
338.72 230.816 LS
346.72 230.816 LE
342.72 234.816 LS
342.72 226.816 LE
344.077 228.421 LS
352.077 228.421 LE
348.077 232.421 LS
348.077 224.421 LE
349.434 226.876 LS
357.434 226.876 LE
353.434 230.876 LS
353.434 222.876 LE
354.79 223.363 LS
362.79 223.363 LE
358.79 227.363 LS
358.79 219.363 LE
360.147 221.034 LS
368.147 221.034 LE
364.147 225.034 LS
364.147 217.034 LE
365.504 188.429 LS
373.504 188.429 LE
369.504 192.429 LS
369.504 184.429 LE
370.861 195.018 LS
378.861 195.018 LE
374.861 199.018 LS
374.861 191.018 LE
376.218 190.656 LS
384.218 190.656 LE
380.218 194.656 LS
380.218 186.656 LE
381.574 188.041 LS
389.574 188.041 LE
385.574 192.041 LS
385.574 184.041 LE
386.931 188.099 LS
394.931 188.099 LE
390.931 192.099 LS
390.931 184.099 LE
392.288 187.93 LS
400.288 187.93 LE
396.288 191.93 LS
396.288 183.93 LE
397.645 183.09 LS
405.645 183.09 LE
401.645 187.09 LS
401.645 179.09 LE
403.002 182.56 LS
411.002 182.56 LE
407.002 186.56 LS
407.002 178.56 LE
408.358 183.793 LS
416.358 183.793 LE
412.358 187.793 LS
412.358 179.793 LE
413.715 182.876 LS
421.715 182.876 LE
417.715 186.876 LS
417.715 178.876 LE
419.072 177.749 LS
427.072 177.749 LE
423.072 181.749 LS
423.072 173.749 LE
424.429 178.395 LS
432.429 178.395 LE
428.429 182.395 LS
428.429 174.395 LE
429.786 179.184 LS
437.786 179.184 LE
433.786 183.184 LS
433.786 175.184 LE
435.142 176.999 LS
443.142 176.999 LE
439.142 180.999 LS
439.142 172.999 LE
440.499 173.922 LS
448.499 173.922 LE
444.499 177.922 LS
444.499 169.922 LE
445.856 174.518 LS
453.856 174.518 LE
449.856 178.518 LS
449.856 170.518 LE
451.213 176.542 LS
459.213 176.542 LE
455.213 180.542 LS
455.213 172.542 LE
456.57 176.82 LS
464.57 176.82 LE
460.57 180.82 LS
460.57 172.82 LE
461.926 173.676 LS
469.926 173.676 LE
465.926 177.676 LS
465.926 169.676 LE
467.283 173.606 LS
475.283 173.606 LE
471.283 177.606 LS
471.283 169.606 LE
472.64 175.788 LS
480.64 175.788 LE
476.64 179.788 LS
476.64 171.788 LE
477.997 176.198 LS
485.997 176.198 LE
481.997 180.198 LS
481.997 172.198 LE
483.354 171.741 LS
491.354 171.741 LE
487.354 175.741 LS
487.354 167.741 LE
488.71 175.478 LS
496.71 175.478 LE
492.71 179.478 LS
492.71 171.478 LE
494.067 178.152 LS
502.067 178.152 LE
498.067 182.152 LS
498.067 174.152 LE
499.424 172.866 LS
507.424 172.866 LE
503.424 176.866 LS
503.424 168.866 LE
504.781 174.075 LS
512.781 174.075 LE
508.781 178.075 LS
508.781 170.075 LE
510.138 176.879 LS
518.138 176.879 LE
514.138 180.879 LS
514.138 172.879 LE
515.494 176.485 LS
523.494 176.485 LE
519.494 180.485 LS
519.494 172.485 LE
0.3 0.3 0.3 C
79.5753 394.739 LS
78.8114 392.388 L
76.8114 390.935 L
74.3393 390.935 L
72.3392 392.388 L
71.5753 394.739 L
72.3392 397.09 L
74.3393 398.543 L
76.8114 398.543 L
78.8114 397.09 L
79.5753 394.739 LE
83.7473 387.1 LS
82.9834 384.749 L
80.9834 383.296 L
78.5112 383.296 L
76.5112 384.749 L
75.7473 387.1 L
76.5112 389.451 L
78.5112 390.904 L
80.9834 390.904 L
82.9834 389.451 L
83.7473 387.1 LE
87.9192 379.461 LS
87.1553 377.11 L
85.1553 375.657 L
82.6832 375.657 L
80.6832 377.11 L
79.9192 379.461 L
80.6832 381.812 L
82.6832 383.266 L
85.1553 383.266 L
87.1553 381.812 L
87.9192 379.461 LE
91.3959 373.211 LS
90.632 370.86 L
88.632 369.407 L
86.1598 369.407 L
84.1598 370.86 L
83.3959 373.211 L
84.1598 375.562 L
86.1598 377.016 L
88.632 377.016 L
90.632 375.562 L
91.3959 373.211 LE
95.5679 366.267 LS
94.8039 363.916 L
92.8039 362.463 L
90.3318 362.463 L
88.3318 363.916 L
87.5679 366.267 L
88.3318 368.618 L
90.3318 370.071 L
92.8039 370.071 L
94.8039 368.618 L
95.5679 366.267 LE
98.3492 360.711 LS
97.5852 358.36 L
95.5852 356.907 L
93.1131 356.907 L
91.1131 358.36 L
90.3492 360.711 L
91.1131 363.063 L
93.1131 364.516 L
95.5852 364.516 L
97.5852 363.063 L
98.3492 360.711 LE
101.13 355.156 LS
100.367 352.805 L
98.3665 351.352 L
95.8944 351.352 L
93.8944 352.805 L
93.1305 355.156 L
93.8944 357.507 L
95.8944 358.96 L
98.3665 358.96 L
100.367 357.507 L
101.13 355.156 LE
104.607 350.295 LS
103.843 347.944 L
101.843 346.491 L
99.371 346.491 L
97.371 347.944 L
96.6071 350.295 L
97.371 352.646 L
99.371 354.099 L
101.843 354.099 L
103.843 352.646 L
104.607 350.295 LE
108.084 344.045 LS
107.32 341.694 L
105.32 340.241 L
102.848 340.241 L
100.848 341.694 L
100.084 344.045 L
100.848 346.396 L
102.848 347.849 L
105.32 347.849 L
107.32 346.396 L
108.084 344.045 LE
112.256 337.795 LS
111.492 335.444 L
109.492 333.991 L
107.02 333.991 L
105.02 335.444 L
104.256 337.795 L
105.02 340.146 L
107.02 341.599 L
109.492 341.599 L
111.492 340.146 L
112.256 337.795 LE
116.428 331.545 LS
115.664 329.194 L
113.664 327.741 L
111.192 327.741 L
109.192 329.194 L
108.428 331.545 L
109.192 333.896 L
111.192 335.349 L
113.664 335.349 L
115.664 333.896 L
116.428 331.545 LE
119.904 325.99 LS
119.14 323.638 L
117.14 322.185 L
114.668 322.185 L
112.668 323.638 L
111.904 325.99 L
112.668 328.341 L
114.668 329.794 L
117.14 329.794 L
119.14 328.341 L
119.904 325.99 LE
123.381 320.434 LS
122.617 318.083 L
120.617 316.63 L
118.145 316.63 L
116.145 318.083 L
115.381 320.434 L
116.145 322.785 L
118.145 324.238 L
120.617 324.238 L
122.617 322.785 L
123.381 320.434 LE
126.858 314.879 LS
126.094 312.527 L
124.094 311.074 L
121.622 311.074 L
119.621 312.527 L
118.858 314.879 L
119.621 317.23 L
121.622 318.683 L
124.094 318.683 L
126.094 317.23 L
126.858 314.879 LE
130.334 310.018 LS
129.57 307.666 L
127.57 306.213 L
125.098 306.213 L
123.098 307.666 L
122.334 310.018 L
123.098 312.369 L
125.098 313.822 L
127.57 313.822 L
129.57 312.369 L
130.334 310.018 LE
133.811 304.462 LS
133.047 302.111 L
131.047 300.658 L
128.575 300.658 L
126.575 302.111 L
125.811 304.462 L
126.575 306.813 L
128.575 308.266 L
131.047 308.266 L
133.047 306.813 L
133.811 304.462 LE
137.983 298.906 LS
137.219 296.555 L
135.219 295.102 L
132.747 295.102 L
130.747 296.555 L
129.983 298.906 L
130.747 301.258 L
132.747 302.711 L
135.219 302.711 L
137.219 301.258 L
137.983 298.906 LE
142.85 291.962 LS
142.086 289.611 L
140.086 288.158 L
137.614 288.158 L
135.614 289.611 L
134.85 291.962 L
135.614 294.313 L
137.614 295.766 L
140.086 295.766 L
142.086 294.313 L
142.85 291.962 LE
147.022 285.712 LS
146.258 283.361 L
144.258 281.908 L
141.786 281.908 L
139.786 283.361 L
139.022 285.712 L
139.786 288.063 L
141.786 289.516 L
144.258 289.516 L
146.258 288.063 L
147.022 285.712 LE
151.889 279.462 LS
151.125 277.111 L
149.125 275.658 L
146.653 275.658 L
144.653 277.111 L
143.889 279.462 L
144.653 281.813 L
146.653 283.266 L
149.125 283.266 L
151.125 281.813 L
151.889 279.462 LE
157.452 273.212 LS
156.688 270.861 L
154.688 269.408 L
152.216 269.408 L
150.216 270.861 L
149.452 273.212 L
150.216 275.563 L
152.216 277.017 L
154.688 277.017 L
156.688 275.563 L
157.452 273.212 LE
163.015 267.657 LS
162.251 265.306 L
160.251 263.853 L
157.779 263.853 L
155.779 265.306 L
155.015 267.657 L
155.779 270.008 L
157.779 271.461 L
160.251 271.461 L
162.251 270.008 L
163.015 267.657 LE
167.882 262.101 LS
167.118 259.75 L
165.118 258.297 L
162.646 258.297 L
160.646 259.75 L
159.882 262.101 L
160.646 264.452 L
162.646 265.906 L
165.118 265.906 L
167.118 264.452 L
167.882 262.101 LE
172.749 257.24 LS
171.985 254.889 L
169.985 253.436 L
167.513 253.436 L
165.513 254.889 L
164.749 257.24 L
165.513 259.591 L
167.513 261.044 L
169.985 261.044 L
171.985 259.591 L
172.749 257.24 LE
179.007 251.685 LS
178.243 249.334 L
176.243 247.881 L
173.771 247.881 L
171.771 249.334 L
171.007 251.685 L
171.771 254.036 L
173.771 255.489 L
176.243 255.489 L
178.243 254.036 L
179.007 251.685 LE
184.57 246.129 LS
183.806 243.778 L
181.806 242.325 L
179.334 242.325 L
177.334 243.778 L
176.57 246.129 L
177.334 248.48 L
179.334 249.933 L
181.806 249.933 L
183.806 248.48 L
184.57 246.129 LE
190.828 240.574 LS
190.064 238.223 L
188.064 236.77 L
185.592 236.77 L
183.592 238.223 L
182.828 240.574 L
183.592 242.925 L
185.592 244.378 L
188.064 244.378 L
190.064 242.925 L
190.828 240.574 LE
196.39 237.102 LS
195.626 234.75 L
193.626 233.297 L
191.154 233.297 L
189.154 234.75 L
188.39 237.102 L
189.154 239.453 L
191.154 240.906 L
193.626 240.906 L
195.626 239.453 L
196.39 237.102 LE
201.953 232.24 LS
201.189 229.889 L
199.189 228.436 L
196.717 228.436 L
194.717 229.889 L
193.953 232.24 L
194.717 234.592 L
196.717 236.045 L
199.189 236.045 L
201.189 234.592 L
201.953 232.24 LE
206.82 228.768 LS
206.056 226.417 L
204.056 224.964 L
201.584 224.964 L
199.584 226.417 L
198.82 228.768 L
199.584 231.119 L
201.584 232.573 L
204.056 232.573 L
206.056 231.119 L
206.82 228.768 LE
211.687 225.296 LS
210.924 222.945 L
208.924 221.492 L
206.451 221.492 L
204.451 222.945 L
203.687 225.296 L
204.451 227.647 L
206.451 229.1 L
208.924 229.1 L
210.924 227.647 L
211.687 225.296 LE
217.25 221.129 LS
216.486 218.778 L
214.486 217.325 L
212.014 217.325 L
210.014 218.778 L
209.25 221.129 L
210.014 223.481 L
212.014 224.934 L
214.486 224.934 L
216.486 223.481 L
217.25 221.129 LE
223.508 217.657 LS
222.744 215.306 L
220.744 213.853 L
218.272 213.853 L
216.272 215.306 L
215.508 217.657 L
216.272 220.008 L
218.272 221.462 L
220.744 221.462 L
222.744 220.008 L
223.508 217.657 LE
231.157 212.796 LS
230.393 210.445 L
228.393 208.992 L
225.921 208.992 L
223.921 210.445 L
223.157 212.796 L
223.921 215.147 L
225.921 216.6 L
228.393 216.6 L
230.393 215.147 L
231.157 212.796 LE
238.805 207.935 LS
238.041 205.584 L
236.041 204.131 L
233.569 204.131 L
231.569 205.584 L
230.805 207.935 L
231.569 210.286 L
233.569 211.739 L
236.041 211.739 L
238.041 210.286 L
238.805 207.935 LE
243.673 203.074 LS
242.909 200.723 L
240.909 199.27 L
238.436 199.27 L
236.436 200.723 L
235.673 203.074 L
236.436 205.425 L
238.436 206.878 L
240.909 206.878 L
242.909 205.425 L
243.673 203.074 LE
248.54 198.907 LS
247.776 196.556 L
245.776 195.103 L
243.304 195.103 L
241.304 196.556 L
240.54 198.907 L
241.304 201.259 L
243.304 202.712 L
245.776 202.712 L
247.776 201.259 L
248.54 198.907 LE
254.102 195.435 LS
253.339 193.084 L
251.339 191.631 L
248.866 191.631 L
246.866 193.084 L
246.102 195.435 L
246.866 197.786 L
248.866 199.24 L
251.339 199.24 L
253.339 197.786 L
254.102 195.435 LE
258.97 189.88 LS
258.206 187.529 L
256.206 186.076 L
253.734 186.076 L
251.734 187.529 L
250.97 189.88 L
251.734 192.231 L
253.734 193.684 L
256.206 193.684 L
258.206 192.231 L
258.97 189.88 LE
263.142 185.713 LS
262.378 183.362 L
260.378 181.909 L
257.906 181.909 L
255.906 183.362 L
255.142 185.713 L
255.906 188.064 L
257.906 189.517 L
260.378 189.517 L
262.378 188.064 L
263.142 185.713 LE
268.009 179.463 LS
267.245 177.112 L
265.245 175.659 L
262.773 175.659 L
260.773 177.112 L
260.009 179.463 L
260.773 181.814 L
262.773 183.267 L
265.245 183.267 L
267.245 181.814 L
268.009 179.463 LE
272.181 173.908 LS
271.417 171.557 L
269.417 170.103 L
266.945 170.103 L
264.945 171.557 L
264.181 173.908 L
264.945 176.259 L
266.945 177.712 L
269.417 177.712 L
271.417 176.259 L
272.181 173.908 LE
276.353 167.658 LS
275.589 165.307 L
273.589 163.854 L
271.117 163.854 L
269.117 165.307 L
268.353 167.658 L
269.117 170.009 L
271.117 171.462 L
273.589 171.462 L
275.589 170.009 L
276.353 167.658 LE
281.22 161.408 LS
280.456 159.057 L
278.456 157.604 L
275.984 157.604 L
273.984 159.057 L
273.22 161.408 L
273.984 163.759 L
275.984 165.212 L
278.456 165.212 L
280.456 163.759 L
281.22 161.408 LE
284.697 155.158 LS
283.933 152.807 L
281.933 151.354 L
279.461 151.354 L
277.461 152.807 L
276.697 155.158 L
277.461 157.509 L
279.461 158.962 L
281.933 158.962 L
283.933 157.509 L
284.697 155.158 LE
288.173 148.214 LS
287.41 145.862 L
285.41 144.409 L
282.937 144.409 L
280.937 145.862 L
280.173 148.214 L
280.937 150.565 L
282.937 152.018 L
285.41 152.018 L
287.41 150.565 L
288.173 148.214 LE
291.65 141.964 LS
290.886 139.612 L
288.886 138.159 L
286.414 138.159 L
284.414 139.612 L
283.65 141.964 L
284.414 144.315 L
286.414 145.768 L
288.886 145.768 L
290.886 144.315 L
291.65 141.964 LE
295.822 134.325 LS
295.058 131.974 L
293.058 130.521 L
290.586 130.521 L
288.586 131.974 L
287.822 134.325 L
288.586 136.676 L
290.586 138.129 L
293.058 138.129 L
295.058 136.676 L
295.822 134.325 LE
299.299 128.769 LS
298.535 126.418 L
296.535 124.965 L
294.063 124.965 L
292.063 126.418 L
291.299 128.769 L
292.063 131.12 L
294.063 132.573 L
296.535 132.573 L
298.535 131.12 L
299.299 128.769 LE
302.775 121.825 LS
302.011 119.474 L
300.011 118.021 L
297.539 118.021 L
295.539 119.474 L
294.775 121.825 L
295.539 124.176 L
297.539 125.629 L
300.011 125.629 L
302.011 124.176 L
302.775 121.825 LE
306.252 116.269 LS
305.488 113.918 L
303.488 112.465 L
301.016 112.465 L
299.016 113.918 L
298.252 116.269 L
299.016 118.62 L
301.016 120.074 L
303.488 120.074 L
305.488 118.62 L
306.252 116.269 LE
310.424 110.019 LS
309.66 107.668 L
307.66 106.215 L
305.188 106.215 L
303.188 107.668 L
302.424 110.019 L
303.188 112.371 L
305.188 113.824 L
307.66 113.824 L
309.66 112.371 L
310.424 110.019 LE
313.901 105.158 LS
313.137 102.807 L
311.137 101.354 L
308.665 101.354 L
306.665 102.807 L
305.901 105.158 L
306.665 107.509 L
308.665 108.963 L
311.137 108.963 L
313.137 107.509 L
313.901 105.158 LE
317.377 99.6028 LS
316.613 97.2517 L
314.613 95.7986 L
312.141 95.7986 L
310.141 97.2517 L
309.377 99.6028 L
310.141 101.954 L
312.141 103.407 L
314.613 103.407 L
316.613 101.954 L
317.377 99.6028 LE
321.549 94.7418 LS
320.785 92.3906 L
318.785 90.9375 L
316.313 90.9375 L
314.313 92.3906 L
313.549 94.7418 L
314.313 97.0929 L
316.313 98.546 L
318.785 98.546 L
320.785 97.0929 L
321.549 94.7418 LE
325.721 89.8807 LS
324.957 87.5295 L
322.957 86.0765 L
320.485 86.0765 L
318.485 87.5295 L
317.721 89.8807 L
318.485 92.2318 L
320.485 93.6849 L
322.957 93.6849 L
324.957 92.2318 L
325.721 89.8807 LE
333.37 85.7141 LS
332.606 83.3629 L
330.606 81.9099 L
328.134 81.9099 L
326.134 83.3629 L
325.37 85.7141 L
326.134 88.0652 L
328.134 89.5183 L
330.606 89.5183 L
332.606 88.0652 L
333.37 85.7141 LE
339.628 82.2419 LS
338.864 79.8907 L
336.864 78.4377 L
334.392 78.4377 L
332.392 79.8907 L
331.628 82.2419 L
332.392 84.593 L
334.392 86.0461 L
336.864 86.0461 L
338.864 84.593 L
339.628 82.2419 LE
345.19 80.853 LS
344.426 78.5019 L
342.426 77.0488 L
339.954 77.0488 L
337.954 78.5019 L
337.19 80.853 L
337.954 83.2042 L
339.954 84.6573 L
342.426 84.6573 L
344.426 83.2042 L
345.19 80.853 LE
350.753 80.1586 LS
349.989 77.8074 L
347.989 76.3543 L
345.517 76.3543 L
343.517 77.8074 L
342.753 80.1586 L
343.517 82.5097 L
345.517 83.9628 L
347.989 83.9628 L
349.989 82.5097 L
350.753 80.1586 LE
357.011 80.1586 LS
356.247 77.8074 L
354.247 76.3543 L
351.775 76.3543 L
349.775 77.8074 L
349.011 80.1586 L
349.775 82.5097 L
351.775 83.9628 L
354.247 83.9628 L
356.247 82.5097 L
357.011 80.1586 LE
361.183 81.5475 LS
360.419 79.1963 L
358.419 77.7432 L
355.947 77.7432 L
353.947 79.1963 L
353.183 81.5475 L
353.947 83.8986 L
355.947 85.3517 L
358.419 85.3517 L
360.419 83.8986 L
361.183 81.5475 LE
361.878 87.103 LS
361.114 84.7518 L
359.114 83.2988 L
356.642 83.2988 L
354.642 84.7518 L
353.878 87.103 L
354.642 89.4541 L
356.642 90.9072 L
359.114 90.9072 L
361.114 89.4541 L
361.878 87.103 LE
363.269 96.1306 LS
362.505 93.7795 L
360.505 92.3264 L
358.033 92.3264 L
356.033 93.7795 L
355.269 96.1306 L
356.033 98.4818 L
358.033 99.9349 L
360.505 99.9349 L
362.505 98.4818 L
363.269 96.1306 LE
363.269 91.2696 LS
362.505 88.9184 L
360.505 87.4654 L
358.033 87.4654 L
356.033 88.9184 L
355.269 91.2696 L
356.033 93.6207 L
358.033 95.0738 L
360.505 95.0738 L
362.505 93.6207 L
363.269 91.2696 LE
364.659 107.936 LS
363.896 105.585 L
361.896 104.132 L
359.423 104.132 L
357.423 105.585 L
356.659 107.936 L
357.423 110.287 L
359.423 111.74 L
361.896 111.74 L
363.896 110.287 L
364.659 107.936 LE
364.659 101.686 LS
363.896 99.335 L
361.896 97.882 L
359.423 97.882 L
357.423 99.335 L
356.659 101.686 L
357.423 104.037 L
359.423 105.49 L
361.896 105.49 L
363.896 104.037 L
364.659 101.686 LE
365.355 119.047 LS
364.591 116.696 L
362.591 115.243 L
360.119 115.243 L
358.119 116.696 L
357.355 119.047 L
358.119 121.398 L
360.119 122.851 L
362.591 122.851 L
364.591 121.398 L
365.355 119.047 LE
366.05 112.797 LS
365.286 110.446 L
363.286 108.993 L
360.814 108.993 L
358.814 110.446 L
358.05 112.797 L
358.814 115.148 L
360.814 116.601 L
363.286 116.601 L
365.286 115.148 L
366.05 112.797 LE
368.831 121.825 LS
368.067 119.474 L
366.067 118.021 L
363.595 118.021 L
361.595 119.474 L
360.831 121.825 L
361.595 124.176 L
363.595 125.629 L
366.067 125.629 L
368.067 124.176 L
368.831 121.825 LE
370.917 125.991 LS
370.153 123.64 L
368.153 122.187 L
365.681 122.187 L
363.681 123.64 L
362.917 125.991 L
363.681 128.343 L
365.681 129.796 L
368.153 129.796 L
370.153 128.343 L
370.917 125.991 LE
374.394 126.686 LS
373.63 124.335 L
371.63 122.882 L
369.158 122.882 L
367.158 124.335 L
366.394 126.686 L
367.158 129.037 L
369.158 130.49 L
371.63 130.49 L
373.63 129.037 L
374.394 126.686 LE
378.566 125.991 LS
377.802 123.64 L
375.802 122.187 L
373.33 122.187 L
371.33 123.64 L
370.566 125.991 L
371.33 128.343 L
373.33 129.796 L
375.802 129.796 L
377.802 128.343 L
378.566 125.991 LE
382.738 124.603 LS
381.974 122.251 L
379.974 120.798 L
377.502 120.798 L
375.502 122.251 L
374.738 124.603 L
375.502 126.954 L
377.502 128.407 L
379.974 128.407 L
381.974 126.954 L
382.738 124.603 LE
388.996 123.214 LS
388.232 120.863 L
386.232 119.409 L
383.76 119.409 L
381.76 120.863 L
380.996 123.214 L
381.76 125.565 L
383.76 127.018 L
386.232 127.018 L
388.232 125.565 L
388.996 123.214 LE
393.168 123.214 LS
392.404 120.863 L
390.404 119.409 L
387.932 119.409 L
385.932 120.863 L
385.168 123.214 L
385.932 125.565 L
387.932 127.018 L
390.404 127.018 L
392.404 125.565 L
393.168 123.214 LE
397.34 123.214 LS
396.576 120.863 L
394.576 119.409 L
392.104 119.409 L
390.104 120.863 L
389.34 123.214 L
390.104 125.565 L
392.104 127.018 L
394.576 127.018 L
396.576 125.565 L
397.34 123.214 LE
402.902 121.825 LS
402.139 119.474 L
400.139 118.021 L
397.666 118.021 L
395.666 119.474 L
394.902 121.825 L
395.666 124.176 L
397.666 125.629 L
400.139 125.629 L
402.139 124.176 L
402.902 121.825 LE
406.379 121.13 LS
405.615 118.779 L
403.615 117.326 L
401.143 117.326 L
399.143 118.779 L
398.379 121.13 L
399.143 123.482 L
401.143 124.935 L
403.615 124.935 L
405.615 123.482 L
406.379 121.13 LE
411.942 119.047 LS
411.178 116.696 L
409.178 115.243 L
406.706 115.243 L
404.706 116.696 L
403.942 119.047 L
404.706 121.398 L
406.706 122.851 L
409.178 122.851 L
411.178 121.398 L
411.942 119.047 LE
418.895 116.269 LS
418.131 113.918 L
416.131 112.465 L
413.659 112.465 L
411.659 113.918 L
410.895 116.269 L
411.659 118.62 L
413.659 120.074 L
416.131 120.074 L
418.131 118.62 L
418.895 116.269 LE
424.458 114.88 LS
423.694 112.529 L
421.694 111.076 L
419.222 111.076 L
417.222 112.529 L
416.458 114.88 L
417.222 117.232 L
419.222 118.685 L
421.694 118.685 L
423.694 117.232 L
424.458 114.88 LE
429.325 113.492 LS
428.561 111.14 L
426.561 109.687 L
424.089 109.687 L
422.089 111.14 L
421.325 113.492 L
422.089 115.843 L
424.089 117.296 L
426.561 117.296 L
428.561 115.843 L
429.325 113.492 LE
435.583 112.797 LS
434.819 110.446 L
432.819 108.993 L
430.347 108.993 L
428.347 110.446 L
427.583 112.797 L
428.347 115.148 L
430.347 116.601 L
432.819 116.601 L
434.819 115.148 L
435.583 112.797 LE
439.059 113.492 LS
438.296 111.14 L
436.296 109.687 L
433.823 109.687 L
431.823 111.14 L
431.059 113.492 L
431.823 115.843 L
433.823 117.296 L
436.296 117.296 L
438.296 115.843 L
439.059 113.492 LE
443.231 114.88 LS
442.467 112.529 L
440.467 111.076 L
437.995 111.076 L
435.995 112.529 L
435.231 114.88 L
435.995 117.232 L
437.995 118.685 L
440.467 118.685 L
442.467 117.232 L
443.231 114.88 LE
448.099 115.575 LS
447.335 113.224 L
445.335 111.771 L
442.863 111.771 L
440.863 113.224 L
440.099 115.575 L
440.863 117.926 L
442.863 119.379 L
445.335 119.379 L
447.335 117.926 L
448.099 115.575 LE
451.575 116.964 LS
450.811 114.613 L
448.811 113.16 L
446.339 113.16 L
444.339 114.613 L
443.575 116.964 L
444.339 119.315 L
446.339 120.768 L
448.811 120.768 L
450.811 119.315 L
451.575 116.964 LE
456.443 119.047 LS
455.679 116.696 L
453.679 115.243 L
451.207 115.243 L
449.207 116.696 L
448.443 119.047 L
449.207 121.398 L
451.207 122.851 L
453.679 122.851 L
455.679 121.398 L
456.443 119.047 LE
460.615 121.13 LS
459.851 118.779 L
457.851 117.326 L
455.379 117.326 L
453.379 118.779 L
452.615 121.13 L
453.379 123.482 L
455.379 124.935 L
457.851 124.935 L
459.851 123.482 L
460.615 121.13 LE
465.482 123.214 LS
464.718 120.863 L
462.718 119.409 L
460.246 119.409 L
458.246 120.863 L
457.482 123.214 L
458.246 125.565 L
460.246 127.018 L
462.718 127.018 L
464.718 125.565 L
465.482 123.214 LE
467.568 125.297 LS
466.804 122.946 L
464.804 121.493 L
462.332 121.493 L
460.332 122.946 L
459.568 125.297 L
460.332 127.648 L
462.332 129.101 L
464.804 129.101 L
466.804 127.648 L
467.568 125.297 LE
471.74 129.464 LS
470.976 127.113 L
468.976 125.659 L
466.504 125.659 L
464.504 127.113 L
463.74 129.464 L
464.504 131.815 L
466.504 133.268 L
468.976 133.268 L
470.976 131.815 L
471.74 129.464 LE
475.216 132.936 LS
474.453 130.585 L
472.453 129.132 L
469.98 129.132 L
467.98 130.585 L
467.216 132.936 L
467.98 135.287 L
469.98 136.74 L
472.453 136.74 L
474.453 135.287 L
475.216 132.936 LE
477.302 136.408 LS
476.539 134.057 L
474.539 132.604 L
472.066 132.604 L
470.066 134.057 L
469.302 136.408 L
470.066 138.759 L
472.066 140.212 L
474.539 140.212 L
476.539 138.759 L
477.302 136.408 LE
481.474 141.269 LS
480.71 138.918 L
478.71 137.465 L
476.238 137.465 L
474.238 138.918 L
473.474 141.269 L
474.238 143.62 L
476.238 145.073 L
478.71 145.073 L
480.71 143.62 L
481.474 141.269 LE
485.646 146.825 LS
484.882 144.473 L
482.882 143.02 L
480.41 143.02 L
478.41 144.473 L
477.646 146.825 L
478.41 149.176 L
480.41 150.629 L
482.882 150.629 L
484.882 149.176 L
485.646 146.825 LE
489.123 151.686 LS
488.359 149.335 L
486.359 147.881 L
483.887 147.881 L
481.887 149.335 L
481.123 151.686 L
481.887 154.037 L
483.887 155.49 L
486.359 155.49 L
488.359 154.037 L
489.123 151.686 LE
492.6 157.241 LS
491.836 154.89 L
489.836 153.437 L
487.364 153.437 L
485.364 154.89 L
484.6 157.241 L
485.364 159.592 L
487.364 161.045 L
489.836 161.045 L
491.836 159.592 L
492.6 157.241 LE
495.381 162.102 LS
494.617 159.751 L
492.617 158.298 L
490.145 158.298 L
488.145 159.751 L
487.381 162.102 L
488.145 164.453 L
490.145 165.906 L
492.617 165.906 L
494.617 164.453 L
495.381 162.102 LE
499.553 166.963 LS
498.789 164.612 L
496.789 163.159 L
494.317 163.159 L
492.317 164.612 L
491.553 166.963 L
492.317 169.314 L
494.317 170.768 L
496.789 170.768 L
498.789 169.314 L
499.553 166.963 LE
503.725 171.824 LS
502.961 169.473 L
500.961 168.02 L
498.489 168.02 L
496.489 169.473 L
495.725 171.824 L
496.489 174.176 L
498.489 175.629 L
500.961 175.629 L
502.961 174.176 L
503.725 171.824 LE
507.897 176.685 LS
507.133 174.334 L
505.133 172.881 L
502.661 172.881 L
500.661 174.334 L
499.897 176.685 L
500.661 179.037 L
502.661 180.49 L
505.133 180.49 L
507.133 179.037 L
507.897 176.685 LE
512.069 181.547 LS
511.305 179.195 L
509.305 177.742 L
506.833 177.742 L
504.833 179.195 L
504.069 181.547 L
504.833 183.898 L
506.833 185.351 L
509.305 185.351 L
511.305 183.898 L
512.069 181.547 LE
516.936 185.713 LS
516.172 183.362 L
514.172 181.909 L
511.7 181.909 L
509.7 183.362 L
508.936 185.713 L
509.7 188.064 L
511.7 189.517 L
514.172 189.517 L
516.172 188.064 L
516.936 185.713 LE
520.413 189.185 LS
519.649 186.834 L
517.649 185.381 L
515.177 185.381 L
513.177 186.834 L
512.413 189.185 L
513.177 191.536 L
515.177 192.99 L
517.649 192.99 L
519.649 191.536 L
520.413 189.185 LE
523.889 191.963 LS
523.125 189.612 L
521.125 188.159 L
518.653 188.159 L
516.653 189.612 L
515.889 191.963 L
516.653 194.314 L
518.653 195.767 L
521.125 195.767 L
523.125 194.314 L
523.889 191.963 LE
0.525 0.525 0.525 C
73.6613 394.572 LS
73.6613 386.572 L
81.6613 386.572 L
81.6613 394.572 L
73.6613 394.572 LE
77.8333 387.628 LS
77.8333 379.628 L
85.8333 379.628 L
85.8333 387.628 L
77.8333 387.628 LE
81.3099 380.684 LS
81.3099 372.684 L
89.3099 372.684 L
89.3099 380.684 L
81.3099 380.684 LE
85.4819 373.045 LS
85.4819 365.045 L
93.4819 365.045 L
93.4819 373.045 L
85.4819 373.045 LE
88.2632 368.184 LS
88.2632 360.184 L
96.2632 360.184 L
96.2632 368.184 L
88.2632 368.184 LE
91.0445 362.628 LS
91.0445 354.628 L
99.0445 354.628 L
99.0445 362.628 L
91.0445 362.628 LE
94.5211 357.767 LS
94.5211 349.767 L
102.521 349.767 L
102.521 357.767 L
94.5211 357.767 LE
98.6931 351.517 LS
98.6931 343.517 L
106.693 343.517 L
106.693 351.517 L
98.6931 351.517 LE
102.17 344.573 LS
102.17 336.573 L
110.17 336.573 L
110.17 344.573 L
102.17 344.573 LE
106.342 338.323 LS
106.342 330.323 L
114.342 330.323 L
114.342 338.323 L
106.342 338.323 LE
109.818 332.767 LS
109.818 324.767 L
117.818 324.767 L
117.818 332.767 L
109.818 332.767 LE
113.99 326.517 LS
113.99 318.517 L
121.99 318.517 L
121.99 326.517 L
113.99 326.517 LE
117.467 320.962 LS
117.467 312.962 L
125.467 312.962 L
125.467 320.962 L
117.467 320.962 LE
120.944 316.101 LS
120.944 308.101 L
128.944 308.101 L
128.944 316.101 L
120.944 316.101 LE
123.725 311.24 LS
123.725 303.24 L
131.725 303.24 L
131.725 311.24 L
123.725 311.24 LE
127.897 305.684 LS
127.897 297.684 L
135.897 297.684 L
135.897 305.684 L
127.897 305.684 LE
132.069 298.74 LS
132.069 290.74 L
140.069 290.74 L
140.069 298.74 L
132.069 298.74 LE
136.936 293.184 LS
136.936 285.184 L
144.936 285.184 L
144.936 293.184 L
136.936 293.184 LE
141.803 286.934 LS
141.803 278.934 L
149.803 278.934 L
149.803 286.934 L
141.803 286.934 LE
146.671 279.99 LS
146.671 271.99 L
154.671 271.99 L
154.671 279.99 L
146.671 279.99 LE
151.538 273.046 LS
151.538 265.046 L
159.538 265.046 L
159.538 273.046 L
151.538 273.046 LE
155.71 267.49 LS
155.71 259.49 L
163.71 259.49 L
163.71 267.49 L
155.71 267.49 LE
160.577 262.629 LS
160.577 254.629 L
168.577 254.629 L
168.577 262.629 L
160.577 262.629 LE
163.359 259.157 LS
163.359 251.157 L
171.359 251.157 L
171.359 259.157 L
163.359 259.157 LE
166.835 255.685 LS
166.835 247.685 L
174.835 247.685 L
174.835 255.685 L
166.835 255.685 LE
171.007 251.518 LS
171.007 243.518 L
179.007 243.518 L
179.007 251.518 L
171.007 251.518 LE
174.484 248.74 LS
174.484 240.74 L
182.484 240.74 L
182.484 248.74 L
174.484 248.74 LE
177.96 245.268 LS
177.96 237.268 L
185.96 237.268 L
185.96 245.268 L
177.96 245.268 LE
181.437 242.49 LS
181.437 234.49 L
189.437 234.49 L
189.437 242.49 L
181.437 242.49 LE
184.914 239.018 LS
184.914 231.018 L
192.914 231.018 L
192.914 239.018 L
184.914 239.018 LE
189.781 235.546 LS
189.781 227.546 L
197.781 227.546 L
197.781 235.546 L
189.781 235.546 LE
192.562 233.463 LS
192.562 225.463 L
200.562 225.463 L
200.562 233.463 L
192.562 233.463 LE
193.258 233.463 LS
193.258 225.463 L
201.258 225.463 L
201.258 233.463 L
193.258 233.463 LE
198.125 229.296 LS
198.125 221.296 L
206.125 221.296 L
206.125 229.296 L
198.125 229.296 LE
202.297 227.213 LS
202.297 219.213 L
210.297 219.213 L
210.297 227.213 L
202.297 227.213 LE
206.469 225.129 LS
206.469 217.129 L
214.469 217.129 L
214.469 225.129 L
206.469 225.129 LE
213.422 221.657 LS
213.422 213.657 L
221.422 213.657 L
221.422 221.657 L
213.422 221.657 LE
219.68 219.574 LS
219.68 211.574 L
227.68 211.574 L
227.68 219.574 L
219.68 219.574 LE
226.633 216.796 LS
226.633 208.796 L
234.633 208.796 L
234.633 216.796 L
226.633 216.796 LE
233.587 214.713 LS
233.587 206.713 L
241.587 206.713 L
241.587 214.713 L
233.587 214.713 LE
239.844 212.63 LS
239.844 204.63 L
247.844 204.63 L
247.844 212.63 L
239.844 212.63 LE
246.798 209.852 LS
246.798 201.852 L
254.798 201.852 L
254.798 209.852 L
246.798 209.852 LE
254.446 208.463 LS
254.446 200.463 L
262.446 200.463 L
262.446 208.463 L
254.446 208.463 LE
261.4 206.38 LS
261.4 198.38 L
269.4 198.38 L
269.4 206.38 L
261.4 206.38 LE
268.353 204.991 LS
268.353 196.991 L
276.353 196.991 L
276.353 204.991 L
268.353 204.991 LE
275.306 203.602 LS
275.306 195.602 L
283.306 195.602 L
283.306 203.602 L
275.306 203.602 LE
282.259 202.213 LS
282.259 194.213 L
290.259 194.213 L
290.259 202.213 L
282.259 202.213 LE
288.517 200.824 LS
288.517 192.824 L
296.517 192.824 L
296.517 200.824 L
288.517 200.824 LE
295.471 199.435 LS
295.471 191.435 L
303.471 191.435 L
303.471 199.435 L
295.471 199.435 LE
299.643 198.046 LS
299.643 190.046 L
307.643 190.046 L
307.643 198.046 L
299.643 198.046 LE
306.596 196.658 LS
306.596 188.658 L
314.596 188.658 L
314.596 196.658 L
306.596 196.658 LE
314.94 194.574 LS
314.94 186.574 L
322.94 186.574 L
322.94 194.574 L
314.94 194.574 LE
321.198 193.185 LS
321.198 185.185 L
329.198 185.185 L
329.198 193.185 L
321.198 193.185 LE
326.76 191.102 LS
326.76 183.102 L
334.76 183.102 L
334.76 191.102 L
326.76 191.102 LE
332.323 189.713 LS
332.323 181.713 L
340.323 181.713 L
340.323 189.713 L
332.323 189.713 LE
337.886 187.63 LS
337.886 179.63 L
345.886 179.63 L
345.886 187.63 L
337.886 187.63 LE
344.144 184.852 LS
344.144 176.852 L
352.144 176.852 L
352.144 184.852 L
344.144 184.852 LE
349.706 182.074 LS
349.706 174.074 L
357.706 174.074 L
357.706 182.074 L
349.706 182.074 LE
353.878 179.991 LS
353.878 171.991 L
361.878 171.991 L
361.878 179.991 L
353.878 179.991 LE
354.573 175.13 LS
354.573 167.13 L
362.573 167.13 L
362.573 175.13 L
354.573 175.13 LE
355.269 170.963 LS
355.269 162.963 L
363.269 162.963 L
363.269 170.963 L
355.269 170.963 LE
355.964 164.019 LS
355.964 156.019 L
363.964 156.019 L
363.964 164.019 L
355.964 164.019 LE
356.659 158.463 LS
356.659 150.463 L
364.659 150.463 L
364.659 158.463 L
356.659 158.463 LE
357.355 154.297 LS
357.355 146.297 L
365.355 146.297 L
365.355 154.297 L
357.355 154.297 LE
357.355 149.436 LS
357.355 141.436 L
365.355 141.436 L
365.355 149.436 L
357.355 149.436 LE
357.355 143.88 LS
357.355 135.88 L
365.355 135.88 L
365.355 143.88 L
357.355 143.88 LE
358.745 141.102 LS
358.745 133.102 L
366.745 133.102 L
366.745 141.102 L
358.745 141.102 LE
361.527 139.019 LS
361.527 131.019 L
369.527 131.019 L
369.527 139.019 L
361.527 139.019 LE
362.222 139.019 LS
362.222 131.019 L
370.222 131.019 L
370.222 139.019 L
362.222 139.019 LE
362.917 136.241 LS
362.917 128.241 L
370.917 128.241 L
370.917 136.241 L
362.917 136.241 LE
365.003 132.769 LS
365.003 124.769 L
373.003 124.769 L
373.003 132.769 L
365.003 132.769 LE
368.48 134.158 LS
368.48 126.158 L
376.48 126.158 L
376.48 134.158 L
368.48 134.158 LE
373.347 135.547 LS
373.347 127.547 L
381.347 127.547 L
381.347 135.547 L
373.347 135.547 LE
378.215 135.547 LS
378.215 127.547 L
386.215 127.547 L
386.215 135.547 L
378.215 135.547 LE
382.387 136.241 LS
382.387 128.241 L
390.387 128.241 L
390.387 136.241 L
382.387 136.241 LE
387.949 136.936 LS
387.949 128.936 L
395.949 128.936 L
395.949 136.936 L
387.949 136.936 LE
392.121 137.63 LS
392.121 129.63 L
400.121 129.63 L
400.121 137.63 L
392.121 137.63 LE
398.379 137.63 LS
398.379 129.63 L
406.379 129.63 L
406.379 137.63 L
398.379 137.63 LE
405.332 138.325 LS
405.332 130.325 L
413.332 130.325 L
413.332 138.325 L
405.332 138.325 LE
412.286 140.408 LS
412.286 132.408 L
420.286 132.408 L
420.286 140.408 L
412.286 140.408 LE
415.762 142.491 LS
415.762 134.491 L
423.762 134.491 L
423.762 142.491 L
415.762 142.491 LE
419.934 143.88 LS
419.934 135.88 L
427.934 135.88 L
427.934 143.88 L
419.934 143.88 LE
423.411 146.658 LS
423.411 138.658 L
431.411 138.658 L
431.411 146.658 L
423.411 146.658 LE
426.888 148.741 LS
426.888 140.741 L
434.888 140.741 L
434.888 148.741 L
426.888 148.741 LE
428.973 152.214 LS
428.973 144.214 L
436.973 144.214 L
436.973 152.214 L
428.973 152.214 LE
432.45 155.686 LS
432.45 147.686 L
440.45 147.686 L
440.45 155.686 L
432.45 155.686 LE
432.45 154.991 LS
432.45 146.991 L
440.45 146.991 L
440.45 154.991 L
432.45 154.991 LE
435.231 159.852 LS
435.231 151.852 L
443.231 151.852 L
443.231 159.852 L
435.231 159.852 LE
438.708 163.324 LS
438.708 155.324 L
446.708 155.324 L
446.708 163.324 L
438.708 163.324 LE
440.794 167.491 LS
440.794 159.491 L
448.794 159.491 L
448.794 167.491 L
440.794 167.491 LE
444.271 171.658 LS
444.271 163.658 L
452.271 163.658 L
452.271 171.658 L
444.271 171.658 LE
445.661 175.824 LS
445.661 167.824 L
453.661 167.824 L
453.661 175.824 L
445.661 175.824 LE
448.443 179.297 LS
448.443 171.297 L
456.443 171.297 L
456.443 179.297 L
448.443 179.297 LE
450.529 183.463 LS
450.529 175.463 L
458.529 175.463 L
458.529 183.463 L
450.529 183.463 LE
452.615 188.324 LS
452.615 180.324 L
460.615 180.324 L
460.615 188.324 L
452.615 188.324 LE
455.396 193.88 LS
455.396 185.88 L
463.396 185.88 L
463.396 193.88 L
455.396 193.88 LE
458.873 198.741 LS
458.873 190.741 L
466.873 190.741 L
466.873 198.741 L
458.873 198.741 LE
461.654 204.991 LS
461.654 196.991 L
469.654 196.991 L
469.654 204.991 L
461.654 204.991 LE
463.74 209.852 LS
463.74 201.852 L
471.74 201.852 L
471.74 209.852 L
463.74 209.852 LE
466.521 215.407 LS
466.521 207.407 L
474.521 207.407 L
474.521 215.407 L
466.521 215.407 LE
469.302 221.657 LS
469.302 213.657 L
477.302 213.657 L
477.302 221.657 L
469.302 221.657 LE
472.779 227.907 LS
472.779 219.907 L
480.779 219.907 L
480.779 227.907 L
472.779 227.907 LE
476.951 235.546 LS
476.951 227.546 L
484.951 227.546 L
484.951 235.546 L
476.951 235.546 LE
476.951 234.852 LS
476.951 226.852 L
484.951 226.852 L
484.951 234.852 L
476.951 234.852 LE
480.428 241.796 LS
480.428 233.796 L
488.428 233.796 L
488.428 241.796 L
480.428 241.796 LE
483.904 249.435 LS
483.904 241.435 L
491.904 241.435 L
491.904 249.435 L
483.904 249.435 LE
487.381 254.296 LS
487.381 246.296 L
495.381 246.296 L
495.381 254.296 L
487.381 254.296 LE
490.858 259.157 LS
490.858 251.157 L
498.858 251.157 L
498.858 259.157 L
490.858 259.157 LE
494.334 263.324 LS
494.334 255.324 L
502.334 255.324 L
502.334 263.324 L
494.334 263.324 LE
497.811 268.185 LS
497.811 260.185 L
505.811 260.185 L
505.811 268.185 L
497.811 268.185 LE
501.287 272.351 LS
501.287 264.351 L
509.287 264.351 L
509.287 272.351 L
501.287 272.351 LE
505.459 275.129 LS
505.459 267.129 L
513.459 267.129 L
513.459 275.129 L
505.459 275.129 LE
510.327 277.907 LS
510.327 269.907 L
518.327 269.907 L
518.327 277.907 L
510.327 277.907 LE
1 1 1 C
330.322 396.858 518.538 315.949 330.322 315.949 T
330.322 396.858 518.538 396.858 518.538 315.949 T
0.5 W
[16 0] 0 setdash
0 0 0 C
330.322 315.949 LS
518.538 315.949 LE
330.322 396.858 LS
518.538 396.858 LE
330.322 396.858 LS
518.538 396.858 LE
330.322 315.949 LS
518.538 315.949 LE
330.322 315.949 LS
330.322 396.858 LE
518.538 315.949 LS
518.538 396.858 LE
518.538 315.949 LS
518.538 396.858 LE
330.322 315.949 LS
330.322 396.858 L
330.322 396.858 LE
518.538 396.858 LS
518.538 396.858 LE
518.538 315.949 LS
518.538 315.949 LE
330.322 315.949 LS
330.322 315.949 LE
(following particle) 356.368 386.745 14 /Helvetica SCL
(leading particle) 356.368 366.517 14 /Helvetica SCL
(following particle Glow.) 356.368 346.29 14 /Helvetica SCL
(leading particle Glow.) 356.368 326.063 14 /Helvetica SCL
[] 0 setdash
0.525 0.525 0.525 C
339.345 330.063 LS
339.345 322.063 L
347.345 322.063 L
347.345 330.063 L
339.345 330.063 LE
0.3 0.3 0.3 C
347.345 346.29 LS
346.581 343.939 L
344.581 342.486 L
342.109 342.486 L
340.109 343.939 L
339.345 346.29 L
340.109 348.641 L
342.109 350.094 L
344.581 350.094 L
346.581 348.641 L
347.345 346.29 LE
0.295 0.295 0.295 C
339.345 366.517 LS
347.345 366.517 LE
343.345 370.517 LS
343.345 362.517 LE
0.11 0.11 0.11 C
339.345 386.745 LS
347.345 386.745 LE
343.345 390.745 LS
343.345 382.745 LE
340.517 389.573 LS
346.174 383.916 LE
340.517 383.916 LS
346.174 389.573 LE
grestore
showpage
cleartomark
%%PageTrailer
%%Trailer
end
%%EOF
